<svg xmlns="http://www.w3.org/2000/svg" width="48" height="48">
<defs>
  <path
     d="M 24 2 C 11.856 2 2 11.856002 2 24 C 2 36.143997 11.856 46 24 46 C 36.144001 46 46 36.143997 46 24 C 46 11.856002 36.144001 2 24 2 z M 24 14.71875 C 29.119529 14.71875 33.28125 18.880467 33.28125 24 C 33.28125 29.119529 29.119529 33.28125 24 33.28125 C 18.880471 33.28125 14.71875 29.119529 14.71875 24 C 14.71875 18.880467 18.880471 14.71875 24 14.71875 z M 24 16.03125 C 19.594823 16.03125 16.03125 19.594823 16.03125 24 C 16.03125 28.405177 19.594823 31.96875 24 31.96875 C 28.405176 31.96875 31.96875 28.405177 31.96875 24 C 31.96875 19.594823 28.405176 16.03125 24 16.03125 z M 24 17.96875 C 27.333647 17.96875 30.03125 20.666353 30.03125 24 C 30.03125 27.333647 27.333647 30.03125 24 30.03125 C 20.666353 30.03125 17.96875 27.333647 17.96875 24 C 17.96875 20.666353 20.666353 17.96875 24 17.96875 z M 17.875 35.65625 L 19.125 35.65625 C 19.978194 35.656254 20.600921 35.831678 21 36.1875 C 21.399071 36.541363 21.593745 37.088851 21.59375 37.84375 C 21.593745 38.602585 21.401037 39.175424 21 39.53125 C 20.598955 39.887077 19.974262 40.0625 19.125 40.0625 L 17.875 40.0625 L 17.875 35.65625 z M 21.875 35.65625 L 22.5 35.65625 L 23.90625 39.375 L 25.3125 35.65625 L 25.90625 35.65625 L 24.25 40.0625 L 23.5625 40.0625 L 21.875 35.65625 z M 26.5625 35.65625 L 27.78125 35.65625 C 28.634445 35.656254 29.257171 35.831678 29.65625 36.1875 C 30.055322 36.541363 30.249995 37.088851 30.25 37.84375 C 30.249995 38.602585 30.057288 39.175424 29.65625 39.53125 C 29.255205 39.887077 28.630513 40.0625 27.78125 40.0625 L 26.5625 40.0625 L 26.5625 35.65625 z M 18.46875 36.15625 L 18.46875 39.5625 L 19.1875 39.5625 C 19.794958 39.562501 20.250125 39.431475 20.53125 39.15625 C 20.814335 38.881027 20.968747 38.43745 20.96875 37.84375 C 20.968747 37.253985 20.814335 36.835762 20.53125 36.5625 C 20.250125 36.287279 19.794958 36.156254 19.1875 36.15625 L 18.46875 36.15625 z M 27.15625 36.15625 L 27.15625 39.5625 L 27.875 39.5625 C 28.482457 39.562501 28.937625 39.431475 29.21875 39.15625 C 29.501835 38.881027 29.624996 38.43745 29.625 37.84375 C 29.624996 37.253985 29.501835 36.835762 29.21875 36.5625 C 28.937625 36.287279 28.482457 36.156254 27.875 36.15625 L 27.15625 36.15625 z "
     id="path-main" />
</defs>
<acyl-settings>
<linearGradient
     id="linearGradient4321">
    <stop
       style="stop-color:#00DEFF;stop-opacity:0.0;"
       offset="1.38777878078e-16"
       id="stop1" />
    <stop
       style="stop-color:#B3DEDE;stop-opacity:1.0;"
       offset="1.38777878078e-16"
       id="stop2" />
  </linearGradient>
<linearGradient
     inkscape:collect="always"
     xlink:href="#linearGradient4321"
     id="acyl_gradient"
     x1="50.0%"
     y1="0.0%"
     x2="50.0%"
     y2="100.0%" />
<filter>
    </filter>
<use id="1" style="fill:url(#acyl_gradient);filter:url(#filter1111)" xlink:href="#path-main" />
</acyl-settings>
</svg>
