<svg xmlns="http://www.w3.org/2000/svg" width="48" height="48">
<defs>
  <path
     d="M 24 2 C 11.856 2 2 11.856002 2 24 C 2 36.143997 11.856 46 24 46 C 36.144 46 46 36.143997 46 24 C 46 11.856002 36.144 2 24 2 z M 24 14.71875 C 29.119529 14.71875 33.28125 18.880467 33.28125 24 C 33.28125 29.119529 29.119529 33.28125 24 33.28125 C 18.880471 33.28125 14.71875 29.119529 14.71875 24 C 14.71875 18.880467 18.880471 14.71875 24 14.71875 z M 24 16.03125 C 19.594823 16.03125 16.03125 19.594823 16.03125 24 C 16.03125 28.405177 19.594823 31.96875 24 31.96875 C 28.405176 31.96875 31.96875 28.405177 31.96875 24 C 31.96875 19.594823 28.405176 16.03125 24 16.03125 z M 24 17.96875 C 27.333646 17.96875 30.03125 20.666353 30.03125 24 C 30.03125 27.333647 27.333646 30.03125 24 30.03125 C 20.666353 30.03125 17.96875 27.333647 17.96875 24 C 17.96875 20.666353 20.666353 17.96875 24 17.96875 z M 14.6875 35.65625 L 15.90625 35.65625 C 16.759444 35.656254 17.413421 35.831678 17.8125 36.1875 C 18.211572 36.541363 18.406246 37.088851 18.40625 37.84375 C 18.406246 38.602585 18.182287 39.175424 17.78125 39.53125 C 17.380205 39.887077 16.755512 40.0625 15.90625 40.0625 L 14.6875 40.0625 L 14.6875 35.65625 z M 18.6875 35.65625 L 19.3125 35.65625 L 20.71875 39.375 L 22.09375 35.65625 L 22.71875 35.65625 L 21.0625 40.0625 L 20.375 40.0625 L 18.6875 35.65625 z M 23.375 35.65625 L 24.59375 35.65625 C 25.446943 35.656254 26.069671 35.831678 26.46875 36.1875 C 26.867822 36.541363 27.062496 37.088851 27.0625 37.84375 C 27.062496 38.602585 26.869788 39.175424 26.46875 39.53125 C 26.067705 39.887077 25.443012 40.0625 24.59375 40.0625 L 23.375 40.0625 L 23.375 35.65625 z M 30.1875 35.65625 L 31.53125 35.65625 C 32.034516 35.656254 32.408545 35.758405 32.65625 35.96875 C 32.903949 36.179105 33.031247 36.512872 33.03125 36.9375 C 33.031247 37.214694 32.973494 37.442175 32.84375 37.625 C 32.715965 37.80783 32.526984 37.92923 32.28125 38 C 32.40903 38.04325 32.536327 38.139707 32.65625 38.28125 C 32.778132 38.422795 32.909362 38.596049 33.03125 38.84375 L 33.625 40.0625 L 33 40.0625 L 32.4375 38.9375 C 32.292021 38.642618 32.13761 38.44008 32 38.34375 C 31.864352 38.24742 31.673405 38.187501 31.4375 38.1875 L 30.78125 38.1875 L 30.78125 40.0625 L 30.1875 40.0625 L 30.1875 35.65625 z M 15.28125 36.15625 L 15.28125 39.5625 L 16 39.5625 C 16.607458 39.562501 17.062624 39.431475 17.34375 39.15625 C 17.626835 38.881027 17.781246 38.43745 17.78125 37.84375 C 17.781246 37.253985 17.626835 36.835762 17.34375 36.5625 C 17.062624 36.287279 16.607458 36.156254 16 36.15625 L 15.28125 36.15625 z M 23.96875 36.15625 L 23.96875 39.5625 L 24.6875 39.5625 C 25.294957 39.562501 25.718875 39.431475 26 39.15625 C 26.283085 38.881027 26.437496 38.43745 26.4375 37.84375 C 26.437496 37.253985 26.283085 36.835762 26 36.5625 C 25.718875 36.287279 25.294957 36.156254 24.6875 36.15625 L 23.96875 36.15625 z M 30.78125 36.15625 L 30.78125 37.71875 L 31.53125 37.71875 C 31.818269 37.718752 32.042021 37.631722 32.1875 37.5 C 32.334939 37.366322 32.406247 37.195035 32.40625 36.9375 C 32.406247 36.679972 32.334932 36.473502 32.1875 36.34375 C 32.042021 36.212039 31.818269 36.156254 31.53125 36.15625 L 30.78125 36.15625 z M 27.71875 38.15625 L 29.3125 38.15625 L 29.3125 38.65625 L 27.71875 38.65625 L 27.71875 38.15625 z "
     id="path-main" />
</defs>
<acyl-settings>
<linearGradient
     id="linearGradient4321">
    <stop
       style="stop-color:#00DEFF;stop-opacity:0.0;"
       offset="1.38777878078e-16"
       id="stop1" />
    <stop
       style="stop-color:#B3DEDE;stop-opacity:1.0;"
       offset="1.38777878078e-16"
       id="stop2" />
  </linearGradient>
<linearGradient
     inkscape:collect="always"
     xlink:href="#linearGradient4321"
     id="acyl_gradient"
     x1="50.0%"
     y1="0.0%"
     x2="50.0%"
     y2="100.0%" />
<filter>
    </filter>
<use id="1" style="fill:url(#acyl_gradient);filter:url(#filter1111)" xlink:href="#path-main" />
</acyl-settings>
</svg>
