<svg xmlns="http://www.w3.org/2000/svg" width="48" height="48">
<defs>
  <path
     id="path-main"
     d="m 11.420213,9.5895106 c -2.3374492,0 -4.2420215,1.3048124 -4.2420215,2.9255324 l 31.5372345,0 c 0,-1.620719 -1.904574,-2.9255324 -4.242022,-2.9255324 l -23.053191,0 z M 7.8803191,13.275681 C 4.6150646,13.275681 2,15.534536 2,18.336851 L 2,36.09483 c 0,2.802315 2.6150646,5.061169 5.8803191,5.06117 l 32.2393619,0 C 43.384935,41.156 46,38.897145 46,36.09483 l 0,-17.757979 c 0,-2.802315 -2.615065,-5.06117 -5.880319,-5.06117 l -32.2393619,0 z m 15.9148939,4.125 c 5.94618,0 10.795213,4.689523 10.795213,10.502659 -10e-7,5.813402 -4.849034,10.50266 -10.795213,10.50266 -5.946729,-3e-6 -10.736702,-4.68931 -10.736702,-10.50266 -2e-6,-5.813137 4.789972,-10.502659 10.736702,-10.502659 z M 24,18.044298 l -1.287234,0.146276 -1.170213,0.321809 -0.175532,-0.263298 -0.555851,0.08777 -0.234042,0.234043 -0.43883,0.05851 -0.409575,0.175532 -0.117021,0.08777 -0.02926,0.02925 -0.204787,0.02926 -0.175532,0.321808 -0.204788,-0.409574 -0.08777,0.175532 0.05851,0.49734 -0.351064,0.263298 -0.234042,0.526596 0.43883,0 0.117021,-0.234043 0.351064,0.234043 0.380319,0 0,-0.321809 -0.468085,-0.175532 -0.234043,0.146277 0.08777,-0.117021 c 0.184719,-0.127692 0.367716,-0.257405 0.555851,-0.380319 l 0.409575,0.117021 c 0.285411,0.189552 0.562757,0.366587 0.848404,0.555851 l 0.468085,-0.351064 -0.526596,-0.204787 -0.175532,-0.409575 -0.585106,-0.08777 0.204787,-0.117021 0.409575,-0.117021 c 0.119903,-0.057 0.229709,-0.101078 0.351063,-0.146277 l -0.204787,0.204787 0.994681,0.672873 0,0.351064 -0.380319,0.380319 0.49734,0.994681 0.351064,-0.175532 0.43883,-0.672873 c 0.622778,-0.188219 1.167788,-0.410855 1.755319,-0.672872 l -0.05851,0.263298 0.292554,0.175532 0.555851,-0.292553 -0.263298,-0.292554 -0.351064,0.175532 -0.146277,-0.02926 c 0.02881,-0.01288 0.05877,-0.01614 0.08777,-0.02925 L 25.111702,18.512383 24,18.044298 z m 4.680851,1.696808 -0.731383,0.204788 -0.49734,0.263297 0,0.292554 -0.731383,0.468085 0.175532,0.702127 0.409574,-0.321808 0.263298,0.321808 0.321808,0.175532 0.175532,-0.526595 -0.08777,-0.292554 0.08777,-0.234042 0.468085,-0.409575 0.175532,0 -0.175532,0.43883 0,0.409575 c 0.180685,-0.04806 0.370947,-0.06528 0.555852,-0.08777 l -0.526596,0.351064 -0.02926,0.234042 -0.585106,0.468085 -0.585106,-0.146276 0,-0.321809 -0.292553,0.146277 0.117021,0.321808 -0.43883,0 -0.234043,0.380319 -0.292553,0.351064 -0.526595,0.08777 0.292553,0.321809 0.08777,0.292553 -0.380319,0 -0.497341,0.263298 0,0.760638 0.204787,0 0.234043,0.263298 0.49734,-0.263298 0.204788,-0.468085 0.321808,-0.204787 0.08777,-0.175532 0.614362,-0.146277 0.292553,0.351064 0.351064,0.175532 -0.204788,0.409574 0.321809,-0.08777 0.146277,-0.409574 -0.38032,-0.43883 0.146277,0 0.409575,0.321809 0.08777,0.438829 0.351064,0.38032 0.08777,-0.585107 0.175532,-0.08777 c 0.194425,0.197305 0.362845,0.450822 0.526596,0.672873 l 0.555851,0.02925 0.380319,0.234042 -0.175532,0.204788 -0.351064,0.321808 -0.49734,0 -0.672872,-0.234042 -0.351064,0.05851 -0.263298,0.263298 -0.731383,-0.702127 -0.49734,-0.146277 -0.731383,0.08777 -0.702128,0.204787 c -0.37511,0.415707 -0.727405,0.796997 -1.082447,1.228724 l -0.43883,0.99468 0.175532,0.234043 -0.321808,0.526596 0.380319,0.906915 c 0.334373,0.369752 0.660793,0.741682 0.994681,1.111702 l 0.49734,-0.409575 0.204787,0.234043 0.555851,-0.321809 0.175532,0.175532 0.526596,0 0.292553,0.351064 -0.146276,0.585106 0.351063,0.43883 -0.02926,0.702128 0.263298,0.526596 -0.175532,0.468085 c -0.01959,0.320148 -0.05851,0.615969 -0.05851,0.93617 0.161157,0.43379 0.315907,0.850326 0.468086,1.287234 l 0.146276,0.702128 0,0.351063 0.263298,0 0.43883,-0.263297 0.49734,0 0.760639,-0.819149 -0.08777,-0.321809 0.49734,-0.409574 -0.351064,-0.409575 0.43883,-0.380319 0.468085,-0.263298 0.146277,-0.234042 -0.117022,-0.468086 0,-1.228723 0.38032,-0.702128 0.438829,-0.526595 0.468085,-1.111702 0,-0.292554 c -0.230365,0.02836 -0.476825,0.04232 -0.702127,0.05851 l 0.49734,-0.468085 0.614362,-0.409575 0.380319,-0.409574 0,-0.43883 c -0.07871,-0.145104 -0.154796,-0.293722 -0.234042,-0.43883 l -0.321809,0.351064 -0.234043,-0.234042 -0.351063,-0.292554 0,-0.555851 0.409574,0.43883 0.43883,-0.05851 c 0.206001,0.182814 0.404424,0.347707 0.585106,0.555851 L 34.06383,26.52834 c 0,-0.346003 -0.425574,-2.065166 -1.287234,-3.510638 -0.861661,-1.444995 -2.369682,-2.779255 -2.369681,-2.779255 l -0.117021,0.204787 -0.409575,0.43883 -0.49734,-0.526596 0.49734,0 0.263298,-0.263298 -0.965426,-0.146276 -0.49734,-0.204788 z m -10.970745,0.234043 -0.204787,0.468085 c 0,0 -0.298254,0.06796 -0.380319,0.08777 -1.047942,0.943982 -3.164995,2.969488 -3.656915,6.816489 0.01948,0.0892 0.351064,0.585107 0.351064,0.585107 l 0.819149,0.49734 0.789893,0.204787 0.351064,0.409575 0.526596,0.409574 0.292553,-0.05851 0.263298,0.117021 0,0.05851 -0.321808,0.789893 -0.234043,0.321809 0.08777,0.175532 -0.204787,0.643617 0.702127,1.228723 0.672873,0.614362 0.292553,0.409574 -0.02926,0.87766 0.234042,0.49734 -0.234042,0.994681 c 0,0 -0.02924,-0.0094 0,0.08777 0.0295,0.09725 1.269877,0.727985 1.345744,0.672872 0.07561,-0.05614 0.117022,-0.117021 0.117022,-0.117021 l -0.08777,-0.175532 0.321808,-0.321808 0.117021,-0.292553 0.497341,-0.175532 0.351064,-0.906915 -0.117022,-0.263298 0.292554,-0.380319 0.585106,-0.146277 0.292553,-0.672872 -0.08777,-0.819149 0.468085,-0.643617 0.05851,-0.643617 c -0.626528,-0.303709 -1.221231,-0.594221 -1.843085,-0.906915 l -0.351064,-0.614362 -0.555851,-0.117021 -0.292553,-0.789894 -0.789894,0.08777 -0.643617,-0.49734 -0.643617,0.614362 0,0.08777 C 16.653793,29.13194 16.373933,29.12633 16.18882,29.015059 l -0.146277,-0.43883 0,-0.468085 -0.468085,0.05851 c 0.03823,-0.295703 0.107791,-0.582005 0.146277,-0.877659 l -0.292554,0 -0.263297,0.351064 -0.263298,0.117021 -0.380319,-0.204787 -0.05851,-0.468086 0.08777,-0.526595 0.585106,-0.409575 0.43883,0 0.08777,-0.263298 0.555851,0.117022 0.43883,0.526595 0.05851,-0.848404 0.760638,-0.585106 0.234042,-0.643617 0.526596,-0.204787 0.321809,-0.409575 0.672872,-0.146277 0.380319,-0.49734 -1.053191,0 0.643617,-0.292553 0.468085,0 0.614361,-0.204787 0.08777,-0.292554 -0.204787,-0.175531 -0.292553,-0.08777 0.08777,-0.263298 -0.204787,-0.380319 -0.43883,0.175531 0.08777,-0.351063 -0.555851,-0.292554 -0.409575,0.731383 0.05851,0.234043 -0.43883,0.175532 -0.263298,0.555851 -0.117021,-0.49734 -0.731383,-0.321809 -0.08777,-0.351064 0.93617,-0.555851 0.409575,-0.380319 0.02926,-0.468085 -0.204787,-0.117021 -0.321809,-0.05851 z m 7.811171,0.848404 0,0.292553 0.204787,0.175532 0,0.468085 -0.117021,0.555851 0.49734,-0.117021 0.321808,-0.321808 -0.292553,-0.292554 C 26.034942,21.322069 25.939861,21.074965 25.81383,20.823553 l -0.292553,0 z m -0.497341,0.672873 -0.292553,0.08777 0.08777,0.497341 0.409574,-0.175532 -0.204787,-0.409574 z m 5.470745,4.62234 0.43883,0.49734 0.526595,1.111703 0.321809,0.321808 -0.146277,0.409574 0.263298,0.321809 c -0.138058,0.0092 -0.267616,0.02925 -0.409574,0.02925 -0.250416,-0.514374 -0.42367,-1.0124 -0.614362,-1.550527 l -0.321809,-0.409574 -0.204787,-0.614362 0.146277,-0.117021 z" />
</defs>
<acyl-settings>
<linearGradient
     id="linearGradient4321">
    <stop
       style="stop-color:#00DEFF;stop-opacity:0.0;"
       offset="1.38777878078e-16"
       id="stop1" />
    <stop
       style="stop-color:#B3DEDE;stop-opacity:1.0;"
       offset="1.38777878078e-16"
       id="stop2" />
  </linearGradient>
<linearGradient
     inkscape:collect="always"
     xlink:href="#linearGradient4321"
     id="acyl_gradient"
     x1="50.0%"
     y1="0.0%"
     x2="50.0%"
     y2="100.0%" />
<filter>
    </filter>
<use id="1" style="fill:url(#acyl_gradient);filter:url(#filter1111)" xlink:href="#path-main" />
</acyl-settings>
</svg>
