<svg xmlns="http://www.w3.org/2000/svg" width="48" height="48">
<defs>
  <path
     id="path-main"
     d="m 11.420213,9.5895106 c -2.3374492,0 -4.2420215,1.3048124 -4.2420215,2.9255324 l 31.5372345,0 c 0,-1.620719 -1.904574,-2.9255324 -4.242022,-2.9255324 l -23.053191,0 z M 7.8803191,13.275681 C 4.6150646,13.275681 2,15.534536 2,18.336851 L 2,36.09483 c 0,2.802315 2.6150646,5.061169 5.8803191,5.06117 l 32.2393619,0 C 43.384935,41.156 46,38.897145 46,36.09483 l 0,-17.757979 c 0,-2.802315 -2.615065,-5.06117 -5.880319,-5.06117 l -32.2393619,0 z m 17.5531919,5.55851 c 1.173559,0 2.106383,1.071845 2.106383,2.369681 0,0.246952 -0.111564,0.44365 -0.175532,0.672873 0.40471,0.256993 0.766898,0.559326 1.111702,0.906915 0.417404,-0.3544 0.90369,-0.585107 1.462766,-0.585107 1.340136,0 2.457447,1.180517 2.457447,2.662234 0,0.152991 -0.06453,0.268118 -0.08777,0.409575 0.749118,0.341239 1.349431,0.894033 1.784574,1.638298 0.125586,-0.01992 0.249149,-0.05851 0.380319,-0.05851 1.314262,0 2.371171,1.057634 2.632979,2.428191 0.723874,0.134114 1.316489,0.743923 1.316489,1.579788 2e-6,0.930078 -0.710131,1.696808 -1.550532,1.696808 -0.31768,0 -0.601134,-0.105869 -0.848404,-0.292553 -0.44937,0.362146 -0.951569,0.643616 -1.550532,0.643617 -0.42397,0 -0.756531,-0.248859 -1.111702,-0.43883 -0.683625,0.638092 -1.548205,1.111702 -2.515957,1.111702 -0.826004,0 -1.561821,-0.338746 -2.194149,-0.819149 -1.153148,1.273326 -2.691816,2.135639 -4.446809,2.135639 -1.317577,0 -2.493828,-0.497027 -3.510638,-1.257979 -0.615805,0.540772 -1.37071,0.936168 -2.223404,0.93617 -1.31475,0 -2.434971,-0.803899 -3.071809,-1.960106 -0.357314,0.168472 -0.724568,0.292552 -1.140957,0.292553 -0.952135,-1e-6 -1.725221,-0.584344 -2.281915,-1.345745 -0.315727,0.200061 -0.667816,0.351064 -1.053192,0.351064 -1.1735603,0 -2.135638,-1.071848 -2.135638,-2.369681 0,-1.297833 0.9620777,-2.369681 2.135638,-2.369681 0.382216,0 0.739243,0.124796 1.053192,0.321809 0.556694,-0.761402 1.32978,-1.31649 2.281915,-1.316489 0.258109,0 0.465648,0.136006 0.702127,0.204787 0.03004,-0.207066 0.0548,-0.39312 0.117022,-0.585107 -0.487209,-0.370494 -0.848405,-0.88693 -0.848405,-1.579787 0,-1.113952 0.80685,-2.018617 1.81383,-2.018617 0.777373,0 1.342762,0.584175 1.609043,1.345745 0.0792,-0.0094 0.118173,-0.02925 0.204787,-0.02925 0.419398,0 0.799878,0.209145 1.170213,0.380319 0.982628,-1.562131 2.493154,-2.611747 4.271276,-2.896277 0.105374,-1.192126 1.031731,-2.164894 2.135639,-2.164894 z" />
</defs>
<acyl-settings>
<linearGradient
     id="linearGradient4321">
    <stop
       style="stop-color:#00DEFF;stop-opacity:0.0;"
       offset="1.38777878078e-16"
       id="stop1" />
    <stop
       style="stop-color:#B3DEDE;stop-opacity:1.0;"
       offset="1.38777878078e-16"
       id="stop2" />
  </linearGradient>
<linearGradient
     inkscape:collect="always"
     xlink:href="#linearGradient4321"
     id="acyl_gradient"
     x1="50.0%"
     y1="0.0%"
     x2="50.0%"
     y2="100.0%" />
<filter>
    </filter>
<use id="1" style="fill:url(#acyl_gradient);filter:url(#filter1111)" xlink:href="#path-main" />
</acyl-settings>
</svg>
