<svg xmlns="http://www.w3.org/2000/svg" width="48" height="48">
<defs>
  <path
     id="path-main"
     d="m 11.420213,9.5895106 c -2.3374492,0 -4.2420215,1.3048124 -4.2420215,2.9255324 l 31.5372345,0 c 0,-1.620719 -1.904574,-2.9255324 -4.242022,-2.9255324 l -23.053191,0 z M 7.8803191,13.275681 C 4.6150646,13.275681 2,15.534536 2,18.336851 L 2,36.09483 c 0,2.802315 2.6150646,5.061169 5.8803191,5.06117 l 32.2393619,0 C 43.384935,41.156 46,38.897145 46,36.09483 l 0,-17.757979 c 0,-2.802315 -2.615065,-5.06117 -5.880319,-5.06117 l -32.2393619,0 z m 13.1941489,2.281915 c 0.353066,-0.05879 0.765052,0.106639 0.906915,0.555851 0.283724,0.898425 0,1.942553 4.680851,3.627659 4.680851,1.685107 4.770117,8.049042 2.515957,11.614362 2.742284,-8.650709 -4.699453,-11.322642 -5.646276,-10.531915 l 4.125,12.579787 c 1.072626,3.274119 -2.113432,4.593086 -4.183511,4.593086 -2.070078,0 -4.507893,-0.919925 -4.593085,-3.159575 -0.08519,-2.23965 3.713352,-3.701096 6.553192,-2.984042 L 20.577128,16.376745 c -0.149871,-0.47733 0.144274,-0.760354 0.49734,-0.819149 z" />
</defs>
<acyl-settings>
<linearGradient
     id="linearGradient4321">
    <stop
       style="stop-color:#00DEFF;stop-opacity:0.0;"
       offset="1.38777878078e-16"
       id="stop1" />
    <stop
       style="stop-color:#B3DEDE;stop-opacity:1.0;"
       offset="1.38777878078e-16"
       id="stop2" />
  </linearGradient>
<linearGradient
     inkscape:collect="always"
     xlink:href="#linearGradient4321"
     id="acyl_gradient"
     x1="50.0%"
     y1="0.0%"
     x2="50.0%"
     y2="100.0%" />
<filter>
    </filter>
<use id="1" style="fill:url(#acyl_gradient);filter:url(#filter1111)" xlink:href="#path-main" />
</acyl-settings>
</svg>
