<svg xmlns="http://www.w3.org/2000/svg" width="48" height="48">
<defs>
<defs
     id="defs4">
  </defs>
  <path
     id="path-main"
     d="M 9.4357955,1.9999997 C 8.1061128,1.9999997 7.031,3.0751149 7.031,4.4047952 l 0,39.2059238 C 7.031,44.940401 8.1061128,46 9.4357955,46 l 29.6488015,0 c 1.329681,0 2.404795,-1.059599 2.404795,-2.389281 L 41.535942,13.636107 29.85329,1.9999997 l -20.4174895,0 z M 24.330013,13.620592 c 5.961192,0 10.798307,4.837116 10.798307,10.798308 0,5.961193 -4.837116,10.798309 -10.798307,10.798307 -5.961193,0 -10.798309,-4.837114 -10.798308,-10.798307 0,-5.961193 4.837115,-10.798308 10.798308,-10.798308 z m -0.03103,6.423131 c -1.298344,0.02065 -2.586312,0.600531 -3.459802,1.691115 -1.552871,1.938814 -1.240649,4.761657 0.698166,6.314527 1.938814,1.552871 4.777171,1.240649 6.330042,-0.698166 1.552873,-1.938814 1.240648,-4.777172 -0.698166,-6.330043 -0.848231,-0.679381 -1.860416,-0.993498 -2.87024,-0.977433 z m 0,0.201693 c 0.961656,-0.01522 1.921727,0.29854 2.730607,0.946403 1.848867,1.480829 2.147967,4.186392 0.667137,6.035261 -1.48083,1.848868 -4.170877,2.147967 -6.019747,0.667137 -1.848869,-1.48083 -2.147966,-4.186392 -0.667136,-6.035261 0.832966,-1.039989 2.052724,-1.593966 3.289139,-1.61354 z m 0.03103,1.256699 c -1.665185,0 -3.025389,1.344689 -3.025388,3.009874 0,1.665184 1.360203,3.025387 3.025388,3.025387 1.665185,0 3.02539,-1.360203 3.025388,-3.025387 0,-1.665185 -1.360204,-3.009873 -3.025388,-3.009874 z m 8.998589,17.57828 c 0.20363,4e-6 0.409201,0.02522 0.620593,0.06206 0.211386,0.03685 0.430533,0.08146 0.651622,0.155148 l 0,0.574048 c -0.223029,-0.10666 -0.438296,-0.180356 -0.636107,-0.232722 -0.197816,-0.05236 -0.389812,-0.07757 -0.574048,-0.07757 -0.319995,4e-6 -0.570171,0.06206 -0.744711,0.186178 -0.172603,0.124122 -0.263753,0.298663 -0.263752,0.527503 -10e-7,0.191999 0.05624,0.335511 0.170663,0.434415 0.11636,0.09697 0.345203,0.172605 0.667137,0.232722 l 0.35684,0.07757 c 0.438291,0.0834 0.754405,0.223028 0.961919,0.434415 0.209446,0.209452 0.310292,0.500356 0.310296,0.853314 -4e-6,0.420841 -0.135758,0.744711 -0.4189,0.961918 -0.281209,0.217208 -0.696229,0.325811 -1.241185,0.325811 -0.205573,0 -0.418901,-0.03103 -0.651622,-0.07757 -0.230784,-0.04652 -0.480959,-0.110544 -0.729196,-0.201692 l 0,-0.605078 c 0.238539,0.133815 0.484837,0.226904 0.713681,0.294782 0.228843,0.06788 0.446049,0.108603 0.667137,0.108603 0.335506,0 0.593439,-0.06981 0.775741,-0.201692 0.182296,-0.131874 0.279263,-0.314174 0.279266,-0.558533 -3e-6,-0.213325 -0.06982,-0.391748 -0.201692,-0.511989 -0.129939,-0.120238 -0.33745,-0.20363 -0.636108,-0.263752 l -0.35684,-0.07757 c -0.438295,-0.08727 -0.766045,-0.217205 -0.961918,-0.403385 -0.195875,-0.186175 -0.294782,-0.444109 -0.294782,-0.77574 0,-0.383988 0.133815,-0.694284 0.403385,-0.915374 0.271508,-0.221082 0.657439,-0.325807 1.132581,-0.325811 z m 4.204514,0 c 0.608953,4e-6 1.09379,0.211393 1.458392,0.620592 0.364594,0.407267 0.543014,0.942528 0.543018,1.629055 -4e-6,0.684593 -0.178424,1.235366 -0.543018,1.64457 -0.364602,0.407263 -0.849439,0.620592 -1.458392,0.620592 -0.610897,0 -1.091856,-0.213329 -1.458392,-0.620592 -0.364599,-0.407262 -0.558534,-0.958036 -0.558533,-1.64457 -10e-7,-0.686527 0.193934,-1.221788 0.558533,-1.629055 0.366536,-0.409199 0.847495,-0.620588 1.458392,-0.620592 z m -7.307476,0.07757 0.589563,0 0,4.344147 -0.589563,0 0,-4.344147 z m 7.307476,0.403385 c -0.426659,4e-6 -0.771864,0.162909 -1.023978,0.480959 -0.250177,0.318057 -0.372356,0.738896 -0.372355,1.287729 -1e-6,0.546901 0.122178,0.985193 0.372355,1.303244 0.252114,0.318056 0.597319,0.480959 1.023978,0.480959 0.426654,0 0.760223,-0.162903 1.008462,-0.480959 0.250173,-0.318051 0.387867,-0.756343 0.387871,-1.303244 -4e-6,-0.548833 -0.137698,-0.969672 -0.387871,-1.287729 -0.248239,-0.31805 -0.581808,-0.480955 -1.008462,-0.480959 z" />
</defs>
<acyl-settings>
<linearGradient
     id="linearGradient4321">
    <stop
       style="stop-color:#00DEFF;stop-opacity:0.0;"
       offset="1.38777878078e-16"
       id="stop1" />
    <stop
       style="stop-color:#B3DEDE;stop-opacity:1.0;"
       offset="1.38777878078e-16"
       id="stop2" />
  </linearGradient>
<linearGradient
     inkscape:collect="always"
     xlink:href="#linearGradient4321"
     id="acyl_gradient"
     x1="50.0%"
     y1="0.0%"
     x2="50.0%"
     y2="100.0%" />
<filter>
    </filter>
<use id="1" style="fill:url(#acyl_gradient);filter:url(#filter1111)" xlink:href="#path-main" />
</acyl-settings>
</svg>
