<svg xmlns="http://www.w3.org/2000/svg" width="48" height="48">
<defs>
<defs
     id="defs4">
  </defs>
  <path
     id="path-main"
     d="M 9.918796,1.9999997 C 8.5891128,1.9999997 7.514,3.0751149 7.514,4.4047952 l 0,39.2059238 C 7.514,44.940401 8.5891128,46 9.918796,46 l 29.648801,0 c 1.329681,0 2.404795,-1.059599 2.404795,-2.389281 L 42.018942,13.636107 30.33629,1.9999997 l -20.417489,0 z M 25.309487,14.008462 c 6.629313,-0.04741 5.373623,5.805025 8.874471,10.286319 -3.424726,-2.934473 -4.445129,-6.130623 -6.640339,-6.252468 l -0.108603,13.823695 c 0.01237,1.159408 -3.273692,2.440001 -5.864598,2.544429 -2.827787,0.113976 -4.949225,-1.075448 -4.949225,-2.963329 0,-2.984117 5.660312,-3.218812 8.688294,-2.280677 l 0,-15.157969 z m 13.544429,25.071933 c 0.608951,4e-6 1.09379,0.211393 1.458392,0.620592 0.364592,0.407267 0.558528,0.942528 0.558533,1.629055 -7e-6,0.684593 -0.193939,1.235366 -0.558533,1.64457 -0.364604,0.407263 -0.849439,0.620592 -1.458392,0.620592 -0.6109,0 -1.091856,-0.213329 -1.458393,-0.620592 -0.3646,-0.407262 -0.543018,-0.958036 -0.543018,-1.64457 -2e-6,-0.686527 0.17842,-1.221788 0.543018,-1.629055 0.366535,-0.409199 0.847495,-0.620588 1.458393,-0.620592 z m -15.421721,0.07757 0.667137,0 1.660084,4.344147 -0.605077,0 -0.403385,-1.117067 -1.954866,0 -0.403386,1.117067 -0.620592,0 1.660085,-4.344147 z m 2.885754,0 0.589563,0 0,2.637518 c -3e-6,0.465444 0.09503,0.802892 0.263752,1.008462 0.16872,0.203634 0.44411,0.310296 0.822285,0.310296 0.37623,0 0.638044,-0.106662 0.80677,-0.310296 0.168719,-0.20557 0.263748,-0.543018 0.263752,-1.008462 l 0,-2.637518 0.589562,0 0,2.715092 c -6e-6,0.566293 -0.153212,0.998766 -0.434414,1.287729 -0.279272,0.288963 -0.678776,0.434414 -1.22567,0.434414 -0.54884,0 -0.975495,-0.145451 -1.2567,-0.434414 -0.279269,-0.288963 -0.4189,-0.721436 -0.4189,-1.287729 l 0,-2.715092 z m 4.437236,0 1.210155,0 c 0.841674,4e-6 1.452571,0.176485 1.846262,0.527503 0.393683,0.349087 0.589559,0.899862 0.589563,1.64457 -6e-6,0.748594 -0.193939,1.293548 -0.589563,1.64457 -0.395632,0.351022 -1.008465,0.527504 -1.846262,0.527504 l -1.210155,0 0,-4.344147 z m 4.576869,0 0.589563,0 0,4.344147 -0.589563,0 0,-4.344147 z m 3.521862,0.403385 c -0.426662,4e-6 -0.756349,0.162909 -1.008463,0.480959 -0.250179,0.318057 -0.387871,0.738896 -0.38787,1.287729 -3e-6,0.546901 0.137693,0.985193 0.38787,1.303244 0.252112,0.318056 0.581803,0.480959 1.008463,0.480959 0.426652,0 0.775737,-0.162903 1.023977,-0.480959 0.250171,-0.318051 0.372351,-0.756343 0.372355,-1.303244 -5e-6,-0.548833 -0.122182,-0.969672 -0.372355,-1.287729 -0.248242,-0.31805 -0.597323,-0.480955 -1.023977,-0.480959 z m -7.509168,0.07757 0,3.382229 0.713681,0 c 0.599255,0 1.025914,-0.131874 1.303244,-0.403386 0.279261,-0.271506 0.418896,-0.702043 0.4189,-1.287729 -6e-6,-0.581802 -0.139637,-1.002641 -0.4189,-1.272214 -0.277332,-0.271505 -0.703987,-0.418896 -1.303244,-0.4189 l -0.713681,0 z m -7.571227,0.09309 -0.806771,2.172073 1.598026,0 -0.791255,-2.172073 z" />
</defs>
<acyl-settings>
<linearGradient
     id="linearGradient4321">
    <stop
       style="stop-color:#00DEFF;stop-opacity:0.0;"
       offset="1.38777878078e-16"
       id="stop1" />
    <stop
       style="stop-color:#B3DEDE;stop-opacity:1.0;"
       offset="1.38777878078e-16"
       id="stop2" />
  </linearGradient>
<linearGradient
     inkscape:collect="always"
     xlink:href="#linearGradient4321"
     id="acyl_gradient"
     x1="50.0%"
     y1="0.0%"
     x2="50.0%"
     y2="100.0%" />
<filter>
    </filter>
<use id="1" style="fill:url(#acyl_gradient);filter:url(#filter1111)" xlink:href="#path-main" />
</acyl-settings>
</svg>
