<svg xmlns="http://www.w3.org/2000/svg" width="48" height="48">
<defs>
  <path
     d="M 10.21875 3 C 8.9852537 3 8 4.0435306 8 5.3125 L 8 42.71875 C 8 43.98772 8.9852537 45 10.21875 45 L 37.71875 45 C 38.952243 45 39.96875 43.98772 39.96875 42.71875 L 40 14.125 L 29.15625 3 L 10.21875 3 z M 23.96875 10.75 C 25.178462 10.75 26.125 11.676865 26.125 12.78125 C 26.125 13.885634 25.178462 14.84375 23.96875 14.84375 C 22.759038 14.84375 21.84375 13.885634 21.84375 12.78125 C 21.84375 11.676865 22.759038 10.75 23.96875 10.75 z M 22.875 15.46875 C 23.219271 15.605467 23.579051 15.75 23.96875 15.75 C 24.230238 15.75 24.473433 15.68824 24.71875 15.625 C 24.71515 16.482974 24.70885 20.142039 24.75 21.90625 C 24.140301 22.163168 23.713277 22.168184 23 21.90625 L 22.875 15.46875 z M 23.84375 22.625 C 25.747929 22.625 27.28125 24.158321 27.28125 26.0625 C 27.28125 27.430136 27.151139 28.352026 26 28.90625 C 25.9793 28.50417 25.96875 27.28125 25.96875 27.28125 C 24.915946 26.071312 22.808597 26.176331 21.875 27.28125 C 21.83325 27.719355 21.89143 28.31262 21.875 28.875 C 20.734323 28.316969 20.40625 27.422485 20.40625 26.0625 C 20.40625 24.158321 21.939566 22.625002 23.84375 22.625 z M 19.65625 26.5625 C 19.74249 27.201367 19.944332 27.796163 20.28125 28.3125 L 15.8125 29.46875 C 15.508748 29.155394 15.32527 28.887985 15.28125 28.59375 C 15.23982 28.316817 15.30509 27.959164 15.40625 27.53125 L 19.65625 26.5625 z M 28.03125 26.65625 L 32.46875 27.65625 C 32.56994 28.084234 32.66644 28.473029 32.625 28.75 C 32.58263 29.033207 32.381058 29.29163 32.09375 29.59375 L 27.34375 28.375 C 27.694748 27.86867 27.927578 27.288297 28.03125 26.65625 z M 13.34375 26.78125 C 13.792745 26.78125 14.284424 26.946034 14.625 27.15625 C 14.47635 27.67341 14.47265 28.187322 14.46875 28.6875 C 14.54086 29.16946 14.810944 29.623747 15.1875 30.03125 C 14.791879 30.564029 14.066415 30.96875 13.34375 30.96875 C 12.143044 30.96875 11.1875 30.036765 11.1875 28.875 C 11.1875 27.713118 12.140654 26.78125 13.34375 26.78125 z M 24.0625 27.15625 C 24.623773 27.18386 25.113314 27.430631 25.34375 27.84375 L 25.375 29.90625 C 24.439008 29.284846 23.43668 29.469795 22.4375 29.84375 L 22.4375 27.8125 L 22.46875 27.78125 C 22.905372 27.31934 23.501758 27.12866 24.0625 27.15625 z M 34 27.3125 C 35.108878 27.3125 35.96875 28.210586 35.96875 29.28125 C 35.96875 30.351913 35.108878 31.21875 34 31.21875 C 33.381271 31.21875 32.718219 30.865745 32.34375 30.4375 C 32.587759 30.284674 32.827395 30.145058 32.96875 29.90625 C 33.480949 29.116495 33.443457 28.358383 33.28125 27.46875 C 33.499907 27.40289 33.790912 27.3125 34 27.3125 z M 23.875 30.46875 C 25.226992 30.46875 26.28125 31.514163 26.28125 32.75 C 26.28125 33.985836 25.226058 35.03125 23.875 35.03125 C 22.52394 35.03125 21.5 33.985836 21.5 32.75 C 21.5 31.514163 22.523007 30.46875 23.875 30.46875 z M 26.53125 38.09375 L 27.15625 38.09375 L 28.25 39.71875 L 29.34375 38.09375 L 29.96875 38.09375 L 28.5625 40.1875 L 30.0625 42.46875 L 29.4375 42.46875 L 28.21875 40.59375 L 26.96875 42.46875 L 26.3125 42.46875 L 27.875 40.125 L 26.53125 38.09375 z M 30.25 38.09375 L 30.875 38.09375 L 32.09375 39.90625 L 33.3125 38.09375 L 33.9375 38.09375 L 32.375 40.375 L 32.375 42.46875 L 31.78125 42.46875 L 31.78125 40.375 L 30.25 38.09375 z M 34.25 38.09375 L 37.6875 38.09375 L 37.6875 38.53125 L 34.9375 41.96875 L 37.78125 41.96875 L 37.78125 42.46875 L 34.1875 42.46875 L 34.1875 42.03125 L 36.96875 38.59375 L 34.25 38.59375 L 34.25 38.09375 z "
     id="path-main" />
</defs>
<acyl-settings>
<linearGradient
     id="linearGradient4321">
    <stop
       style="stop-color:#00DEFF;stop-opacity:0.0;"
       offset="1.38777878078e-16"
       id="stop1" />
    <stop
       style="stop-color:#B3DEDE;stop-opacity:1.0;"
       offset="1.38777878078e-16"
       id="stop2" />
  </linearGradient>
<linearGradient
     inkscape:collect="always"
     xlink:href="#linearGradient4321"
     id="acyl_gradient"
     x1="50.0%"
     y1="0.0%"
     x2="50.0%"
     y2="100.0%" />
<filter>
    </filter>
<use id="1" style="fill:url(#acyl_gradient);filter:url(#filter1111)" xlink:href="#path-main" />
</acyl-settings>
</svg>
