<svg xmlns="http://www.w3.org/2000/svg" width="48" height="48">
<defs>
<defs
     id="defs4">
  </defs>
  <path
     id="path-main"
     d="M 10.401796,1.9999997 C 9.0721128,1.9999997 7.997,3.0751149 7.997,4.4047952 l 0,39.2059238 C 7.997,44.940401 9.0721128,46 10.401796,46 l 29.648801,0 c 1.329681,0 2.404795,-1.059599 2.404795,-2.389281 L 42.501942,13.636107 30.81929,1.9999997 l -20.417489,0 z m 22.574048,8.2383643 c 0.162518,-0.02624 0.302944,-0.0049 0.403385,0.06206 0.200879,0.133928 0.321639,0.558783 0.170663,0.868829 -1.913704,3.930019 -4.535379,8.392005 -8.269394,13.06347 l 0.232722,0.139633 -5.492242,8.269394 -0.434415,-0.279267 c 0.107878,0.539405 -0.206189,1.069249 -0.713681,1.241185 l 0.01551,0.01552 c -0.743355,1.016407 -0.20953,1.586518 -0.589562,2.156558 -0.66819,1.002273 -3.478392,1.42666 -4.468266,2.590974 1.39569,-2.487933 1.887639,-4.191127 3.599436,-5.724965 l 0.01551,0.01552 c -0.03637,-0.53451 0.329492,-1.040232 0.868829,-1.148096 l -0.38787,-0.263752 5.492243,-8.238364 0.232722,0.155148 c 2.864843,-5.256323 5.969751,-9.418686 8.874471,-12.691114 0.114542,-0.129039 0.287406,-0.206483 0.44993,-0.232722 z m -1.023978,13.265162 c 1.638253,0 3.125824,0.650983 4.235543,1.691114 l -3.22708,0 -0.511989,0 0,0.527504 0,10.1622 c -0.165865,0.01547 -0.327671,0.03103 -0.496474,0.03103 -3.42567,0 -6.205924,-2.780254 -6.205924,-6.205924 0,-3.42567 2.780254,-6.205924 6.205924,-6.205924 z m 1.535966,2.746121 7.493653,0 0,11.108604 -7.493653,0 0,-11.108604 z m 1.613541,12.830748 c 0.608953,4e-6 1.109305,0.211393 1.473906,0.620592 0.364595,0.407267 0.543014,0.942528 0.543019,1.629055 -5e-6,0.684593 -0.178424,1.235366 -0.543019,1.64457 -0.364601,0.407263 -0.864953,0.620592 -1.473906,0.620592 -0.610898,0 -1.091856,-0.213329 -1.458393,-0.620592 -0.364598,-0.407262 -0.543018,-0.958036 -0.543018,-1.64457 0,-0.686527 0.17842,-1.221788 0.543018,-1.629055 0.366537,-0.409199 0.847495,-0.620588 1.458393,-0.620592 z m 4.809591,0 c 0.25987,4e-6 0.500349,0.03879 0.729196,0.108604 0.230779,0.06788 0.449926,0.172606 0.651622,0.310296 l 0,0.620592 c -0.197818,-0.184235 -0.411146,-0.327747 -0.636108,-0.4189 -0.223028,-0.09114 -0.461568,-0.139629 -0.713681,-0.139633 -0.496476,4e-6 -0.884345,0.16097 -1.148096,0.465444 -0.263753,0.302542 -0.387871,0.729199 -0.38787,1.303244 -1e-6,0.572112 0.124117,1.014282 0.38787,1.318759 0.263751,0.302541 0.65162,0.44993 1.148096,0.44993 0.252113,0 0.490653,-0.03297 0.713681,-0.124119 0.224962,-0.09115 0.43829,-0.234658 0.636108,-0.4189 l 0,0.620593 c -0.205575,0.139633 -0.436358,0.240482 -0.667137,0.310296 -0.228846,0.06981 -0.45769,0.108603 -0.713681,0.108603 -0.657442,0 -1.188824,-0.203633 -1.566996,-0.605077 -0.378174,-0.403385 -0.558534,-0.963855 -0.558533,-1.660085 -10e-7,-0.698163 0.180359,-1.24312 0.558533,-1.64457 0.378172,-0.40338 0.909554,-0.605073 1.566996,-0.605077 z m -11.155149,0.07757 1.210156,0 c 0.841675,4e-6 1.468085,0.176485 1.861777,0.527503 0.393684,0.349087 0.589558,0.899862 0.589562,1.64457 -4e-6,0.748594 -0.209453,1.293548 -0.605077,1.64457 -0.395631,0.351022 -1.008465,0.527504 -1.846262,0.527504 l -1.210156,0 0,-4.344147 z m 6.345558,0.403385 c -0.42666,4e-6 -0.756349,0.162909 -1.008463,0.480959 -0.250177,0.318057 -0.372357,0.738896 -0.372356,1.287729 -10e-7,0.546901 0.122179,0.985193 0.372356,1.303244 0.252114,0.318056 0.581803,0.480959 1.008463,0.480959 0.426654,0 0.775737,-0.162903 1.023977,-0.480959 0.250173,-0.318051 0.372351,-0.756343 0.372355,-1.303244 -4e-6,-0.548833 -0.122182,-0.969672 -0.372355,-1.287729 -0.24824,-0.31805 -0.597323,-0.480955 -1.023977,-0.480959 z m -5.755995,0.07757 0,3.382229 0.713681,0 c 0.599257,0 1.041429,-0.131874 1.318759,-0.403386 0.279263,-0.271506 0.418897,-0.702043 0.4189,-1.287729 -3e-6,-0.581802 -0.139637,-1.002641 -0.4189,-1.272214 -0.27733,-0.271505 -0.719502,-0.418896 -1.318759,-0.4189 l -0.713681,0 z" />
</defs>
<acyl-settings>
<linearGradient
     id="linearGradient4321">
    <stop
       style="stop-color:#00DEFF;stop-opacity:0.0;"
       offset="1.38777878078e-16"
       id="stop1" />
    <stop
       style="stop-color:#B3DEDE;stop-opacity:1.0;"
       offset="1.38777878078e-16"
       id="stop2" />
  </linearGradient>
<linearGradient
     inkscape:collect="always"
     xlink:href="#linearGradient4321"
     id="acyl_gradient"
     x1="50.0%"
     y1="0.0%"
     x2="50.0%"
     y2="100.0%" />
<filter>
    </filter>
<use id="1" style="fill:url(#acyl_gradient);filter:url(#filter1111)" xlink:href="#path-main" />
</acyl-settings>
</svg>
