<svg xmlns="http://www.w3.org/2000/svg" width="48" height="48">
<defs>
  <path
       d="M 11.6875 1.625 C 10.357816 1.625 9.28125 2.70157 9.28125 4.03125 L 9.28125 43.21875 C 9.28125 44.548432 10.357816 45.625 11.6875 45.625 L 41.3125 45.625 C 42.642181 45.625 43.71875 44.548432 43.71875 43.21875 L 43.78125 13.25 L 32.09375 1.625 L 11.6875 1.625 z M 26.9375 11.90625 C 33.625008 11.90625 39.03125 17.212123 39.03125 23.75 C 39.031249 30.288175 33.625006 35.59375 26.9375 35.59375 C 20.249376 35.593748 14.8125 30.288116 14.8125 23.75 C 14.812499 17.212122 20.249375 11.90625 26.9375 11.90625 z M 27.125 12.6875 L 25.6875 12.84375 L 24.375 13.1875 L 24.1875 12.90625 L 23.5625 13 L 23.28125 13.25 L 22.8125 13.34375 L 22.375 13.53125 L 22.1875 13.625 L 22.15625 13.625 L 21.9375 13.6875 L 21.75 14.0625 L 21.5 13.5625 L 21.40625 13.78125 L 21.46875 14.3125 L 21.09375 14.65625 L 20.84375 15.25 L 21.3125 15.25 L 21.4375 14.96875 L 21.84375 15.25 L 22.25 15.25 L 22.25 14.875 L 21.75 14.65625 L 21.46875 14.84375 L 21.5625 14.6875 C 21.770247 14.543889 21.97591 14.419487 22.1875 14.28125 L 22.65625 14.4375 C 22.977244 14.650683 23.30374 14.84964 23.625 15.0625 L 24.125 14.65625 L 23.5625 14.4375 L 23.34375 13.9375 L 22.6875 13.875 L 22.90625 13.6875 L 23.375 13.59375 C 23.509852 13.52964 23.644762 13.45709 23.78125 13.40625 L 23.5625 13.625 L 24.6875 14.40625 L 24.6875 14.8125 L 24.25 15.25 L 24.8125 16.375 L 25.21875 16.15625 L 25.6875 15.40625 C 26.387922 15.194564 27.02672 14.950932 27.6875 14.65625 L 27.625 14.9375 L 27.9375 15.15625 L 28.53125 14.78125 L 28.25 14.46875 L 27.84375 14.6875 L 27.71875 14.65625 C 27.75115 14.64176 27.74865 14.6085 27.78125 14.59375 L 28.375 13.15625 L 27.125 12.6875 z M 32.40625 14.59375 L 31.5625 14.78125 L 31.03125 15.125 L 31.03125 15.40625 L 30.1875 15.9375 L 30.375 16.75 L 30.84375 16.40625 L 31.15625 16.75 L 31.53125 16.9375 L 31.75 16.34375 L 31.59375 16 L 31.75 15.75 L 32.21875 15.3125 L 32.4375 15.3125 L 32.21875 15.8125 L 32.21875 16.25 C 32.42196 16.19594 32.635794 16.18153 32.84375 16.15625 L 32.25 16.53125 L 32.21875 16.78125 L 31.5625 17.34375 L 30.90625 17.1875 L 30.90625 16.78125 L 30.59375 17 L 30.71875 17.34375 L 30.21875 17.34375 L 29.96875 17.75 L 29.65625 18.125 L 29.03125 18.25 L 29.40625 18.59375 L 29.5 18.9375 L 29.03125 18.9375 L 28.46875 19.25 L 28.46875 20.125 L 28.71875 20.125 L 28.96875 20.375 L 29.53125 20.125 L 29.75 19.59375 L 30.125 19.34375 L 30.21875 19.125 L 30.90625 19 L 31.25 19.375 L 31.65625 19.59375 L 31.4375 20 L 31.78125 19.90625 L 31.96875 19.5 L 31.53125 19 L 31.6875 19 L 32.15625 19.34375 L 32.21875 19.8125 L 32.625 20.25 L 32.71875 19.625 L 32.9375 19.53125 C 33.156164 19.753153 33.315832 20.000265 33.5 20.25 L 34.1875 20.3125 L 34.5625 20.5625 L 34.375 20.8125 L 34 21.15625 L 33.40625 21.15625 L 32.65625 20.90625 L 32.25 20.9375 L 32 21.28125 L 31.15625 20.46875 L 30.59375 20.3125 L 29.75 20.40625 L 29 20.59375 C 28.578124 21.061284 28.149305 21.545699 27.75 22.03125 L 27.28125 23.15625 L 27.5 23.40625 L 27.09375 24 L 27.53125 25 C 27.907311 25.41585 28.280737 25.833856 28.65625 26.25 L 29.21875 25.78125 L 29.46875 26.0625 L 30.0625 25.6875 L 30.25 25.90625 L 30.84375 25.90625 L 31.1875 26.28125 L 31 26.96875 L 31.40625 27.4375 L 31.375 28.25 L 31.6875 28.8125 L 31.46875 29.3125 C 31.44673 29.672564 31.4375 30.046129 31.4375 30.40625 C 31.618747 30.894124 31.797601 31.352369 31.96875 31.84375 L 32.09375 32.65625 L 32.09375 33.03125 L 32.40625 33.03125 L 32.875 32.75 L 33.46875 32.75 L 34.34375 31.78125 L 34.21875 31.46875 L 34.78125 30.96875 L 34.375 30.53125 L 34.875 30.09375 L 35.375 29.8125 L 35.59375 29.5625 L 35.4375 29.03125 L 35.4375 27.65625 L 35.84375 26.8125 L 36.34375 26.28125 L 36.875 25 L 36.875 24.65625 C 36.615915 24.68815 36.347142 24.70055 36.09375 24.71875 L 36.625 24.21875 L 37.34375 23.75 L 37.75 23.3125 L 37.75 22.8125 C 37.66148 22.649304 37.589132 22.475699 37.5 22.3125 L 37.125 22.71875 L 36.875 22.40625 L 36.46875 22.125 L 36.46875 21.5 L 36.9375 22 L 37.4375 21.90625 C 37.669185 22.111857 37.92179 22.328408 38.125 22.5625 L 38.4375 22.1875 C 38.4375 21.79836 37.969086 19.875683 37 18.25 C 36.030914 16.624854 34.343749 15.15625 34.34375 15.15625 L 34.21875 15.375 L 33.78125 15.84375 L 33.1875 15.28125 L 33.78125 15.28125 L 34.03125 14.96875 L 32.96875 14.78125 L 32.40625 14.59375 z M 20.0625 14.84375 L 19.84375 15.34375 C 19.84375 15.343752 19.498536 15.41522 19.40625 15.4375 C 18.227658 16.49917 15.834499 18.798382 15.28125 23.125 C 15.30316 23.225317 15.6875 23.8125 15.6875 23.8125 L 16.59375 24.34375 L 17.5 24.5625 L 17.875 25.0625 L 18.5 25.46875 L 18.84375 25.4375 L 19.09375 25.5625 L 19.09375 25.625 L 18.75 26.53125 L 18.5 26.90625 L 18.5625 27.09375 L 18.375 27.8125 L 19.125 29.1875 L 19.90625 29.84375 L 20.25 30.34375 L 20.21875 31.3125 L 20.46875 31.90625 L 20.21875 32.96875 C 20.21875 32.968754 20.18586 32.984451 20.21875 33.09375 C 20.25193 33.203129 21.60218 33.936989 21.6875 33.875 C 21.77253 33.81186 21.84375 33.75 21.84375 33.75 L 21.75 33.5 L 22.09375 33.15625 L 22.21875 32.84375 L 22.78125 32.65625 L 23.21875 31.59375 L 23.09375 31.3125 L 23.375 30.875 L 24.03125 30.75 L 24.375 30 L 24.28125 29.03125 L 24.8125 28.34375 L 24.875 27.625 C 24.170361 27.283427 23.480634 26.914178 22.78125 26.5625 L 22.4375 25.90625 L 21.78125 25.78125 L 21.4375 24.875 L 20.59375 24.96875 L 19.84375 24.4375 L 19.09375 25.09375 L 19.09375 25.21875 C 18.859932 25.15278 18.583192 25.125132 18.375 25 L 18.1875 24.53125 L 18.1875 24 L 17.65625 24.0625 C 17.69924 23.729929 17.769217 23.395014 17.8125 23.0625 L 17.5 23.0625 L 17.1875 23.4375 L 16.90625 23.59375 L 16.46875 23.34375 L 16.4375 22.8125 L 16.53125 22.25 L 17.15625 21.78125 L 17.65625 21.78125 L 17.75 21.5 L 18.40625 21.625 L 18.875 22.1875 L 18.9375 21.25 L 19.78125 20.59375 L 20.0625 19.875 L 20.6875 19.65625 L 21.03125 19.15625 L 21.78125 19.03125 L 22.1875 18.4375 L 21.03125 18.4375 L 21.75 18.125 L 22.25 18.125 L 23 17.875 L 23.09375 17.59375 L 22.8125 17.375 L 22.53125 17.28125 L 22.625 16.96875 L 22.40625 16.5625 L 21.875 16.75 L 21.96875 16.375 L 21.34375 16.03125 L 20.90625 16.84375 L 20.9375 17.125 L 20.46875 17.3125 L 20.15625 17.9375 L 20.03125 17.375 L 19.21875 17.03125 L 19.09375 16.59375 L 20.15625 15.96875 L 20.625 15.5625 L 20.6875 15.03125 L 20.40625 14.90625 L 20.0625 14.84375 z M 28.875 15.78125 L 28.875 16.125 L 29.0625 16.34375 L 29.0625 16.8125 L 28.96875 17.46875 L 29.5 17.34375 L 29.875 16.96875 L 29.5625 16.65625 C 29.44925 16.361447 29.297994 16.064005 29.15625 15.78125 L 28.875 15.78125 z M 28.28125 16.53125 L 27.96875 16.625 L 28.0625 17.21875 L 28.5 17 L 28.28125 16.53125 z M 34.4375 21.75 L 34.9375 22.28125 L 35.53125 23.53125 L 35.90625 23.9375 L 35.71875 24.375 L 36.0625 24.75 C 35.907229 24.7603 35.753406 24.75 35.59375 24.75 C 35.312114 24.171491 35.089466 23.605216 34.875 23 L 34.5 22.59375 L 34.3125 21.875 L 34.4375 21.75 z M 29.0625 39.53125 L 29.9375 39.53125 L 31.0625 42.5 L 32.1875 39.53125 L 33.0625 39.53125 L 33.0625 43.90625 L 32.5 43.90625 L 32.5 40.0625 L 31.375 43.0625 L 30.78125 43.0625 L 29.65625 40.0625 L 29.65625 43.90625 L 29.0625 43.90625 L 29.0625 39.53125 z M 34.25 39.53125 L 34.84375 39.53125 L 34.84375 41.3125 L 37 41.3125 L 37 39.53125 L 37.59375 39.53125 L 37.59375 43.90625 L 37 43.90625 L 37 41.8125 L 34.84375 41.8125 L 34.84375 43.90625 L 34.25 43.90625 L 34.25 39.53125 z M 38.15625 39.53125 L 41.84375 39.53125 L 41.84375 40.03125 L 40.3125 40.03125 L 40.3125 43.90625 L 39.71875 43.90625 L 39.71875 40.03125 L 38.15625 40.03125 L 38.15625 39.53125 z "
     id="path-main" />
</defs>
<acyl-settings>
<linearGradient
     id="linearGradient4321">
    <stop
       style="stop-color:#00DEFF;stop-opacity:0.0;"
       offset="1.38777878078e-16"
       id="stop1" />
    <stop
       style="stop-color:#B3DEDE;stop-opacity:1.0;"
       offset="1.38777878078e-16"
       id="stop2" />
  </linearGradient>
<linearGradient
     inkscape:collect="always"
     xlink:href="#linearGradient4321"
     id="acyl_gradient"
     x1="50.0%"
     y1="0.0%"
     x2="50.0%"
     y2="100.0%" />
<filter>
    </filter>
<use id="1" style="fill:url(#acyl_gradient);filter:url(#filter1111)" xlink:href="#path-main" />
</acyl-settings>
</svg>
