<svg xmlns="http://www.w3.org/2000/svg" width="48" height="48">
<defs>
<defs
     id="defs4291">
  </defs>
  <path
     id="path-main"
       d="M 16.25 8.875 C 11.681578 8.875 8.40625 11.624501 8.40625 16.09375 L 8.40625 20 L 7.125 20 C 5.8197372 20 5.15625 20.659291 5.15625 21.96875 L 5.15625 33.09375 C 5.15625 33.735598 5.8197372 35.0625 7.125 35.0625 L 8.84375 35.0625 C 9.335249 37.179325 11.319321 38.65578 13.53125 38.40625 C 15.405305 38.194836 16.843071 36.799287 17.25 35.0625 L 26.28125 35.0625 C 27.335891 35.0563 28 33.735597 28 33.09375 L 28 21.96875 C 28 20.659291 27.336513 20 26.03125 20 L 24.71875 20 L 24.71875 16.09375 C 24.71875 11.510631 21.474674 8.875 16.90625 8.875 L 16.25 8.875 z M 16.25 12.15625 L 16.90625 12.15625 C 21.474674 12.15625 21.46875 16.06554 21.46875 17.375 L 21.46875 20 L 11.6875 20 L 11.6875 17.375 C 11.6875 16.06554 11.681578 12.15625 16.25 12.15625 z M 39.75 27.875 C 38.960189 27.964099 38.379651 28.678939 38.46875 29.46875 C 38.557849 30.258561 39.272689 30.839099 40.0625 30.75 C 40.852311 30.660901 41.432849 29.946061 41.34375 29.15625 C 41.254651 28.366439 40.539811 27.785901 39.75 27.875 z M 33.84375 37.4375 C 32.639301 37.4375 31.6875 38.420551 31.6875 39.625 C 31.6875 40.829449 32.639301 41.8125 33.84375 41.8125 C 35.048199 41.8125 36.03125 40.829449 36.03125 39.625 C 36.03125 38.420551 35.048199 37.4375 33.84375 37.4375 z M 22.5625 39.28125 C 22.362899 39.263336 22.175649 39.28916 21.96875 39.3125 C 20.313555 39.499224 19.125776 40.969805 19.3125 42.625 C 19.499224 44.280195 20.969805 45.467974 22.625 45.28125 C 24.280195 45.094526 25.499224 43.623945 25.3125 41.96875 C 25.149117 40.520455 23.959706 39.406645 22.5625 39.28125 z "
 />
</defs>
<acyl-settings>
<linearGradient
     id="linearGradient4321">
    <stop
       style="stop-color:#00DEFF;stop-opacity:0.0;"
       offset="1.38777878078e-16"
       id="stop1" />
    <stop
       style="stop-color:#B3DEDE;stop-opacity:1.0;"
       offset="1.38777878078e-16"
       id="stop2" />
  </linearGradient>
<linearGradient
     inkscape:collect="always"
     xlink:href="#linearGradient4321"
     id="acyl_gradient"
     x1="50.0%"
     y1="0.0%"
     x2="50.0%"
     y2="100.0%" />
<filter>
    </filter>
<use id="1" style="fill:url(#acyl_gradient);filter:url(#filter1111)" xlink:href="#path-main" />
</acyl-settings>
</svg>
