<svg xmlns="http://www.w3.org/2000/svg" width="48" height="48">
<defs>
  <path
     d="M 24 2 A 1.94272 1.94272 0 0 0 23.75 2.03125 A 1.94272 1.94272 0 0 0 22.3125 3.65625 A 1.3763565 1.3763565 0 0 0 22.3125 3.75 A 1.94272 1.94272 0 0 0 22.21875 3.84375 A 1.3763565 1.3763565 0 0 0 22.21875 4 A 1.3763565 1.3763565 0 0 0 22.125 4.4375 L 22.21875 19.3125 L 17.21875 14.25 A 1.94272 1.94272 0 1 0 14.46875 16.90625 L 21.4375 23.96875 L 14.46875 30.9375 A 1.9462676 1.9462676 0 1 0 17.21875 33.6875 L 22.3125 28.53125 L 22.375 43.40625 A 1.3763565 1.3763565 0 0 0 22.46875 43.75 A 1.9472175 1.9472175 0 0 0 22.46875 43.84375 A 1.9472175 1.9472175 0 0 0 25.75 45.46875 L 35.375 35.15625 A 1.94272 1.94272 0 0 0 35.28125 32.46875 L 26.875 23.96875 L 35.28125 15.375 A 1.94272 1.94272 0 0 0 35.375 12.6875 L 25.5625 2.625 A 1.94272 1.94272 0 0 0 24 2 z M 24.875 7.46875 L 31.25 14 L 24.96875 20.34375 L 24.875 7.46875 z M 38.21875 16.71875 C 37.411323 16.71875 36.607137 16.963795 35.96875 17.53125 C 35.330362 18.098706 34.90625 18.993129 34.90625 20.03125 L 34.90625 21.59375 L 34.875 21.59375 C 33.954809 21.59375 33.1875 22.36106 33.1875 23.28125 L 33.1875 28.21875 C 33.1875 29.138941 33.954809 29.90625 34.875 29.90625 L 41.5 29.90625 C 42.42019 29.90625 43.15625 29.138941 43.15625 28.21875 L 43.15625 23.28125 C 43.15625 22.377163 42.460249 21.619055 41.5625 21.59375 L 41.5625 20.03125 C 41.5625 18.993129 41.107138 18.098706 40.46875 17.53125 C 39.830362 16.963795 39.026177 16.71875 38.21875 16.71875 z M 38.21875 18.375 C 38.657068 18.375 39.079079 18.518209 39.375 18.78125 C 39.670921 19.044291 39.90625 19.408377 39.90625 20.03125 L 39.90625 21.59375 L 36.5625 21.59375 L 36.5625 20.03125 C 36.5625 19.408377 36.766579 19.044291 37.0625 18.78125 C 37.358421 18.518209 37.780433 18.375 38.21875 18.375 z M 25.0625 27.65625 L 31.25 33.875 L 25.125 40.40625 L 25.0625 27.65625 z "
     id="path-main" />
</defs>
<acyl-settings>
<linearGradient
     id="linearGradient4321">
    <stop
       style="stop-color:#00DEFF;stop-opacity:0.0;"
       offset="1.38777878078e-16"
       id="stop1" />
    <stop
       style="stop-color:#B3DEDE;stop-opacity:1.0;"
       offset="1.38777878078e-16"
       id="stop2" />
  </linearGradient>
<linearGradient
     inkscape:collect="always"
     xlink:href="#linearGradient4321"
     id="acyl_gradient"
     x1="50.0%"
     y1="0.0%"
     x2="50.0%"
     y2="100.0%" />
<filter>
    </filter>
<use id="1" style="fill:url(#acyl_gradient);filter:url(#filter1111)" xlink:href="#path-main" />
</acyl-settings>
</svg>
