<svg xmlns="http://www.w3.org/2000/svg" width="48" height="48">
<defs>
<defs
     id="defs3" />
  <g
     id="layer1">
    <g
       transform="translate(-53.99282,-31.64138)"
       id="g4438" />
    <path
       d="M 20.5,3.3125 C 19.703454,3.3285898 19.014671,3.7414261 18.59375,4.25 C 18.172829,4.7585739 17.939506,5.3439734 17.9375,5.96875 L 17.90625,7 L 14.34375,7 C 11.946296,7 10,8.9462958 10,11.34375 L 10,41.40625 C 10,43.780141 11.914518,45.74379 14.28125,45.78125 C 14.304719,45.781621 14.320171,45.78125 14.34375,45.78125 L 33.5625,45.78125 C 35.959955,45.78125 37.9375,43.803704 37.9375,41.40625 L 37.9375,11.34375 C 37.9375,8.9462958 35.959954,7 33.5625,7 L 30.15625,7 L 30.15625,5.875 L 30.15625,5.84375 C 30.116993,4.5077703 29.061219,3.3327522 27.65625,3.34375 L 20.5,3.3125 z M 20.53125,5.3125 L 27.65625,5.34375 C 27.891065,5.3419119 28.147701,5.6153267 28.15625,5.90625 L 28.15625,8 L 28.15625,9 L 29.15625,9 L 33.5625,9 C 34.886548,9 35.9375,10.019702 35.9375,11.34375 L 35.9375,41.40625 C 35.9375,42.730298 34.886549,43.78125 33.5625,43.78125 L 14.34375,43.78125 C 14.330753,43.78125 14.325463,43.781455 14.3125,43.78125 C 13.008642,43.760613 12,42.717285 12,41.40625 L 12,11.34375 C 12,10.019702 13.019702,9 14.34375,9 L 18.90625,9 L 19.90625,9 L 19.90625,8 L 19.9375,6 L 19.9375,5.96875 C 19.937856,5.8577204 20.013407,5.6660815 20.125,5.53125 C 20.236593,5.3964185 20.340009,5.3163629 20.53125,5.3125 z M 14,17 L 14,24 L 34,24 L 34,17 L 14,17 z M 14,26 L 14,33 L 34,33 L 34,26 L 14,26 z M 34.0625,34.9375 L 14.03125,35 L 14.03125,39.9375 C 14.03125,41.402005 14.701749,42.000001 16.125,42 L 32,42.03125 C 33.331072,42.03125 34.0625,41.315024 34.0625,40 L 34.0625,34.9375 z"
       id="path-main"
        />
  </g>
  <g
     id="layer2" />
</defs>
<acyl-settings>
<linearGradient
     id="linearGradient4321">
    <stop
       style="stop-color:#00DEFF;stop-opacity:0.0;"
       offset="1.38777878078e-16"
       id="stop1" />
    <stop
       style="stop-color:#B3DEDE;stop-opacity:1.0;"
       offset="1.38777878078e-16"
       id="stop2" />
  </linearGradient>
<linearGradient
     inkscape:collect="always"
     xlink:href="#linearGradient4321"
     id="acyl_gradient"
     x1="50.0%"
     y1="0.0%"
     x2="50.0%"
     y2="100.0%" />
<filter>
    </filter>
<use id="1" style="fill:url(#acyl_gradient);filter:url(#filter1111)" xlink:href="#path-main" />
</acyl-settings>
</svg>
