<svg xmlns="http://www.w3.org/2000/svg" width="48" height="48">
<defs>
<defs
     id="defs8145">
  </defs>
  <path
     id="path-main"
     d="m 44.757865,21.107 c -0.811284,-0.813083 -1.821493,-1.242083 -2.920622,-1.242083 l -4.967623,0 c -0.977208,0 -1.887496,0.340083 -2.638277,0.979916 C 34.034251,20.203167 33.777574,19.589 33.468645,19.006 c 0.990957,-0.08342 1.874661,-0.487667 2.575023,-1.184333 l 3.50823,-3.5145 c 0.770032,-0.77 1.188049,-1.774667 1.206384,-2.954417 -0.0092,-1.136667 -0.427185,-2.148667 -1.202717,-2.9205 -0.778283,-0.781 -1.789408,-1.199 -2.973791,-1.2081667 -1.138547,0.01925 -2.145089,0.4326667 -2.908704,1.1989997 l -3.518314,3.516334 c -0.689362,0.69025 -1.089962,1.573 -1.172465,2.581333 -0.575691,-0.3025 -1.180716,-0.556417 -1.813242,-0.752583 0.635276,-0.75625 0.968957,-1.664667 0.968957,-2.64275 l 0,-4.970167 c 0,-1.089 -0.416184,-2.0955 -1.239385,-2.9425 C 26.09192,2.418 25.084462,2 23.984416,2 22.885287,2 21.875995,2.418 21.029876,3.2485 20.23876,4.0698333 19.821659,5.0754167 19.821659,6.15525 l 0,4.970167 c 0,0.968916 0.332764,1.87275 0.985458,2.650083 -0.624276,0.194333 -1.223801,0.446417 -1.793075,0.748917 -0.07884,-0.977167 -0.48402,-1.855334 -1.184382,-2.5575 l -3.509147,-3.509 C 13.541314,7.6769167 12.531105,7.26075 11.367807,7.2515833 10.224676,7.2616663 9.2126339,7.6778333 8.4426018,8.449667 7.6652361,9.223333 7.249052,10.237167 7.239885,11.412333 c 0.00917,1.134834 0.4253511,2.145 1.2045502,2.924167 l 3.5091458,3.509 c 0.702196,0.704 1.58315,1.110083 2.564941,1.18525 -0.302513,0.57475 -0.55369,1.1825 -0.748948,1.81225 -0.747115,-0.63525 -1.657403,-0.969833 -2.648361,-0.969833 l -4.9575395,0 c -1.1009626,0 -2.1111713,0.419833 -2.9398725,1.23475 C 2.4235177,21.91825 2,22.928417 2,24.029333 c 0,1.096334 0.4216842,2.107417 1.2467186,2.943417 0.807617,0.793833 1.8178258,1.211833 2.9169549,1.211833 l 4.9575395,0 c 0.998292,0 1.91408,-0.33825 2.663028,-0.98175 0.190675,0.61325 0.437268,1.20175 0.73153,1.760917 -0.979957,0.08158 -1.857244,0.484 -2.553939,1.180667 L 8.4591025,33.6525 c -0.7773658,0.776417 -1.1917164,1.7875 -1.2008834,2.943417 0,1.144 0.416184,2.163333 1.1972165,2.943416 0.7810326,0.782834 1.7967414,1.197167 2.9407894,1.197167 l 0.02017,0 c 1.14038,-0.01375 2.150589,-0.427167 2.924289,-1.20175 l 3.509145,-3.509917 c 0.698529,-0.702166 1.099129,-1.58125 1.177049,-2.541916 0.563774,0.297 1.157798,0.545416 1.773824,0.73975 -0.64261,0.75075 -0.97904,1.659166 -0.97904,2.652833 l 0,4.961 c 0,1.092667 0.421683,2.102833 1.232967,2.929667 C 21.862244,45.574667 22.87612,46 23.984415,46 c 1.102797,0 2.113006,-0.425333 2.931623,-1.243917 0.800284,-0.813083 1.221968,-1.82325 1.221968,-2.9205 l 0,-4.961 c 0,-0.997333 -0.340099,-1.910333 -0.970791,-2.64275 0.62886,-0.19525 1.232052,-0.446416 1.804992,-0.748916 0.07792,1.001 0.480353,1.890166 1.177966,2.583166 l 3.51648,3.520917 c 0.781949,0.777333 1.796741,1.187083 2.935289,1.187083 l 0.03208,0 c 1.129381,0 2.137756,-0.40975 2.916955,-1.191666 0.786533,-0.7865 1.198134,-1.810417 1.18805,-2.944334 0,-1.150416 -0.409768,-2.16975 -1.1853,-2.94525 l -3.510979,-3.512666 c -0.688446,-0.692084 -1.568482,-1.092667 -2.579608,-1.17425 0.302513,-0.571084 0.555523,-1.170584 0.752615,-1.7985 0.758114,0.64625 1.667485,0.9845 2.653861,0.9845 l 4.967622,0 c 1.100046,0 2.111172,-0.425334 2.906871,-1.219167 C 45.566399,26.168833 46,25.151333 46,24.029333 46,22.91375 45.566399,21.898083 44.757865,21.107 l 0,0 z m -32.011334,4.555833 c -0.456519,0.46475 -1.003792,0.689334 -1.625318,0.689334 l -4.9584562,0 c -0.6224426,0 -1.1614651,-0.224584 -1.6335681,-0.689334 -0.4638526,-0.473 -0.6966957,-1.02025 -0.6966957,-1.634416 0,-0.622417 0.2319264,-1.162334 0.6966957,-1.634417 0.4730197,-0.46475 1.0120422,-0.688417 1.6335681,-0.688417 l 4.9593732,0 c 0.621526,0 1.168799,0.224584 1.625318,0.688417 0.47302,0.473 0.704946,1.012 0.704946,1.634417 -9.17e-4,0.614166 -0.232843,1.162333 -0.705863,1.634416 l 0,0 z M 21.654152,6.1561667 c 0,-0.6224167 0.240177,-1.1614167 0.696696,-1.6344167 0.472103,-0.46475 1.012042,-0.6884167 1.633568,-0.6884167 0.621526,0 1.160548,0.2236667 1.633568,0.6884167 0.456519,0.473 0.688445,1.012 0.688445,1.6344167 l 0,4.9701663 c 0,0.614167 -0.231926,1.162334 -0.688445,1.626167 -0.47302,0.46475 -1.012042,0.696667 -1.633568,0.696667 -0.621526,0 -1.161465,-0.231917 -1.633568,-0.696667 -0.456519,-0.46475 -0.696696,-1.012 -0.696696,-1.626167 l 0,-4.9701663 0,0 z M 13.247969,16.548417 9.7415726,13.040333 C 9.3024709,12.600333 9.0787949,12.060417 9.0732947,11.397667 9.0787947,10.734917 9.3024709,10.183083 9.7360723,9.7495 10.176091,9.3095 10.72153,9.09225 11.383391,9.085833 12.046169,9.092233 12.586108,9.315 13.025209,9.755 l 3.506396,3.509 c 0.440019,0.44 0.668278,0.985417 0.662778,1.637167 0,0.66825 -0.216342,1.214583 -0.656361,1.654583 -0.433601,0.433583 -0.985457,0.65725 -1.653735,0.65725 -0.650861,0.0046 -1.1963,-0.224583 -1.636318,-0.664583 z m 3.302887,18.183 -3.506396,3.508083 c -0.440018,0.44 -0.985458,0.65725 -1.647318,0.663667 -0.657278,0 -1.208217,-0.22275 -1.6418189,-0.65725 -0.4400183,-0.439084 -0.6627776,-0.991834 -0.6627776,-1.649084 0.0055,-0.663666 0.2227593,-1.208166 0.6627776,-1.648166 l 3.5063959,-3.509 c 0.440019,-0.439084 0.990958,-0.66275 1.641819,-0.65725 0.662777,-0.0055 1.213717,0.21725 1.653735,0.65725 0.433602,0.4345 0.656361,0.985416 0.650861,1.649083 0.0046,0.65175 -0.218176,1.202667 -0.657278,1.642667 l 0,0 z m 9.755573,7.10325 c 0,0.623333 -0.231926,1.162333 -0.696695,1.635333 -0.46477,0.46475 -1.012042,0.696667 -1.625318,0.696667 -0.621526,0 -1.168799,-0.231917 -1.633568,-0.696667 -0.463853,-0.473917 -0.696696,-1.012 -0.696696,-1.635333 l 0,-4.961 c 0,-0.622417 0.231927,-1.169667 0.696696,-1.626167 0.464769,-0.473917 1.012042,-0.705833 1.633568,-0.705833 0.613276,0 1.160548,0.231916 1.625318,0.705833 0.464769,0.4565 0.696695,1.004667 0.696695,1.626167 l 0,4.961 0,0 z M 24,32.878833 c -4.900704,0 -8.872786,-3.975583 -8.872786,-8.878833 0,-4.90325 3.972082,-8.877917 8.872786,-8.877917 4.900704,0 8.872786,3.974667 8.872786,8.877917 0,4.90325 -3.972082,8.878833 -8.872786,8.878833 z m 10.744698,-1.40525 3.511896,3.5145 c 0.440018,0.44 0.65086,0.991834 0.65086,1.649084 0.0064,0.66275 -0.216342,1.214583 -0.65086,1.649083 -0.439102,0.439083 -0.990958,0.66275 -1.653736,0.656333 -0.65636,0 -1.2018,-0.216333 -1.641818,-0.656333 l -3.511896,-3.515417 c -0.440019,-0.439083 -0.657278,-0.9845 -0.657278,-1.642666 -0.0055,-0.66275 0.22276,-1.208167 0.662778,-1.648167 0.434518,-0.4345 0.979041,-0.66275 1.641818,-0.65725 0.657278,0 1.208217,0.21175 1.648236,0.650833 l 0,0 z M 33.110213,17.189167 C 32.446519,17.183667 31.901996,16.9655 31.461978,16.5255 31.021959,16.0855 30.8047,15.540083 30.7992,14.876417 30.8047,14.225583 31.021959,13.66825 31.455561,13.23375 l 3.512813,-3.5145 c 0.439101,-0.439083 0.990958,-0.650833 1.647318,-0.66275 0.663695,0.0055 1.202717,0.229167 1.641819,0.669167 0.440018,0.44 0.663694,0.979916 0.668278,1.642666 -0.01192,0.65725 -0.22826,1.202667 -0.668278,1.642667 l -3.511897,3.513583 C 34.311096,16.96 33.760157,17.18275 33.110213,17.189167 l 0,0 z m 10.351431,8.473666 c -0.464769,0.46475 -1.003792,0.697584 -1.624401,0.697584 l -4.967623,0 c -0.622443,0 -1.161465,-0.232834 -1.625318,-0.697584 -0.47302,-0.463833 -0.696696,-1.012 -0.696696,-1.634416 0,-0.614167 0.223676,-1.162334 0.696696,-1.626167 0.464769,-0.46475 1.003792,-0.705833 1.625318,-0.705833 l 4.967623,0 c 0.621526,0 1.160549,0.240166 1.624401,0.705833 0.47302,0.463833 0.705863,1.012 0.705863,1.626167 0,0.622416 -0.232843,1.1715 -0.705863,1.634416 l 0,0 z" />
</defs>
<acyl-settings>
<linearGradient
     id="linearGradient4321">
    <stop
       style="stop-color:#00DEFF;stop-opacity:0.0;"
       offset="1.38777878078e-16"
       id="stop1" />
    <stop
       style="stop-color:#B3DEDE;stop-opacity:1.0;"
       offset="1.38777878078e-16"
       id="stop2" />
  </linearGradient>
<linearGradient
     inkscape:collect="always"
     xlink:href="#linearGradient4321"
     id="acyl_gradient"
     x1="50.0%"
     y1="0.0%"
     x2="50.0%"
     y2="100.0%" />
<filter>
    </filter>
<use id="1" style="fill:url(#acyl_gradient);filter:url(#filter1111)" xlink:href="#path-main" />
</acyl-settings>
</svg>
