<svg xmlns="http://www.w3.org/2000/svg" width="48" height="48">
<defs>
<defs
     id="defs9589">
  </defs>
  <path
     id="path-main"
     d="M 5.6953125,2 C 3.663208,1.9999999 2,3.6632243 2,5.6953125 L 2,42.304687 C 2,44.336775 3.6632079,46 5.6953125,46 L 42.304687,46 C 44.335249,45.999999 46,44.336775 46,42.304687 L 46,5.6953125 C 45.999999,3.6637395 44.335689,2 42.304687,2 L 5.6953125,2 z m 0,2.1770833 36.6093745,0 c 0.847912,0 1.518229,0.6675843 1.51823,1.5182292 l 0,36.6093745 c 0,0.851873 -0.669878,1.518229 -1.51823,1.51823 l -36.6093745,0 c -0.852036,0 -1.5182292,-0.666357 -1.5182292,-1.51823 l 0,-36.6093745 c 0,-0.8518722 0.6661934,-1.5182292 1.5182292,-1.5182292 z m 2.921875,1.890625 c -0.092354,0 -0.1867708,0.044 -0.2578125,0.1145834 L 5.8958333,8.617188 c -0.1411668,0.141166 -0.1411666,0.374458 0,0.515625 l 4.2682297,4.268229 -4.2682297,4.268229 c -0.066917,0.06692 -0.085937,0.163396 -0.085937,0.257812 0,0.09442 0.019021,0.16225 0.085937,0.229167 l 2.4635417,2.463542 c 0.066917,0.06692 0.1633958,0.114583 0.2578125,0.114583 0.095333,1e-6 0.1918125,-0.04767 0.2578125,-0.114583 l 4.268229,-4.26823 4.239584,4.26823 c 0.06783,0.06783 0.161562,0.114583 0.257812,0.114583 0.09625,1e-6 0.189979,-0.04675 0.257813,-0.114583 l 2.463541,-2.463542 c 0.06783,-0.06783 0.114583,-0.132917 0.114583,-0.229167 0,-0.09625 -0.04675,-0.189979 -0.114583,-0.257812 L 16.09375,13.401042 20.361979,9.132813 c 0.06692,-0.06692 0.114583,-0.163396 0.114583,-0.257813 0,-0.09442 -0.04767,-0.189979 -0.114583,-0.257812 L 17.898438,6.1822917 c -0.06692,-0.067833 -0.163396,-0.1145834 -0.257813,-0.1145834 -0.09533,1e-7 -0.191813,0.04675 -0.257812,0.1145834 L 13.143229,10.421875 8.875,6.1822917 C 8.804875,6.1117083 8.7095417,6.0677083 8.6171875,6.0677083 z M 20.333333,13 l 0,1.833333 -0.859375,0 1.861979,1.861979 c 0.321852,0.321852 0.515624,0.777594 0.515625,1.231771 0,0.454187 -0.193778,0.881275 -0.515625,1.203125 l -2.463541,2.463542 c -0.321846,0.321845 -0.77757,0.515629 -1.231771,0.515625 -0.454186,0 -0.881275,-0.193772 -1.203125,-0.515625 L 13.34375,18.5 l -0.401042,0 -1.776041,1.776042 0,14.723958 25.666666,0 0,-16.5 -3.666666,0 0,-3.666667 -5.5,0 0,-1.833333 -7.333334,0 z m 4.325521,17.101562 1.518229,0 0,2.778646 -1.518229,0 0,-2.778646 z m 2.921875,0 1.518229,0 0,2.778646 -1.518229,0 0,-2.778646 z m 2.921875,0 1.518229,0 0,2.778646 -1.518229,0 0,-2.778646 z m -14.523437,0.114584 1.432291,0 0,2.549479 -1.432291,0 0,-2.549479 z m 2.921875,0 1.403645,0 0,2.549479 -1.403645,0 0,-2.549479 z m 2.921875,0 1.403645,0 0,2.549479 -1.403645,0 0,-2.549479 z" />
</defs>
<acyl-settings>
<linearGradient
     id="linearGradient4321">
    <stop
       style="stop-color:#00DEFF;stop-opacity:0.0;"
       offset="1.38777878078e-16"
       id="stop1" />
    <stop
       style="stop-color:#B3DEDE;stop-opacity:1.0;"
       offset="1.38777878078e-16"
       id="stop2" />
  </linearGradient>
<linearGradient
     inkscape:collect="always"
     xlink:href="#linearGradient4321"
     id="acyl_gradient"
     x1="50.0%"
     y1="0.0%"
     x2="50.0%"
     y2="100.0%" />
<filter>
    </filter>
<use id="1" style="fill:url(#acyl_gradient);filter:url(#filter1111)" xlink:href="#path-main" />
</acyl-settings>
</svg>
