<svg xmlns="http://www.w3.org/2000/svg" width="48" height="48">
<defs>
<defs
     id="defs6602">
  </defs>
  <path
     id="path-main"
     d="m 20.749129,11.63507 c -1.17575,0.114267 -2.320915,0.272485 -3.486886,0.464918 l -0.02905,0 c -0.306504,0.05588 -0.559808,0.162688 -0.78455,0.377747 -0.224742,0.215057 -0.429349,0.579028 -0.348689,0.987951 0.724917,3.700575 1.455454,7.401166 2.179305,11.099924 0.125,0.633701 0.736292,1.009012 1.33664,0.900778 0.759545,-0.13554 1.525786,-0.224496 2.295534,-0.290573 0.609028,-0.05167 1.118913,-0.579754 1.075124,-1.220411 -0.255199,-3.761381 -0.500178,-7.514266 -0.755493,-11.274268 -0.02795,-0.414261 -0.308903,-0.721159 -0.581148,-0.871722 -0.272247,-0.150562 -0.560479,-0.200578 -0.871725,-0.174344 l -0.02905,0 -1.2e-5,0 z m -9.414595,2.063075 c -0.150337,0.0104 -0.287976,0.0341 -0.435861,0.08717 -1.1352111,0.423311 -2.2664727,0.895149 -3.3706574,1.394755 -0.2837358,0.133907 -0.5028373,0.316765 -0.6683201,0.581148 -0.1654827,0.264382 -0.2741245,0.663784 -0.087172,1.046066 1.658876,3.384852 3.3099035,6.785163 4.9688145,10.170087 0.289366,0.591698 0.990591,0.780328 1.540042,0.523033 0.71783,-0.335718 1.464093,-0.662611 2.208361,-0.929837 0.573105,-0.205193 0.93838,-0.833886 0.726435,-1.452869 -1.208918,-3.569675 -2.422212,-7.123426 -3.632174,-10.693121 l 0,-0.02905 c -0.135948,-0.397038 -0.481459,-0.595198 -0.784549,-0.66832 -0.151545,-0.03656 -0.314582,-0.03945 -0.464919,-0.02905 l 0,-1.2e-5 z M 8.1672752,29.21479 c -0.1060076,2.2e-5 -0.2185723,0.06629 -0.2905709,0.145287 l -5.7824211,6.421684 c -0.061999,0.06898 -0.087172,0.167518 -0.087172,0.261516 0,0.04503 -0.016,0.103288 0,0.145287 l 0.8426644,2.266477 c 0.054008,0.147976 0.1906918,0.232459 0.3486887,0.232459 l 41.5811287,0 c 0.157988,2e-6 0.29569,-0.08447 0.348689,-0.232459 l 0.842665,-2.266477 c 0.01501,-0.042 0.02905,-0.100288 0.02905,-0.145287 0,-0.09397 -0.02517,-0.191519 -0.08717,-0.261516 L 40.10135,29.360077 c -0.071,-0.07898 -0.184577,-0.145287 -0.290574,-0.145287 l -31.6435008,0 z m 0.8426674,1.452878 20.3692324,-8e-6 1.365697,3.196313 -24.4082095,-0.02905 2.6732801,-3.167255 z m 21.2990684,0 8.630047,-8e-6 2.789509,3.196313 -9.908571,-0.02905 -1.510985,-3.167255 z"/>
</defs>
<acyl-settings>
<linearGradient
     id="linearGradient4321">
    <stop
       style="stop-color:#00DEFF;stop-opacity:0.0;"
       offset="1.38777878078e-16"
       id="stop1" />
    <stop
       style="stop-color:#B3DEDE;stop-opacity:1.0;"
       offset="1.38777878078e-16"
       id="stop2" />
  </linearGradient>
<linearGradient
     inkscape:collect="always"
     xlink:href="#linearGradient4321"
     id="acyl_gradient"
     x1="50.0%"
     y1="0.0%"
     x2="50.0%"
     y2="100.0%" />
<filter>
    </filter>
<use id="1" style="fill:url(#acyl_gradient);filter:url(#filter1111)" xlink:href="#path-main" />
</acyl-settings>
</svg>
