<svg xmlns="http://www.w3.org/2000/svg" width="48" height="48">
<defs>
<defs
     id="defs8577">
  </defs>
  <path
     id="path-main"
     d="m 5.7627586,2.6344599 c -0.097832,0 -0.1978483,0.04661 -0.2731034,0.1213793 L 2.88,5.3351494 c -0.1495393,0.14954 -0.1495393,0.396668 0,0.546207 L 7.4013793,10.402735 2.88,14.924115 c -0.070885,0.07089 -0.091034,0.173087 -0.091034,0.273103 -10e-8,0.100017 0.020149,0.202218 0.091034,0.273104 l 2.6096552,2.57931 c 0.070886,0.07089 0.1730869,0.121379 0.2731034,0.121379 0.1009875,0 0.203189,-0.05049 0.2731035,-0.121379 l 4.5213789,-4.521379 4.52138,4.521379 c 0.07186,0.07186 0.1408,0.121379 0.242758,0.121379 0.101959,0 0.201247,-0.04952 0.273104,-0.121379 l 2.609655,-2.57931 c 0.07186,-0.07186 0.121379,-0.171145 0.121379,-0.273104 -1e-6,-0.101958 -0.04952,-0.201247 -0.121379,-0.273103 l -4.521379,-4.52138 4.521379,-4.5213786 c 0.07089,-0.07089 0.121379,-0.173087 0.121379,-0.273103 0,-0.100018 -0.05049,-0.201247 -0.121379,-0.273104 L 15.594483,2.7558392 c -0.07089,-0.071857 -0.173087,-0.1213793 -0.273104,-0.1213793 -0.100987,10e-8 -0.172844,0.049523 -0.242758,0.1213793 L 10.557241,7.2772184 6.0358621,2.7558392 C 5.9615779,2.6810695 5.8605903,2.6344599 5.7627586,2.6344599 z M 37.928276,4.7917241 C 36.560729,4.7917239 35.44,5.9134995 35.44,7.28 l 0,36.231724 C 35.440003,44.878873 36.561127,46 37.928276,46 l 5.583448,0 C 44.878874,45.999998 46,44.878873 46,43.511724 L 46,7.28 c -10e-7,-1.3665005 -1.120729,-2.4882759 -2.488276,-2.4882759 l -5.583448,0 z m 0,1.2744828 5.583448,0 c 0.68522,0 1.213793,0.5294689 1.213793,1.2137931 l 0,36.231724 c 0,0.685618 -0.528173,1.244137 -1.213793,1.244138 l -5.583448,0 c -0.685618,0 -1.213792,-0.558519 -1.213793,-1.244138 l 0,-36.231724 c 0,-0.6843243 0.528573,-1.2137932 1.213793,-1.2137931 z M 26.791724,13.166897 c -1.366501,0 -2.488276,1.120729 -2.488276,2.488275 l 0,27.856552 C 24.303448,44.879272 25.425223,46 26.791724,46 l 5.553104,0 c 1.367149,-2e-6 2.488275,-1.121127 2.488275,-2.488276 l 0,-27.856552 c 0.0013,-1.367869 -1.121127,-2.488275 -2.488275,-2.488275 l -5.553104,0 z m 0,1.244137 5.553104,0 c 0.685618,0 1.244785,0.559241 1.244138,1.244138 l 0,27.856552 c 0,0.685618 -0.558518,1.244137 -1.244138,1.244138 l -5.553104,0 c -0.684324,0 -1.244138,-0.558918 -1.244138,-1.244138 l 0,-27.856552 c 0,-0.68522 0.559814,-1.244138 1.244138,-1.244138 z m -11.166896,7.10069 C 14.258327,21.511725 13.136552,22.632453 13.136552,24 l 0,19.511724 C 13.136552,44.879272 14.258327,46 15.624828,46 l 5.583448,0 c 1.367148,-2e-6 2.488276,-1.121127 2.488276,-2.488276 l 0,-19.511724 c 0,-1.367149 -1.121128,-2.488276 -2.488276,-2.488276 l -5.583448,0 z m 0,1.274483 5.583448,0 c 0.685618,0 1.244138,0.528176 1.244138,1.213793 l 0,19.511724 c 0,0.685618 -0.558519,1.244137 -1.244138,1.244138 l -5.583448,0 c -0.684324,0 -1.213794,-0.558918 -1.213794,-1.244138 l 0,-19.511724 c 0,-0.68522 0.529469,-1.213793 1.213794,-1.213793 z M 4.4882759,29.886897 C 3.1211273,29.886898 2,31.008024 2,32.375172 L 2,43.511724 C 2.0000001,44.878874 3.121127,46 4.4882759,46 l 5.5834481,0 c 1.3665,-2e-6 2.488276,-1.120729 2.488276,-2.488276 l 0,-11.136552 c 0,-1.3665 -1.120729,-2.488275 -2.488276,-2.488275 l -5.5834481,0 z m 0,1.244137 5.5834481,0 c 0.68522,0 1.213793,0.559814 1.213793,1.244138 l 0,11.136552 c 0,0.68522 -0.529468,1.244137 -1.213793,1.244138 l -5.5834481,0 c -0.6856181,0 -1.2137931,-0.55852 -1.2137931,-1.244138 l 0,-11.136552 c 0,-0.685618 0.5281749,-1.244138 1.2137931,-1.244138 z"/>
</defs>
<acyl-settings>
<linearGradient
     id="linearGradient4321">
    <stop
       style="stop-color:#00DEFF;stop-opacity:0.0;"
       offset="1.38777878078e-16"
       id="stop1" />
    <stop
       style="stop-color:#B3DEDE;stop-opacity:1.0;"
       offset="1.38777878078e-16"
       id="stop2" />
  </linearGradient>
<linearGradient
     inkscape:collect="always"
     xlink:href="#linearGradient4321"
     id="acyl_gradient"
     x1="50.0%"
     y1="0.0%"
     x2="50.0%"
     y2="100.0%" />
<filter>
    </filter>
<use id="1" style="fill:url(#acyl_gradient);filter:url(#filter1111)" xlink:href="#path-main" />
</acyl-settings>
</svg>
