<svg xmlns="http://www.w3.org/2000/svg" width="48" height="48">
<defs>
<defs
     id="defs9589">
  </defs>
  <path
     id="path-main"
     d="M 5.6953125,2 C 3.663208,1.9999999 2,3.6632243 2,5.6953125 L 2,42.304687 C 2,44.336775 3.6632079,46 5.6953125,46 L 42.304687,46 C 44.335249,45.999999 46,44.336775 46,42.304687 L 46,5.6953125 C 45.999999,3.6637395 44.335689,2 42.304687,2 L 5.6953125,2 z m 0,2.1770833 36.6093745,0 c 0.847912,0 1.518229,0.6675843 1.51823,1.5182292 l 0,36.6093745 c 0,0.851873 -0.669878,1.518229 -1.51823,1.51823 l -36.6093745,0 c -0.852036,0 -1.5182292,-0.666357 -1.5182292,-1.51823 l 0,-36.6093745 c 0,-0.8518722 0.6661934,-1.5182292 1.5182292,-1.5182292 z M 20.333333,13 l 0,1.833333 -5.5,0 0,3.666667 -3.666666,0 0,16.5 25.666666,0 0,-16.5 -3.666666,0 0,-3.666667 -5.5,0 0,-1.833333 -7.333334,0 z m 4.325521,17.101562 1.518229,0 0,2.778646 -1.518229,0 0,-2.778646 z m 2.921875,0 1.518229,0 0,2.778646 -1.518229,0 0,-2.778646 z m 2.921875,0 1.518229,0 0,2.778646 -1.518229,0 0,-2.778646 z m -14.523437,0.114584 1.432291,0 0,2.549479 -1.432291,0 0,-2.549479 z m 2.921875,0 1.403645,0 0,2.549479 -1.403645,0 0,-2.549479 z m 2.921875,0 1.403645,0 0,2.549479 -1.403645,0 0,-2.549479 z" />
</defs>
<acyl-settings>
<linearGradient
     id="linearGradient4321">
    <stop
       style="stop-color:#00DEFF;stop-opacity:0.0;"
       offset="1.38777878078e-16"
       id="stop1" />
    <stop
       style="stop-color:#B3DEDE;stop-opacity:1.0;"
       offset="1.38777878078e-16"
       id="stop2" />
  </linearGradient>
<linearGradient
     inkscape:collect="always"
     xlink:href="#linearGradient4321"
     id="acyl_gradient"
     x1="50.0%"
     y1="0.0%"
     x2="50.0%"
     y2="100.0%" />
<filter>
    </filter>
<use id="1" style="fill:url(#acyl_gradient);filter:url(#filter1111)" xlink:href="#path-main" />
</acyl-settings>
</svg>
