<svg xmlns="http://www.w3.org/2000/svg" width="48" height="48">
<defs>
  <path
     d="M 24.71875 4.3125 C 23.027609 4.3125 21.6875 5.6213564 21.6875 7.3125 L 21.6875 28.15625 C 21.6875 29.847392 23.027609 31.1875 24.71875 31.1875 C 26.409893 31.1875 27.71875 29.847392 27.71875 28.15625 L 27.71875 7.3125 C 27.71875 5.6213564 26.409892 4.3125 24.71875 4.3125 z M 30.71875 7.375 L 30.71875 28.15625 C 30.71875 31.395289 27.994748 34.1875 24.71875 34.1875 C 21.442752 34.1875 18.6875 31.432249 18.6875 28.15625 L 18.6875 12.25 C 18.49237 12.565284 18.293465 12.883497 18.125 13.21875 C 17.065896 12.33776 15.703017 11.75 14.21875 11.75 C 10.845417 11.75 8.1250003 14.501666 8.125 17.875 C 8.125 18.632602 8.2476355 19.330327 8.5 20 C 4.6634256 21.71424 2 25.605828 2 30.09375 C 2 36.18775 6.906 41.09375 13 41.09375 L 18.6875 41.09375 L 18.6875 40.6875 L 18.6875 38.59375 C 18.6875 36.560763 20.592011 34.65625 22.625 34.65625 L 24.71875 34.65625 L 26.78125 34.65625 C 28.814237 34.65625 30.71875 36.560767 30.71875 38.59375 L 30.71875 40.6875 L 30.71875 41.09375 L 35 41.09375 C 41.094 41.09375 46 36.18775 46 30.09375 C 46 25.266772 42.902132 21.176086 38.59375 19.6875 C 38.60325 19.478671 38.65625 19.305197 38.65625 19.09375 C 38.65625 13.529055 35.300217 8.8510312 30.71875 7.375 z M 22.625 37.65625 C 22.088792 37.65625 21.6875 38.057543 21.6875 38.59375 L 21.6875 40.6875 L 21.6875 42.75 C 21.6875 43.286206 22.088793 43.6875 22.625 43.6875 L 24.71875 43.6875 L 26.78125 43.6875 C 27.317458 43.6875 27.71875 43.286206 27.71875 42.75 L 27.71875 40.6875 L 27.71875 38.59375 C 27.71875 38.057543 27.317459 37.65625 26.78125 37.65625 L 24.71875 37.65625 L 22.625 37.65625 z "
     id="path-main" />
</defs>
<acyl-settings>
<linearGradient
     id="linearGradient4321">
    <stop
       style="stop-color:#00DEFF;stop-opacity:0.0;"
       offset="1.38777878078e-16"
       id="stop1" />
    <stop
       style="stop-color:#B3DEDE;stop-opacity:1.0;"
       offset="1.38777878078e-16"
       id="stop2" />
  </linearGradient>
<linearGradient
     inkscape:collect="always"
     xlink:href="#linearGradient4321"
     id="acyl_gradient"
     x1="50.0%"
     y1="0.0%"
     x2="50.0%"
     y2="100.0%" />
<filter>
    </filter>
<use id="1" style="fill:url(#acyl_gradient);filter:url(#filter1111)" xlink:href="#path-main" />
</acyl-settings>
</svg>
