<svg xmlns="http://www.w3.org/2000/svg" width="48" height="48">
<defs>
  <path
     d="m 20.333333,4.7909269 c -10.12,0 -18.3333328,8.2133341 -18.333333,18.3333341 0,10.12 8.213334,18.333333 18.333333,18.333333 4.802815,0 9.181593,-1.863204 12.451389,-4.888889 l 13.215278,0 -8.173611,-8.173611 c 0.508303,-1.680842 0.840278,-3.424828 0.840278,-5.270833 0,-10.12 -8.213334,-18.3333341 -18.333334,-18.3333341 z m 0,7.3333341 c 6.072,0 11,4.928 11,11 0,6.072 -4.928,11 -11,11 -6.072,0 -11,-4.928 -11,-11 0,-6.072 4.928,-11 11,-11 z m -0.381944,3.666666 a 1.2223444,1.2223444 0 0 0 -0.840278,1.222223 l 0,6.111111 a 1.2223444,1.2223444 0 0 0 1.222222,1.222222 l 4.277778,0 a 1.2223444,1.2223444 0 1 0 0,-2.444445 l -3.055555,0 0,-4.888888 a 1.2223444,1.2223444 0 0 0 -1.451389,-1.222223 1.2223444,1.2223444 0 0 0 -0.152778,0 z"
     id="path-main" />
</defs>
<acyl-settings>
<linearGradient
     id="linearGradient4321">
    <stop
       style="stop-color:#00DEFF;stop-opacity:0.0;"
       offset="1.38777878078e-16"
       id="stop1" />
    <stop
       style="stop-color:#B3DEDE;stop-opacity:1.0;"
       offset="1.38777878078e-16"
       id="stop2" />
  </linearGradient>
<linearGradient
     inkscape:collect="always"
     xlink:href="#linearGradient4321"
     id="acyl_gradient"
     x1="50.0%"
     y1="0.0%"
     x2="50.0%"
     y2="100.0%" />
<filter>
    </filter>
<use id="1" style="fill:url(#acyl_gradient);filter:url(#filter1111)" xlink:href="#path-main" />
</acyl-settings>
</svg>
