<svg xmlns="http://www.w3.org/2000/svg" width="48" height="48">
<defs>
  <path
     d="m 23.856967,3.5679561 a 2.7312516,2.7312516 0 0 0 -0.341374,0.085352 2.7312516,2.7312516 0 0 0 -2.133574,2.73098 l 0,2.7309772 a 2.7312516,2.7312516 0 1 0 5.461954,0 l 0,-2.7309772 A 2.7312516,2.7312516 0 0 0 23.856967,3.5679644 z M 10.031387,9.2005985 A 2.7312516,2.7312516 0 0 0 8.6658967,13.894471 l 1.5361763,1.536173 a 2.7312516,2.7312516 0 1 0 3.840438,-3.840439 L 12.506336,10.05403 a 2.7312516,2.7312516 0 0 0 -2.21892,-0.8534315 2.7312516,2.7312516 0 0 0 -0.256029,0 z m 27.309783,0 A 2.7312516,2.7312516 0 0 0 35.719654,10.05403 l -1.36549,1.36549 a 2.7312516,2.7312516 0 1 0 3.840438,3.840441 l 1.365487,-1.36549 a 2.7312516,2.7312516 0 0 0 -1.96289,-4.6938725 2.7312516,2.7312516 0 0 0 -0.256029,0 z M 24.112993,14.577215 c -6.033082,0 -10.923913,4.890806 -10.923913,10.923914 0,0.87842 0.145581,1.741873 0.341373,2.560289 0.344795,-0.424788 0.688077,-0.79878 1.10946,-1.109458 1.382342,-1.01916 3.123681,-1.536172 4.949896,-1.536172 0.800831,0 1.468711,0.392944 2.218921,0.597402 2.031689,-1.937687 4.646638,-3.328382 7.76622,-3.328382 1.92153,0 3.704278,0.463875 5.291272,1.280146 -0.747268,-5.305131 -5.241983,-9.387739 -10.753229,-9.387739 z M 4.4840862,22.770152 a 2.7429536,2.7429536 0 0 0 0.5120584,5.461954 l 2.7309786,0 a 2.7312516,2.7312516 0 1 0 0,-5.461954 l -2.7309786,0 a 2.7312516,2.7312516 0 0 0 -0.256032,0 2.7339771,2.7339771 0 0 0 -0.2560292,0 z m 35.5027198,0 a 2.7429536,2.7429536 0 0 0 0.512059,5.461954 l 2.73098,0 a 2.7312516,2.7312516 0 1 0 0,-5.461954 l -2.73098,0 a 2.7312516,2.7312516 0 0 0 -0.25603,0 2.7339771,2.7339771 0 0 0 -0.256057,0 z M 29.57495,25.501129 c -3.07591,0 -5.682582,1.408189 -7.083476,3.499068 -0.788832,-0.492133 -1.796165,-0.768091 -2.901665,-0.768091 -2.512497,0 -4.608524,1.529349 -4.608524,3.413724 0,0.4232 0.153406,0.820721 0.341372,1.194802 -2.857527,0.957594 -4.864555,3.125652 -4.864555,5.632642 0,3.404167 3.654049,6.144704 8.192935,6.144704 l 16.38587,0 c 4.538889,0 8.192938,-2.740537 8.192938,-6.144704 0,-2.696391 -2.338365,-4.971792 -5.547299,-5.803327 0.0072,-0.116633 0.08535,-0.223246 0.08535,-0.341371 0,-3.768752 -3.670434,-6.827447 -8.192937,-6.827447 z"
     id="path-main" />
</defs>
<acyl-settings>
<linearGradient
     id="linearGradient4321">
    <stop
       style="stop-color:#00DEFF;stop-opacity:0.0;"
       offset="1.38777878078e-16"
       id="stop1" />
    <stop
       style="stop-color:#B3DEDE;stop-opacity:1.0;"
       offset="1.38777878078e-16"
       id="stop2" />
  </linearGradient>
<linearGradient
     inkscape:collect="always"
     xlink:href="#linearGradient4321"
     id="acyl_gradient"
     x1="50.0%"
     y1="0.0%"
     x2="50.0%"
     y2="100.0%" />
<filter>
    </filter>
<use id="1" style="fill:url(#acyl_gradient);filter:url(#filter1111)" xlink:href="#path-main" />
</acyl-settings>
</svg>
