<svg xmlns="http://www.w3.org/2000/svg" width="48" height="48">
<defs>
  <path
     d="m 29.114358,2.0000008 c -3.803674,0 -7.027082,1.8569067 -8.759427,4.593308 -0.97547,-0.644067 -2.221137,-0.9772996 -3.588199,-0.9772996 -3.106956,0 -5.698904,1.9317037 -5.698904,4.3978478 0,0.553859 0.189704,1.074107 0.422141,1.56368 -3.5336188,1.253232 -6.0155094,4.146489 -6.0155094,7.427476 0,4.455144 4.5185976,8.013856 10.1313844,8.013856 l 20.26277,0 c 5.612787,0 10.131385,-3.558712 10.131385,-8.013856 0,-3.528862 -2.891619,-6.534678 -6.859792,-7.622936 0.0088,-0.152662 0.105535,-0.334065 0.105535,-0.48865 0,-4.9322919 -4.53886,-8.8934262 -10.131384,-8.8934262 z M 10.118011,30.146228 a 1.6887329,1.5638356 0 0 0 -1.0553528,0.87957 l -1.688564,3.127358 a 1.6887329,1.5638356 0 1 0 2.9549868,1.46595 l 1.688564,-3.127359 a 1.6887329,1.5638356 0 0 0 -1.688564,-2.345519 1.6887329,1.5638356 0 0 0 -0.21107,0 z m 13.508513,0 a 1.6887329,1.5638356 0 0 0 -1.055353,0.87957 l -1.688564,3.127358 a 1.6887329,1.5638356 0 1 0 2.954988,1.46595 l 1.688564,-3.127359 a 1.6887329,1.5638356 0 0 0 -1.688564,-2.345519 1.6887329,1.5638356 0 0 0 -0.211071,0 z m 13.508513,0 a 1.6887329,1.5638356 0 0 0 -1.055352,0.87957 l -1.688564,3.127358 a 1.6887329,1.5638356 0 1 0 2.954987,1.46595 l 1.688564,-3.127359 a 1.6887329,1.5638356 0 0 0 -1.688564,-2.345519 1.6887329,1.5638356 0 0 0 -0.211071,0 z M 5.0523185,39.528304 a 1.6887329,1.5638356 0 0 0 -1.0553526,0.87957 l -1.6885641,3.127358 a 1.6887329,1.5638356 0 1 0 2.9549873,1.46595 l 1.6885641,-3.127359 a 1.6887329,1.5638356 0 0 0 -1.6885641,-2.345519 1.6887329,1.5638356 0 0 0 -0.2110706,0 z m 13.5085135,0 a 1.6887329,1.5638356 0 0 0 -1.055353,0.87957 l -1.688564,3.127358 a 1.6887329,1.5638356 0 1 0 2.954987,1.46595 l 1.688564,-3.127359 a 1.6887329,1.5638356 0 0 0 -1.688564,-2.345519 1.6887329,1.5638356 0 0 0 -0.21107,0 z m 13.508513,0 a 1.6887329,1.5638356 0 0 0 -1.055353,0.87957 l -1.688564,3.127358 a 1.6887329,1.5638356 0 1 0 2.954987,1.46595 l 1.688564,-3.127359 a 1.6887329,1.5638356 0 0 0 -1.688564,-2.345519 1.6887329,1.5638356 0 0 0 -0.21107,0 z"
     id="path-main" />
</defs>
<acyl-settings>
<linearGradient
     id="linearGradient4321">
    <stop
       style="stop-color:#00DEFF;stop-opacity:0.0;"
       offset="1.38777878078e-16"
       id="stop1" />
    <stop
       style="stop-color:#B3DEDE;stop-opacity:1.0;"
       offset="1.38777878078e-16"
       id="stop2" />
  </linearGradient>
<linearGradient
     inkscape:collect="always"
     xlink:href="#linearGradient4321"
     id="acyl_gradient"
     x1="50.0%"
     y1="0.0%"
     x2="50.0%"
     y2="100.0%" />
<filter>
    </filter>
<use id="1" style="fill:url(#acyl_gradient);filter:url(#filter1111)" xlink:href="#path-main" />
</acyl-settings>
</svg>
