<svg xmlns="http://www.w3.org/2000/svg" width="48" height="48">
<defs>
<defs
     id="defs3274">
  </defs>
  <path
     id="path-main"
     d="m 19.3605,2.0316151 c -0.301906,0.035013 -0.612676,0.1153044 -0.991469,0.2129726 -5.092972,1.3131675 -0.808634,4.3034868 -2.272492,7.4486586 -1.459789,0.7444177 -2.782337,1.7227007 -3.947515,2.8282957 -3.2926229,0.317123 -4.9050486,-4.3732127 -7.5212189,0.06447 -2.5119146,4.260844 1.803098,3.746185 3.3234463,6.378329 -0.5665162,1.644385 -0.8203176,3.359138 -0.8033355,5.186868 0.00124,0.133927 -8.103e-4,0.275789 0.0038,0.408912 -2.2006963,2.01707 -6.1479515,0.341114 -4.9199858,5.085834 1.2437682,4.805804 3.9544836,1.234643 6.9022538,2.053724 0.8792681,1.56956 2.0279991,2.923737 3.3735031,4.1287 0.319642,3.290894 -4.3718815,4.947128 0.07028,7.564892 4.628916,2.727816 3.544739,-2.703923 7.061299,-3.741036 1.326192,0.340362 2.689064,0.561353 4.121083,0.578095 3.250361,1.926397 0.61372,6.893942 5.870221,5.53861 5.121301,-1.320472 0.806504,-4.284607 2.34345,-7.449265 1.426335,-0.733993 2.662613,-1.678757 3.806239,-2.758931 3.294783,-0.320501 4.974511,4.305911 7.591539,-0.133229 2.511918,-4.26084 -1.87342,-3.677422 -3.393769,-6.309566 0.566516,-1.644382 0.89064,-3.427897 0.873659,-5.255626 -0.0011,-0.116241 4.5e-4,-0.225123 -0.0032,-0.340761 2.200698,-2.017066 6.147955,-0.341116 4.91999,-5.085835 -1.25325,-4.842413 -4.000026,-1.228011 -6.973846,-2.121269 -0.861224,-1.52357 -1.99915,-2.88247 -3.301914,-4.061156 C 35.172863,8.9624073 39.864387,7.3061765 35.422215,4.68841 30.772053,1.9480362 31.864875,7.3607025 28.289383,8.3619013 26.993608,8.0330193 25.636501,7.871983 24.239888,7.8513485 21.223745,6.0637733 23.248115,1.5807963 19.3605,2.0316151 z m 4.61516,15.5685369 c 3.670515,-0.03146 6.625571,2.824216 6.658325,6.349747 0.03275,3.525533 -2.868769,6.431406 -6.539284,6.462866 -3.67052,0.03146 -6.696527,-2.823605 -6.72928,-6.349138 -0.03275,-3.525531 2.939721,-6.432015 6.610239,-6.463475 z" />
</defs>
<acyl-settings>
<linearGradient
     id="linearGradient4321">
    <stop
       style="stop-color:#00DEFF;stop-opacity:0.0;"
       offset="1.38777878078e-16"
       id="stop1" />
    <stop
       style="stop-color:#B3DEDE;stop-opacity:1.0;"
       offset="1.38777878078e-16"
       id="stop2" />
  </linearGradient>
<linearGradient
     inkscape:collect="always"
     xlink:href="#linearGradient4321"
     id="acyl_gradient"
     x1="50.0%"
     y1="0.0%"
     x2="50.0%"
     y2="100.0%" />
<filter>
    </filter>
<use id="1" style="fill:url(#acyl_gradient);filter:url(#filter1111)" xlink:href="#path-main" />
</acyl-settings>
</svg>
