<svg xmlns="http://www.w3.org/2000/svg" width="48" height="48">
<defs>
  <path
     d="m 23.555981,4.257124 c -0.371703,0.0089 -0.653339,0.174137 -1.001087,0.512752 L 2.7162864,24.095732 c -0.7745611,0.754219 -0.9524484,3.059121 -0.3784596,4.55372 0.5609605,1.46068 1.3440013,2.01723 2.4416744,2.57597 l 19.4967738,9.92541 c 0.978132,0.27946 1.532083,0.34462 2.160882,-0.35404 l 2.3318,-2.53935 c -0.550519,-0.0106 -1.087412,-0.0802 -1.611506,-0.18312 l -0.988878,1.04992 c -0.628799,0.69867 -1.050515,0.67896 -1.819048,0.32962 L 4.9137932,29.284292 C 3.5664818,28.579382 3.6011661,26.486586 3.8760819,25.707238 4.1922061,24.811069 4.9825362,24.576005 5.6951292,24.93811 l 14.5401738,7.386062 c -0.422284,-1.06325 -0.647044,-2.22228 -0.647044,-3.43055 0,-5.146845 4.216979,-9.363822 9.363824,-9.363822 3.006397,0 5.690299,1.440082 7.410483,3.662512 l 7.410484,-7.764526 c 0.628799,-0.628801 1.158494,-1.618416 0.134292,-2.087632 L 25.094236,4.721042 C 24.392406,4.399513 23.927684,4.248184 23.555981,4.257124 z m 19.5334,14.430298 0.04883,1.074337 c 0.460258,0.07671 0.699995,0.569677 0.280793,0.988879 l -5.408311,5.762352 c 0.118854,0.44738 0.205453,0.909215 0.256377,1.379547 l 5.786769,-6.299522 c 0.48907,-0.628801 0.366404,-1.709667 0.07325,-2.02659 -0.300049,-0.324378 -1.037708,-0.879003 -1.037708,-0.879003 z m -14.137298,1.599297 c -4.734067,0 -8.606904,3.872835 -8.606904,8.606903 0,4.73407 3.872837,8.60691 8.606904,8.60691 1.874464,0 3.610869,-0.6206 5.02985,-1.64814 l 1.672547,1.68476 c -0.393498,0.73036 -0.28856,1.65257 0.329626,2.27076 l 5.359477,5.35947 c 0.755482,0.75549 1.979191,0.75549 2.734676,0 l 1.35513,-1.36733 c 0.755481,-0.75549 0.755481,-1.97919 0,-2.73468 l -5.347268,-5.34727 c -0.618186,-0.61819 -1.552613,-0.73533 -2.282967,-0.34183 l -1.709173,-1.69697 c 0.924369,-1.37078 1.477214,-3.01818 1.477214,-4.78568 0,-4.734068 -3.885042,-8.606903 -8.619112,-8.606903 z m 0,3.357303 c 2.911969,0 5.237392,2.337632 5.237392,5.2496 0,2.91197 -2.325423,5.23739 -5.237392,5.23739 -2.911966,0 -5.237393,-2.32542 -5.237393,-5.23739 0,-2.911968 2.325427,-5.2496 5.237393,-5.2496 z m 0,0.75692 c -2.506913,0 -4.468265,1.981534 -4.468265,4.492679 0,1.82843 1.042609,3.362531 2.575966,4.06539 l 5.872229,-6.165229 c -0.746742,-1.428054 -2.236604,-2.39284 -3.97993,-2.39284 z"
     id="path-main"
      />
</defs>
<acyl-settings>
<linearGradient
     id="linearGradient4321">
    <stop
       style="stop-color:#00DEFF;stop-opacity:0.0;"
       offset="1.38777878078e-16"
       id="stop1" />
    <stop
       style="stop-color:#B3DEDE;stop-opacity:1.0;"
       offset="1.38777878078e-16"
       id="stop2" />
  </linearGradient>
<linearGradient
     inkscape:collect="always"
     xlink:href="#linearGradient4321"
     id="acyl_gradient"
     x1="50.0%"
     y1="0.0%"
     x2="50.0%"
     y2="100.0%" />
<filter>
    </filter>
<use id="1" style="fill:url(#acyl_gradient);filter:url(#filter1111)" xlink:href="#path-main" />
</acyl-settings>
</svg>
