<svg xmlns="http://www.w3.org/2000/svg" width="48" height="48">
<defs>
  <path
     d="m 43.898696,2.000537 c -0.08727,0.0031 -0.178308,0.02051 -0.272483,0.0519 C 42.872812,2.303571 42.619151,3.815843 41.991317,4.945944 41.36348,6.076045 40.115736,6.953354 38.734501,6.451086 37.353267,5.948819 31.946272,3.688163 29.937203,2.934762 27.928135,2.181361 25.427622,1.800889 24.046388,2.428723 c -1.381235,0.627834 -3.520097,3.644833 -4.022364,4.774934 -0.502267,1.130102 0.02797,2.275689 0.752571,2.517221 0.753401,0.251134 1.8852,-0.383415 2.387468,-1.764649 0.268745,-0.739049 1.001631,-2.011182 2.633999,-2.011182 1.632368,0 3.643589,0.383415 5.903791,1.76465 2.260202,1.381235 5.143716,2.257713 8.031751,2.257713 2.888038,0 3.891779,-2.261071 4.645181,-3.140038 0.753397,-0.878968 0.800287,-2.80185 0.674719,-3.55525 C 44.94363,2.612896 44.50956,1.978931 43.898696,2.000536 z M 21.892477,10.849736 C 11.555042,10.849736 3.182,18.709575 3.182,28.418381 3.182,38.12719 11.555042,46 21.892477,46 c 10.337434,0 18.723452,-7.87281 18.723452,-17.581619 0,-9.708806 -8.386018,-17.568645 -18.723452,-17.568645 z m 0,3.516324 c 6.661958,0 12.06709,6.285276 12.06709,14.052321 0,7.767049 -5.405132,14.065299 -12.06709,14.065299 -6.661958,0 -12.0541151,-6.29825 -12.0541151,-14.065299 0,-7.767045 5.3921571,-14.052321 12.0541151,-14.052321 z"
     id="path-main"
      />
</defs>
<acyl-settings>
<linearGradient
     id="linearGradient4321">
    <stop
       style="stop-color:#00DEFF;stop-opacity:0.0;"
       offset="1.38777878078e-16"
       id="stop1" />
    <stop
       style="stop-color:#B3DEDE;stop-opacity:1.0;"
       offset="1.38777878078e-16"
       id="stop2" />
  </linearGradient>
<linearGradient
     inkscape:collect="always"
     xlink:href="#linearGradient4321"
     id="acyl_gradient"
     x1="50.0%"
     y1="0.0%"
     x2="50.0%"
     y2="100.0%" />
<filter>
    </filter>
<use id="1" style="fill:url(#acyl_gradient);filter:url(#filter1111)" xlink:href="#path-main" />
</acyl-settings>
</svg>
