<svg xmlns="http://www.w3.org/2000/svg" width="48" height="48">
<defs>
  <path
     d="M 6.095074,2.613631 C 3.859728,2.613631 2,4.47336 2,6.708706 L 2,40.80493 C 2,43.04027 3.859728,44.9 6.095074,44.9 l 35.809852,0 C 44.140271,44.9 46,43.04027 46,40.80493 L 46,6.708706 C 46,4.47336 44.140271,2.613631 41.904926,2.613631 l -35.809852,0 z m 0,3.742268 35.809852,0 c 0.230812,0 0.352806,0.121995 0.352806,0.352807 l 0,34.096224 c 0,0.23081 -0.121994,0.3528 -0.352806,0.3528 l -35.809852,0 c -0.230811,0 -0.352806,-0.12199 -0.352806,-0.3528 l 0,-34.096224 c 0,-0.230812 0.121995,-0.352807 0.352806,-0.352807 z m 10.395189,3.061856 c -1.761991,-0.0012 -3.507496,0.672445 -4.851088,2.016037 -0.08233,0.08233 -0.17463,0.166728 -0.252004,0.252004 l 5.594501,2.255441 c 1.137205,0.458913 1.693736,1.748247 1.234823,2.885453 l -0.54181,1.310423 c -0.458913,1.137205 -1.735649,1.693735 -2.872852,1.234823 L 9.69874,17.305498 c 0.208051,1.414275 0.852629,2.767864 1.940435,3.85567 1.817078,1.817078 4.391856,2.404378 6.703322,1.764032 l 14.250859,14.25086 c 1.22126,1.22126 3.188825,1.22125 4.41008,0 l 0.302406,-0.30241 c 1.221258,-1.22125 1.221263,-3.18882 0,-4.41008 L 23.105384,18.250515 C 23.798171,15.909861 23.213987,13.281228 21.366552,11.433792 20.022961,10.0902 18.252255,9.418982 16.490263,9.417755 z m 19.013746,2.620848 c -0.715057,-10e-4 -1.429763,0.283141 -1.978236,0.831615 l -7.030928,7.030927 1.08362,1.08362 7.358534,-7.371134 c 0.115065,-0.115065 0.300743,-0.115065 0.415807,0 0.115065,0.115065 0.115065,0.300743 0,0.415808 l -7.371134,7.371134 0.970218,0.957617 7.358534,-7.358534 c 0.115063,-0.115064 0.313341,-0.115066 0.428408,0 0.115063,0.115065 0.115063,0.300743 0,0.415808 l -7.371134,7.371134 1.083619,1.071019 7.043528,-7.018327 c 1.09695,-1.096947 1.08435,-2.872125 -0.0126,-3.969072 -0.548474,-0.548473 -1.263178,-0.830536 -1.978236,-0.831615 z m -14.31386,15.536082 -3.30126,3.301265 -2.154639,0.4158 -3.477664,5.5945 1.197022,1.20963 5.607102,-3.47767 0.415808,-2.15464 3.30126,-3.30126 -1.587629,-1.587625 z m 13.620848,5.430695 c 0.426436,0 0.846458,0.16605 1.171821,0.49141 0.650716,0.65072 0.650716,1.70552 0,2.35625 -0.650726,0.65072 -1.705525,0.65071 -2.356243,0 -0.650723,-0.65073 -0.650721,-1.70553 0,-2.35625 0.325361,-0.32536 0.757986,-0.49141 1.184422,-0.49141 z"
     id="path-main"
      />
</defs>
<acyl-settings>
<linearGradient
     id="linearGradient4321">
    <stop
       style="stop-color:#00DEFF;stop-opacity:0.0;"
       offset="1.38777878078e-16"
       id="stop1" />
    <stop
       style="stop-color:#B3DEDE;stop-opacity:1.0;"
       offset="1.38777878078e-16"
       id="stop2" />
  </linearGradient>
<linearGradient
     inkscape:collect="always"
     xlink:href="#linearGradient4321"
     id="acyl_gradient"
     x1="50.0%"
     y1="0.0%"
     x2="50.0%"
     y2="100.0%" />
<filter>
    </filter>
<use id="1" style="fill:url(#acyl_gradient);filter:url(#filter1111)" xlink:href="#path-main" />
</acyl-settings>
</svg>
