<svg xmlns="http://www.w3.org/2000/svg" width="48" height="48">
<defs>
  <path
     d="M 5.0333141,5.779695 C 3.4003275,5.779695 2,6.9429182 2,8.4747223 L 2,39.168722 c 0,1.531805 1.4003275,2.695028 3.0333141,2.695028 l 37.9220959,0 C 44.588388,41.86375 46,40.700527 46,39.168722 L 46,8.4747223 C 46,6.9429182 44.588388,5.779695 42.95541,5.779695 l -37.9220959,0 z m 6.0102529,2.8980003 25.935415,0 c 0.824175,0 1.477191,0.664298 1.477191,1.4884677 l 0,16.880571 c 0,0.82417 -0.653016,1.488468 -1.477191,1.488468 l -25.935415,0 c -0.824165,0 -1.4884646,-0.664298 -1.4884646,-1.488468 l 0,-16.880571 c 0,-0.8241697 0.6642996,-1.4884677 1.4884646,-1.4884677 z m 0.747257,0.71472 c -0.824165,0 -1.488666,0.6644977 -1.488666,1.4886667 l 0,1.393742 27.418417,0 0,-1.393742 c 0,-0.824169 -0.664492,-1.4886667 -1.488667,-1.4886667 l -24.441084,0 z m 4.022601,5.6789217 0,3.213737 c -0.253716,-0.270623 -0.549717,-0.473596 -0.879543,-0.608918 -0.325609,-0.135308 -0.692092,-0.202966 -1.093804,-0.202973 -0.824577,7e-6 -1.503973,0.298829 -2.041003,0.890825 -0.532804,0.59201 -0.800617,1.443367 -0.800617,2.559714 0,0.997951 0.239626,1.850718 0.721683,2.548436 0.486292,0.697718 1.191061,1.048693 2.108664,1.048693 0.456682,0 0.868265,-0.09867 1.240387,-0.293184 0.279088,-0.147999 0.597638,-0.434134 0.935935,-0.856996 l 0,0.992313 2.413115,0 0,-9.291647 -2.604817,0 z m 4.20605,0 0,9.291647 2.413126,0 0,-0.992313 c 0.334052,0.418633 0.641337,0.704768 0.924651,0.856996 0.376337,0.194516 0.787921,0.293184 1.240386,0.293184 0.528569,0 1.012037,-0.142364 1.443367,-0.417223 0.435535,-0.279087 0.78087,-0.693489 1.026133,-1.251666 0.245254,-0.562401 0.360837,-1.215015 0.360846,-1.950794 -9e-6,-1.10366 -0.263586,-1.94938 -0.800616,-2.53716 -0.537038,-0.591996 -1.220661,-0.890818 -2.041003,-0.890825 -0.397495,7e-6 -0.76397,0.06766 -1.093795,0.202973 -0.325609,0.135322 -0.610335,0.338295 -0.868276,0.608918 l 0,-3.213737 -2.604819,0 z m 8.186567,0 2.920555,4.454126 -3.213733,4.837521 3.213733,0 1.838035,-2.988212 1.838028,2.988212 3.225016,0 -3.168631,-4.792415 2.898004,-4.499232 -3.134808,0 -1.601233,2.852897 -1.646333,-2.852897 -3.168633,0 z m -13.565347,4.330087 c 0.342513,6e-6 0.632877,0.132502 0.857001,0.394671 0.224108,0.257948 0.327002,0.655436 0.327012,1.184007 -10e-6,0.58355 -0.10713,1.004999 -0.327012,1.262942 -0.219898,0.257948 -0.493349,0.383396 -0.823175,0.383394 -0.308688,2e-6 -0.566628,-0.129675 -0.778057,-0.383394 -0.207204,-0.257943 -0.315737,-0.65684 -0.315737,-1.20656 0,-0.587772 0.101483,-1.002174 0.304461,-1.251666 0.202968,-0.249483 0.455272,-0.383388 0.755507,-0.383394 z m 9.156327,0 c 0.291776,6e-6 0.541265,0.133911 0.744233,0.383394 0.207204,0.249492 0.304461,0.639932 0.304461,1.172732 0,0.604693 -0.104307,1.027551 -0.315736,1.285494 -0.207204,0.253719 -0.469379,0.383396 -0.778058,0.383394 -0.334061,2e-6 -0.603286,-0.125446 -0.823167,-0.383394 -0.215663,-0.26217 -0.32702,-0.68362 -0.32701,-1.262942 -10e-6,-0.528571 0.107121,-0.926059 0.32701,-1.184007 0.224117,-0.262169 0.517294,-0.394665 0.868267,-0.394671 z m -20.6806687,16.711429 41.7560177,0 0,3.055869 c 0,0.834177 -0.800635,1.578678 -1.916961,1.578678 l -37.9220959,0 c -1.1163349,0 -1.9169608,-0.744501 -1.9169608,-1.578678 l 0,-3.055869 z m 3.4618099,0.281907 0,4.014352 10.1035368,0 0,-4.014352 -10.1035368,0 z m 12.3926178,0.06765 0,4.01435 10.092262,0 0,-4.01435 -10.092262,0 z m 12.246026,0 0,4.01435 10.103546,0 0,-4.01435 -10.103546,0 z"
     id="path-main" />
</defs>
<acyl-settings>
<linearGradient
     id="linearGradient4321">
    <stop
       style="stop-color:#00DEFF;stop-opacity:0.0;"
       offset="1.38777878078e-16"
       id="stop1" />
    <stop
       style="stop-color:#B3DEDE;stop-opacity:1.0;"
       offset="1.38777878078e-16"
       id="stop2" />
  </linearGradient>
<linearGradient
     inkscape:collect="always"
     xlink:href="#linearGradient4321"
     id="acyl_gradient"
     x1="50.0%"
     y1="0.0%"
     x2="50.0%"
     y2="100.0%" />
<filter>
    </filter>
<use id="1" style="fill:url(#acyl_gradient);filter:url(#filter1111)" xlink:href="#path-main" />
</acyl-settings>
</svg>
