<svg xmlns="http://www.w3.org/2000/svg" width="48" height="48">
<defs>
  <path
     d="m 12.458301,2.0000027 c -2.709626,-0.0019 -5.404013,1.022588 -7.470215,3.084086 -0.126602,0.126319 -0.258816,0.263237 -0.377804,0.394077 l 8.603627,3.461029 c 1.748817,0.70412 2.594747,2.6756883 1.88902,4.4205233 l -0.8243,2.02179 c -0.705726,1.744835 -2.681796,2.588836 -4.43061,1.884718 L 2,14.096472 c 0.319945,2.169948 1.315235,4.259256 2.988086,5.928298 2.794339,2.787977 6.766299,3.672501 10.320918,2.690008 l 21.912631,21.879876 c 1.878078,1.8738 4.905226,1.87379 6.783297,0 l 0.463671,-0.46262 c 1.878071,-1.87379 1.878082,-4.89405 0,-6.76785 L 22.624663,15.552845 c 1.065382,-3.59131 0.162049,-7.6170663 -2.678974,-10.4516233 -2.066202,-2.061497 -4.777761,-3.099337 -7.487388,-3.101219 z m 29.22829,4.026445 c -1.099629,-0.0016 -2.196152,0.426368 -3.039605,1.267901 L 27.828054,18.088649 29.493826,19.750628 40.827945,8.4423147 c 0.176949,-0.176546 0.45845,-0.176546 0.635398,0 0.176949,0.176546 0.176948,0.457405 0,0.633951 l -11.33412,11.3083143 1.494043,1.473507 11.316949,-11.29118 c 0.176947,-0.176546 0.475618,-0.176549 0.65257,0 0.176946,0.176546 0.176946,0.457405 0,0.633951 L 32.258664,22.509172 33.924436,24.154017 44.74337,13.376852 c 1.68691,-1.683066 1.669737,-4.3994353 -0.01716,-6.0825033 -0.843455,-0.841532 -1.939978,-1.266246 -3.039606,-1.267901 z m -21.998496,23.8331283 -5.083181,5.071607 -3.314371,0.633951 -5.357947,8.58404 1.854674,1.85045 8.6208,-5.32861 0.635398,-3.30683 5.083181,-5.071608 -2.438554,-2.433 z m 20.933775,8.327031 c 0.655782,0 1.302808,0.254679 1.803157,0.753887 1.000685,0.99841 1.000685,2.61682 0,3.61523 -1.000696,0.99842 -2.622798,0.99841 -3.623485,0 -1.000695,-0.99841 -1.000692,-2.61682 0,-3.61523 0.500346,-0.499206 1.164547,-0.753887 1.820328,-0.753887 z"
     id="path-main"
      />
</defs>
<acyl-settings>
<linearGradient
     id="linearGradient4321">
    <stop
       style="stop-color:#00DEFF;stop-opacity:0.0;"
       offset="1.38777878078e-16"
       id="stop1" />
    <stop
       style="stop-color:#B3DEDE;stop-opacity:1.0;"
       offset="1.38777878078e-16"
       id="stop2" />
  </linearGradient>
<linearGradient
     inkscape:collect="always"
     xlink:href="#linearGradient4321"
     id="acyl_gradient"
     x1="50.0%"
     y1="0.0%"
     x2="50.0%"
     y2="100.0%" />
<filter>
    </filter>
<use id="1" style="fill:url(#acyl_gradient);filter:url(#filter1111)" xlink:href="#path-main" />
</acyl-settings>
</svg>
