<svg xmlns="http://www.w3.org/2000/svg" width="48" height="48">
<defs>
  <path
     d="M 5.933641,16.681954 C 3.747827,16.681954 2,18.443299 2,20.629112 l 0,8.97573 C 2,31.790655 3.747827,33.552 5.933641,33.552 l 36.119201,0 C 44.238655,33.552 46,31.790655 46,29.604842 l 0,-8.97573 c 0,-2.185813 -1.761345,-3.947158 -3.947158,-3.947158 l -36.119201,0 z m 12.706605,5.90722 10.719508,0 c 1.648863,0 2.973887,1.13173 2.973887,2.527803 0,1.396073 -1.325024,2.514286 -2.973887,2.514286 l -10.719508,0 c -1.648863,0 -2.973887,-1.118213 -2.973887,-2.514286 0,-1.396073 1.325024,-2.527803 2.973887,-2.527803 z"
     id="path-main"
      />
</defs>
<acyl-settings>
<linearGradient
     id="linearGradient4321">
    <stop
       style="stop-color:#00DEFF;stop-opacity:0.0;"
       offset="1.38777878078e-16"
       id="stop1" />
    <stop
       style="stop-color:#B3DEDE;stop-opacity:1.0;"
       offset="1.38777878078e-16"
       id="stop2" />
  </linearGradient>
<linearGradient
     inkscape:collect="always"
     xlink:href="#linearGradient4321"
     id="acyl_gradient"
     x1="50.0%"
     y1="0.0%"
     x2="50.0%"
     y2="100.0%" />
<filter>
    </filter>
<use id="1" style="fill:url(#acyl_gradient);filter:url(#filter1111)" xlink:href="#path-main" />
</acyl-settings>
</svg>
