<svg xmlns="http://www.w3.org/2000/svg" width="48" height="48">
<defs>
<defs
     id="defs3306">

  </defs>
  <path
     d="M 23.9375 3.09375 C 20.731601 3.0995116 18.10518 4.0256687 16.3125 5.8125 C 14.51982 7.599331 13.75139 10.079195 13.65625 12.59375 C 13.565934 14.980844 14.04075 17.504226 14.875 20.0625 C 12.068202 20.780463 9.451145 21.819755 7.34375 23.25 C 5.236354 24.680244 3.606724 26.568101 2.96875 29 C 2.330777 31.431901 2.852726 34.172945 4.5 36.8125 C 6.148194 39.453511 8.3445526 41.191234 10.8125 41.75 C 13.28045 42.308764 15.811056 41.719305 18.09375 40.5625 C 20.350397 39.418894 22.487685 37.689144 24.4375 35.625 C 26.402465 37.590022 28.546532 39.205251 30.78125 40.25 C 33.081762 41.325507 35.603959 41.809324 38.03125 41.09375 C 40.458541 40.378177 42.541799 38.476333 44.03125 35.6875 C 45.520884 32.898323 45.921844 30.133009 45.15625 27.71875 C 44.390656 25.304491 42.595388 23.462015 40.40625 22.15625 C 38.444135 20.985899 36.069247 20.198699 33.5625 19.65625 C 34.262295 17.190532 34.655702 14.757619 34.5 12.46875 C 34.329054 9.9558185 33.516259 7.538538 31.6875 5.78125 C 29.858742 4.0239598 27.141741 3.08799 23.9375 3.09375 z M 23.9375 7.59375 C 26.334882 7.589436 27.681258 8.183226 28.53125 9 C 29.381243 9.816775 29.912542 11.036225 30.03125 12.78125 C 30.152744 14.567245 29.786455 16.827724 29.03125 19.21875 C 27.282607 19.071452 25.571135 18.78329 23.78125 18.84375 C 22.30055 18.893755 20.91815 19.249085 19.46875 19.4375 C 18.588777 16.963176 18.02387 14.596944 18.09375 12.75 C 18.159787 11.004687 18.662906 9.803214 19.46875 9 C 20.274593 8.196785 21.541774 7.59805 23.9375 7.59375 z M 23.90625 23.3125 C 24.985222 23.276061 25.998796 23.5087 27.0625 23.5625 C 26.643556 24.433033 26.401995 25.279359 25.90625 26.125 C 25.452984 26.89818 24.849661 27.516694 24.34375 28.25 C 23.788994 27.492169 23.12387 26.867816 22.625 26.0625 C 22.137495 25.275529 21.890054 24.468537 21.46875 23.65625 C 22.306642 23.572301 23.058708 23.34113 23.90625 23.3125 z M 31.8125 23.90625 C 34.318015 24.371539 36.518321 25.060296 38.09375 26 C 39.649423 26.927919 40.557911 27.964032 40.90625 29.0625 C 41.254589 30.160968 41.154844 31.548455 40.0625 33.59375 C 38.969971 35.63939 37.861887 36.453463 36.75 36.78125 C 35.638113 37.109039 34.286358 36.980839 32.65625 36.21875 C 30.926408 35.410036 29.030311 33.827296 27.1875 31.90625 C 28.049367 30.726111 29.003234 29.68008 29.75 28.40625 C 30.604399 26.948819 31.148031 25.421474 31.8125 23.90625 z M 16.84375 24.3125 C 17.510665 25.697096 17.988984 27.108115 18.8125 28.4375 C 19.61588 29.73438 20.642526 30.776895 21.5625 31.96875 C 19.732452 33.988677 17.84056 35.661428 16.0625 36.5625 C 14.416203 37.396794 12.993765 37.642448 11.8125 37.375 C 10.631237 37.107551 9.468719 36.340259 8.28125 34.4375 C 7.092873 32.533283 6.964301 31.245308 7.25 30.15625 C 7.535699 29.067192 8.364425 27.993944 9.875 26.96875 C 11.553713 25.829444 14.058922 24.953176 16.84375 24.3125 z "
     id="path-main" />
</defs>
<acyl-settings>
<linearGradient
     id="linearGradient4321">
    <stop
       style="stop-color:#00DEFF;stop-opacity:0.0;"
       offset="1.38777878078e-16"
       id="stop1" />
    <stop
       style="stop-color:#B3DEDE;stop-opacity:1.0;"
       offset="1.38777878078e-16"
       id="stop2" />
  </linearGradient>
<linearGradient
     inkscape:collect="always"
     xlink:href="#linearGradient4321"
     id="acyl_gradient"
     x1="50.0%"
     y1="0.0%"
     x2="50.0%"
     y2="100.0%" />
<filter>
    </filter>
<use id="1" style="fill:url(#acyl_gradient);filter:url(#filter1111)" xlink:href="#path-main" />
</acyl-settings>
</svg>
