<svg xmlns="http://www.w3.org/2000/svg" width="48" height="48">
<defs>
  <path
     d="m 38.50767,2.0001856 c -0.196064,-0.002 -0.404201,0.01157 -0.613715,0.02505 -1.676119,0.107833 -3.746617,0.760185 -5.510909,2.818078 -2.301774,2.684736 -2.387803,8.0580114 -1.678321,9.0053274 0.882819,1.175748 1.970201,1.093752 3.832586,0.701389 1.862386,-0.392364 10.604974,-8.4360444 6.487842,-12.0613774 -0.135804,-0.120513 -1.145041,-0.474528 -2.517483,-0.488466 z m -14.353413,1.866194 c -1.976605,0 -3.860585,2.388917 -3.31907,4.909719 0.525393,2.4509304 1.245169,4.3962034 2.717881,4.3962034 1.371924,0 2.430457,-2.097297 2.95585,-4.5965994 0.530764,-2.522147 -0.379409,-4.709323 -2.354661,-4.709323 z m -9.368547,3.557041 c -0.112267,0.0036 -0.225881,0.0128 -0.338168,0.03757 -1.796539,0.399083 -2.503125,2.7853124 -1.515503,4.9097194 0.959417,2.063941 1.991914,3.654949 3.331596,3.356645 1.246964,-0.276804 1.79196,-2.351159 1.77852,-4.671748 -0.01077,-2.0481524 -1.371211,-3.5412404 -2.918278,-3.6196654 -0.110506,-0.0056 -0.225901,-0.01613 -0.338167,-0.01253 z M 8.9115809,12.834133 c -0.373866,-0.02018 -0.729778,0.06127 -1.077132,0.23797 -1.389393,0.70948 -1.499717,2.800405 -0.23797,4.333579 1.225458,1.488832 2.4221851,2.582144 3.4568421,2.054066 0.967472,-0.491798 0.978488,-2.333373 0.475944,-4.23338 -0.379936,-1.440122 -1.496083,-2.331705 -2.6176841,-2.392235 z m 19.1754611,3.795012 c -1.46269,0.0027 -3.212056,0.153451 -5.310512,0.475942 -12.384987,1.902695 -13.3263801,9.776196 -13.3263801,13.401528 0,3.62668 5.1165191,13.94455 13.8398961,15.31783 8.723368,1.37058 12.236844,-5.70657 12.825389,-6.58805 0.588545,-0.88147 1.476341,-3.217 0.300594,-4.296 -1.175747,-1.07766 -5.976672,-0.31089 -7.251855,0.37574 -1.275178,0.68664 -0.692431,3.35056 -1.377727,4.23338 -0.686638,0.88013 -2.462767,1.24469 -3.932785,0.36322 -1.470027,-0.88416 -2.620314,-3.20881 -1.640748,-5.07254 0.980913,-1.86238 10.965113,-7.071246 12.925586,-9.030376 1.960474,-1.961819 0.689506,-5.575117 0.200397,-6.750864 0,0 -0.913538,-2.441564 -7.251855,-2.42981 z m -3.31907,4.796995 c 1.064552,-0.04531 1.915872,0.21413 2.342135,0.801587 0.974314,1.342761 -0.628793,3.896294 -3.569565,5.698782 -2.940772,1.802486 -6.114724,2.169396 -7.089032,0.826636 -0.974313,-1.34276 0.628789,-3.896294 3.569565,-5.698781 1.654185,-1.013899 3.378184,-1.56996 4.746897,-1.628224 z"
     id="path-main"
      />
</defs>
<acyl-settings>
<linearGradient
     id="linearGradient4321">
    <stop
       style="stop-color:#00DEFF;stop-opacity:0.0;"
       offset="1.38777878078e-16"
       id="stop1" />
    <stop
       style="stop-color:#B3DEDE;stop-opacity:1.0;"
       offset="1.38777878078e-16"
       id="stop2" />
  </linearGradient>
<linearGradient
     inkscape:collect="always"
     xlink:href="#linearGradient4321"
     id="acyl_gradient"
     x1="50.0%"
     y1="0.0%"
     x2="50.0%"
     y2="100.0%" />
<filter>
    </filter>
<use id="1" style="fill:url(#acyl_gradient);filter:url(#filter1111)" xlink:href="#path-main" />
</acyl-settings>
</svg>
