<svg xmlns="http://www.w3.org/2000/svg" width="48" height="48">
<defs>
  <path
     d="m 23.985125,2.0867486 c -2.317255,0.6099112 -3.900965,2.2557096 -4.313726,4.9384719 0,1.5922995 0.745422,2.9781955 1.90399,3.8674775 l 0.178499,11.513185 c -2.537284,1.035029 -4.338315,3.487215 -4.432725,6.366463 l -7.169709,1.606491 C 9.2997426,29.467025 8.0686606,29.126962 6.9087221,29.040095 4.2099536,29.040095 2,31.166162 2,33.829818 c 0,2.663493 2.2065097,4.819472 4.9087221,4.819472 1.8321481,0 3.4663379,-0.951669 4.3137259,-2.439486 0.04412,-0.07401 0.01677,-0.155574 0.02975,-0.237999 l 8.091954,-2.052738 c 0.768644,0.736043 1.513855,1.530665 2.498986,1.72549 -1.616787,0.999156 -2.608909,2.599342 -2.855984,4.611224 l 0,0.02975 c 0,3.038521 2.50803,5.414469 5.473969,5.414469 2.965937,0 5.444219,-2.377247 5.444219,-5.414469 0,-2.069008 -1.211081,-3.754638 -2.885733,-4.670724 0.908748,-0.349521 1.651533,-0.950103 2.379986,-1.576741 l 7.526707,1.963489 c 0.308988,0.964342 0.903142,1.676156 1.636241,2.171738 0.773875,0.523147 1.704269,0.827393 2.707235,0.951994 l 0.02975,0 c 2.586284,0 4.700474,-2.08888 4.700474,-4.640973 0,-2.542023 -2.098337,-4.594936 -4.670724,-4.611224 -0.01019,-6.5e-5 -0.01954,0 -0.02975,0 -0.910426,-0.05061 -1.686641,0.288507 -2.320486,0.743746 l -7.467208,-1.72549 c -0.05067,-2.918326 -1.84131,-5.401859 -4.402975,-6.455714 -0.06148,-3.254507 -0.03235,-10.400348 -0.02975,-11.215686 1.45071,-0.844192 2.469236,-2.371338 2.469236,-4.1947255 0,-2.753453 -2.248451,-4.9384719 -4.938472,-4.9384719 l -0.624746,0 z m 0.624746,1.5172413 c 2.016119,0 3.56998,1.5806524 3.56998,3.4212306 0,1.8405785 -1.553861,3.3914805 -3.56998,3.3914805 -2.016118,0 -3.569979,-1.550902 -3.569979,-3.3914805 0,-1.8405782 1.553861,-3.4212306 3.569979,-3.4212306 z m -1.814739,7.8837051 c 0.573764,0.227855 1.165262,0.446247 1.814739,0.446247 0.435798,0 0.840645,-0.102845 1.249493,-0.208249 -0.006,1.429908 -0.0092,8.186184 0.0595,11.126437 -1.01613,0.428181 -1.756478,0.406792 -2.945233,-0.02975 L 22.795132,11.487695 z m -5.38472,18.474645 c 0.14374,1.064741 0.509483,2.054951 1.070994,2.915483 l -7.496957,1.963489 c -0.506237,-0.52224 -0.789379,-0.967367 -0.862745,-1.457742 -0.06905,-0.461539 0.03965,-1.101574 0.208249,-1.81474 l 7.080459,-1.60649 z m 13.982421,0.178499 7.377958,1.66599 c 0.168646,0.713282 0.307059,1.353137 0.237998,1.81474 -0.07062,0.471995 -0.383915,0.924477 -0.862745,1.427992 l -7.913455,-2.052739 c 0.584976,-0.843854 0.987463,-1.802609 1.160244,-2.855983 z M 6.9087221,30.349087 c 0.7482999,0 1.5743797,0.24465 2.1419878,0.594997 -0.2477838,0.861903 -0.2910033,1.724884 -0.2974983,2.558485 l 0,0.02975 c 0.1201739,0.803239 0.5921711,1.522339 1.219743,2.201488 -0.6593469,0.887933 -1.8598309,1.606491 -3.0642325,1.606491 -2.0011066,0 -3.5997295,-1.57427 -3.5997295,-3.51048 0,-1.936403 1.5946383,-3.480731 3.5997295,-3.480731 z m 17.8498989,0.624747 c 0.935423,0.04602 1.75794,0.441984 2.141987,1.130493 l 0,0.02975 0.0595,3.421231 c -1.559932,-1.035639 -3.243479,-0.712485 -4.908722,-0.08925 l 0,-3.42123 0.02975,-0.02975 c 0.727679,-0.769824 1.742946,-1.08723 2.677485,-1.041244 z m 16.540905,0.267748 c 1.848068,0 3.302232,1.458352 3.302232,3.242732 0,1.784378 -1.454164,3.242731 -3.302232,3.242731 -1.031179,0 -2.112891,-0.565524 -2.736984,-1.279242 0.406668,-0.254701 0.80566,-0.524245 1.041244,-0.922245 0.853637,-1.316214 0.776082,-2.563306 0.505747,-4.045977 0.364417,-0.109755 0.841525,-0.237999 1.189993,-0.237999 z m -16.838404,5.23597 c 2.253245,0 3.986478,1.748322 3.986478,3.807979 0,2.059657 -1.734791,3.807978 -3.986478,3.807978 -2.251688,0 -3.986477,-1.748321 -3.986477,-3.807978 0,-2.059657 1.733232,-3.807979 3.986477,-3.807979 z"
     id="path-main" />
</defs>
<acyl-settings>
<linearGradient
     id="linearGradient4321">
    <stop
       style="stop-color:#00DEFF;stop-opacity:0.0;"
       offset="1.38777878078e-16"
       id="stop1" />
    <stop
       style="stop-color:#B3DEDE;stop-opacity:1.0;"
       offset="1.38777878078e-16"
       id="stop2" />
  </linearGradient>
<linearGradient
     inkscape:collect="always"
     xlink:href="#linearGradient4321"
     id="acyl_gradient"
     x1="50.0%"
     y1="0.0%"
     x2="50.0%"
     y2="100.0%" />
<filter>
    </filter>
<use id="1" style="fill:url(#acyl_gradient);filter:url(#filter1111)" xlink:href="#path-main" />
</acyl-settings>
</svg>
