<svg xmlns="http://www.w3.org/2000/svg" width="48" height="48">
<defs>
  <path
     d="m 24.010041,2 c -3.86934,0 -7.008672,3.1407655 -7.008672,7.0118724 0,3.3733696 2.369653,6.1825606 5.542675,6.8511426 l 0,3.877625 2.931994,0 0,-3.897717 C 28.636932,15.165129 30.998631,12.376638 30.998631,9.0118724 30.998631,5.1407655 27.879381,2 24.010041,2 z M 9.0086714,16.988129 C 5.1393314,16.988129 2,20.128895 2,24.000002 c 0,3.871103 3.1393314,7.011867 7.0086714,7.011867 3.2505816,0 5.9765536,-2.220273 6.7676866,-5.22374 l 3.956184,0 0,-2.933333 -3.81561,0 C 15.368993,19.530265 12.4869,16.988129 9.0086714,16.988129 z m 29.9826576,0 c -3.478229,0 -6.360322,2.542136 -6.908262,5.866667 l -3.815609,0 0,2.933333 3.956184,0 c 0.791133,3.003467 3.517105,5.22374 6.767687,5.22374 3.869339,0 7.008671,-3.140764 7.008671,-7.011867 0,-3.871107 -3.139332,-7.011873 -7.008671,-7.011873 z m -16.447285,11.271234 0,3.877629 c -3.173022,0.668576 -5.542675,3.497857 -5.542675,6.871227 0,3.871107 3.139332,6.991781 7.008672,6.991781 3.86934,0 6.98859,-3.120674 6.98859,-6.991781 0,-3.364766 -2.361699,-6.173348 -5.522593,-6.851137 l 0,-3.897719 -2.931994,0 z"
     id="path-main"
      />
</defs>
<acyl-settings>
<linearGradient
     id="linearGradient4321">
    <stop
       style="stop-color:#00DEFF;stop-opacity:0.0;"
       offset="1.38777878078e-16"
       id="stop1" />
    <stop
       style="stop-color:#B3DEDE;stop-opacity:1.0;"
       offset="1.38777878078e-16"
       id="stop2" />
  </linearGradient>
<linearGradient
     inkscape:collect="always"
     xlink:href="#linearGradient4321"
     id="acyl_gradient"
     x1="50.0%"
     y1="0.0%"
     x2="50.0%"
     y2="100.0%" />
<filter>
    </filter>
<use id="1" style="fill:url(#acyl_gradient);filter:url(#filter1111)" xlink:href="#path-main" />
</acyl-settings>
</svg>
