<svg xmlns="http://www.w3.org/2000/svg" width="48" height="48">
<defs>
<defs
     id="defs3">
  </defs>
  <path
     d="M 10.208919,2.0000098 C 8.2997992,1.9982067 6.7117102,3.445092 6.709975,5.2822051 l 0,3.6228006 -0.8050668,0 C 3.9957889,8.9032027 2.4076992,10.350088 2.4059641,12.187201 L 2.375,40.271646 c -0.00174,1.838233 1.5909513,3.280393 3.4989441,3.282196 l 11.7663609,0.03096 c 0.426531,1.38192 1.767724,2.382748 3.344124,2.384236 l 20.80788,0.03096 c 1.91169,0.0018 3.497208,-1.475652 3.498944,-3.313159 l 0.03096,-28.11541 c 0.0017,-1.837508 -1.587256,-3.311353 -3.498944,-3.31316 l -7.152709,0 0,-5.9451078 C 34.6723,3.4749301 33.085762,2.0018176 31.17162,2.0000098 l -20.962701,0 z m 0,0.9908514 20.962701,0 c 1.412907,0.00133 2.50929,1.0553044 2.508093,2.322308 l 0,5.9451078 -3.808586,0 C 29.538122,10.235575 28.702404,9.427467 27.641712,9.0907904 27.492764,9.0388653 27.33661,8.9970894 27.17725,8.9669339 c -0.02022,-0.00353 -0.0416,0.00319 -0.06193,0 -0.180739,-0.030709 -0.365017,-0.061747 -0.557354,-0.061928 l -13.221674,0 -0.371569,-0.3715693 3.034482,-2.9725543 -1.88881,0 -2.322308,2.291344 0,-2.3223081 -1.641098,0 0,3.3750877 -2.4461645,0 0,-3.6228006 c 0.0012,-1.2681292 1.0901653,-2.292683 2.5080925,-2.2913439 z m -4.3040108,6.9049959 20.6530598,0 c 0.124469,1.176e-4 0.256137,0.012881 0.371569,0.030964 0.02993,0.00418 0.06338,-0.00516 0.09289,0 0.757148,0.1539609 1.303731,0.6959219 1.641097,1.3314559 l -7.648134,0 c -1.911691,-0.0018 -3.497209,1.444688 -3.498944,3.282196 l 0,2.817734 -1.672062,-2.570021 -3.498944,5.449683 3.498944,5.449683 1.672062,-2.570021 0,6.254749 -1.672062,-2.570021 -3.498944,5.449683 3.498944,5.480647 1.641097,-2.600985 0,7.46235 -11.6115399,-0.03096 c -1.41905,-0.0013 -2.5092863,-1.024339 -2.5080897,-2.291348 l 0.030964,-28.084445 c 0.0012,-1.268129 1.0901664,-2.292683 2.5080927,-2.2913439 z M 8.1652881,11.50599 c -0.4213978,8e-6 -0.8618301,0.03988 -1.3004925,0.123857 -0.4386668,0.08034 -0.8824307,0.183594 -1.3314567,0.340605 l 0,1.795918 c 0.4213935,-0.277516 0.8070507,-0.480514 1.1766361,-0.619282 0.3695816,-0.142405 0.7109478,-0.216743 1.0218156,-0.216749 0.404121,7e-6 0.7180992,0.106909 0.9598873,0.340605 0.2452337,0.23371 0.3715648,0.545511 0.3715693,0.928924 -4.4e-6,0.248314 -0.064897,0.482129 -0.1857847,0.712174 -0.120896,0.230056 -0.3052114,0.471174 -0.5573539,0.712175 l -2.8177338,2.631949 0,1.548205 5.6354672,0 0,-1.548205 -3.4060514,0 1.6410977,-1.517242 c 0.6977137,-0.646329 1.1757737,-1.164782 1.3933847,-1.548205 0.217599,-0.387065 0.309635,-0.793063 0.309641,-1.238564 -6e-6,-0.770481 -0.259454,-1.395987 -0.774103,-1.826883 C 9.7906062,11.694392 9.0909706,11.505999 8.1652881,11.50599 z m 12.8501049,0.743139 9.072483,0 4.087262,0 7.648135,0 c 1.415349,0.0013 2.50929,1.054577 2.508093,2.322308 l -0.03097,28.11541 c -0.0012,1.26773 -1.092741,2.323644 -2.508092,2.322308 l -20.80788,-0.03097 c -1.286331,-0.0012 -2.302601,-0.871399 -2.477129,-1.981702 -0.01612,-0.101793 -0.03108,-0.220346 -0.03096,-0.340606 L 18.5073,14.540473 c 1.5e-4,-0.158517 0.02927,-0.315085 0.06193,-0.464462 0.229081,-1.045444 1.207732,-1.828051 2.446165,-1.826882 z m 1.764954,2.012667 -2.198452,6.93596 1.486277,0 0.433498,-1.548205 2.136523,0 0.433498,1.548205 1.455313,0 -2.136524,-6.93596 -1.610133,0 z m 0.774102,1.238564 0.03096,0 c 0.0196,0.241845 0.04527,0.445163 0.09289,0.619282 l 0.650246,2.322308 -1.548205,0 0.650246,-2.353272 c 0.05602,-0.199916 0.109848,-0.385167 0.123856,-0.588318 z m 4.768473,7.617171 c -2.119126,-0.02219 -3.78338,1.728885 -3.808585,3.839549 -0.03633,2.965804 1.77592,3.93032 6.93596,8.081632 4.956491,-4.432033 6.934382,-5.643873 6.966924,-8.14356 0.0356,-2.734369 -4.042387,-5.382785 -7.028852,-2.508093 -1.038399,-0.871271 -2.102208,-1.259443 -3.065447,-1.269528 z m 7.98874,12.912032 2.167487,6.93596 1.610134,0 2.167487,-6.93596 -1.486277,0 -0.433497,1.548206 -2.136524,0 -0.433497,-1.548206 -1.455313,0 z m 2.167487,2.755806 1.548206,0 -0.650247,2.322308 c -0.04762,0.174119 -0.07329,0.377437 -0.09289,0.619282 l -0.03096,0 c -0.01401,-0.203151 -0.06784,-0.388402 -0.123856,-0.588318 l -0.650247,-2.353272 z"
     id="path-main"
      />
</defs>
<acyl-settings>
<linearGradient
     id="linearGradient4321">
    <stop
       style="stop-color:#00DEFF;stop-opacity:0.0;"
       offset="1.38777878078e-16"
       id="stop1" />
    <stop
       style="stop-color:#B3DEDE;stop-opacity:1.0;"
       offset="1.38777878078e-16"
       id="stop2" />
  </linearGradient>
<linearGradient
     inkscape:collect="always"
     xlink:href="#linearGradient4321"
     id="acyl_gradient"
     x1="50.0%"
     y1="0.0%"
     x2="50.0%"
     y2="100.0%" />
<filter>
    </filter>
<use id="1" style="fill:url(#acyl_gradient);filter:url(#filter1111)" xlink:href="#path-main" />
</acyl-settings>
</svg>
