<svg xmlns="http://www.w3.org/2000/svg" width="48" height="48">
<defs>
<defs
     id="defs1874">
  </defs>
  <path
     id="path-main"
     d="M 4.2630208,9.875 C 3.0215309,9.875 2,10.963475 2,12.338542 L 2,36.286458 C 2,37.661525 3.021531,38.750002 4.2630208,38.75 l 39.4739582,0 c 1.24149,0 2.26302,-1.088476 2.263021,-2.463542 L 46,12.338542 C 46,10.963475 44.978468,9.875 43.736979,9.875 l -39.4739582,0 z m 1.0598959,4.841146 4.3828125,0 0,3.666667 -4.3828125,0 0,-3.666667 z m 6.5885413,0 4.382813,0 0,3.666667 -4.382813,0 0,-3.666667 z m 6.588542,0 4.411458,0 0,3.666667 -4.411458,0 0,-3.666667 z m 6.588542,0 4.411458,0 0,3.666667 -4.411458,0 0,-3.666667 z m 6.617187,0 4.382813,0 0,3.666667 -4.382813,0 0,-3.666667 z m 6.588542,0 4.382812,0 0,3.666667 -4.382812,0 0,-3.666667 z m -29.6770835,7.763021 4.3828125,0 0,3.666666 -4.3828125,0 0,-3.666666 z m 6.5885415,0 4.382813,0 0,3.666666 -4.382813,0 0,-3.666666 z m 6.588542,0 4.411458,0 0,3.666666 -4.411458,0 0,-3.666666 z m 6.617187,0 4.382813,0 0,3.666666 -4.382813,0 0,-3.666666 z m 6.588542,0 4.382812,0 0,3.666666 -4.382812,0 0,-3.666666 z m -29.6770833,7.763021 5.4713543,0 0,3.666666 -5.4713543,0 0,-3.666666 z m 7.6770833,0 20.882812,0 0,3.666666 -20.882812,0 0,-3.666666 z m 23.088542,0 6.588541,0 0,3.666666 -6.588541,0 0,-3.666666 z" />
</defs>
<acyl-settings>
<linearGradient
     id="linearGradient4321">
    <stop
       style="stop-color:#00DEFF;stop-opacity:0.0;"
       offset="1.38777878078e-16"
       id="stop1" />
    <stop
       style="stop-color:#B3DEDE;stop-opacity:1.0;"
       offset="1.38777878078e-16"
       id="stop2" />
  </linearGradient>
<linearGradient
     inkscape:collect="always"
     xlink:href="#linearGradient4321"
     id="acyl_gradient"
     x1="50.0%"
     y1="0.0%"
     x2="50.0%"
     y2="100.0%" />
<filter>
    </filter>
<use id="1" style="fill:url(#acyl_gradient);filter:url(#filter1111)" xlink:href="#path-main" />
</acyl-settings>
</svg>
