<svg xmlns="http://www.w3.org/2000/svg" width="48" height="48">
<defs>
	<path
   d="m 35.338272,8.2779015 c -0.0335,0.00384 -0.06626,0.018944 -0.09821,0.032738 -0.127809,0.055175 -0.207341,0.1771346 -0.207341,0.3164677 2e-6,0 0,5.3135138 0,5.9364968 -0.672918,0 -18.158695,0 -18.158695,0 -0.19311,0 -0.349206,0.156095 -0.349206,0.349205 l 0,6.252965 c 1e-6,0.19311 0.156095,0.349205 0.349206,0.349205 0,0 17.485776,0 18.158695,0 2e-6,0.633459 0,5.936497 0,5.936497 2e-6,0.140729 0.08835,0.26234 0.218254,0.316467 0.130253,0.05413 0.282071,0.0337 0.381944,-0.06548 l 10.268825,-9.155732 c 0.06705,-0.0667 0.09961,-0.156008 0.09821,-0.250991 -0.0014,-0.09464 -0.04033,-0.18604 -0.109126,-0.250992 L 35.621998,8.3761156 c -0.07595,-0.071762 -0.183224,-0.1097379 -0.28373,-0.098214 z M 12.563515,19.452483 c -0.06565,0.01152 -0.134707,0.05037 -0.185516,0.09821 L 2.10917,29.219329 c -0.068793,0.0646 -0.10773,0.156357 -0.1091268,0.250992 -0.0014,0.09464 0.031167,0.183944 0.098214,0.250991 L 12.377999,38.87705 c 0.09987,0.09917 0.25169,0.119603 0.381944,0.06548 0.129904,-0.05413 0.207341,-0.175738 0.207341,-0.316468 0,0 0,-5.303038 0,-5.936497 0.672919,-1e-6 18.158695,0 18.158695,0 0.193111,-1e-6 0.349206,-0.156095 0.349206,-0.349206 l 0,-6.252964 c 0,-0.193111 -0.156095,-0.349206 -0.349206,-0.349206 10e-7,0 -17.485776,0 -18.158695,0 0,-0.622983 0,-5.936496 0,-5.936496 0,-0.139333 -0.07918,-0.261293 -0.207341,-0.316468 -0.06408,-0.02759 -0.130778,-0.04426 -0.196428,-0.03274 z"
   id="path-main"
    />
</defs>
<acyl-settings>
<linearGradient
     id="linearGradient4321">
    <stop
       style="stop-color:#00DEFF;stop-opacity:0.0;"
       offset="1.38777878078e-16"
       id="stop1" />
    <stop
       style="stop-color:#B3DEDE;stop-opacity:1.0;"
       offset="1.38777878078e-16"
       id="stop2" />
  </linearGradient>
<linearGradient
     inkscape:collect="always"
     xlink:href="#linearGradient4321"
     id="acyl_gradient"
     x1="50.0%"
     y1="0.0%"
     x2="50.0%"
     y2="100.0%" />
<filter>
    </filter>
<use id="1" style="fill:url(#acyl_gradient);filter:url(#filter1111)" xlink:href="#path-main" />
</acyl-settings>
</svg>
