<svg xmlns="http://www.w3.org/2000/svg" width="48" height="48">
<defs>
<path
   d="M 17.695652,2 C 17.033384,2 16.5,2.527703 16.5,3.171739 l 0,41.656522 C 16.5,45.472295 17.033384,46 17.695652,46 l 14.826087,0 c 0.662269,0 1.195653,-0.527705 1.195653,-1.171739 l 0,-41.656522 C 33.717392,2.527703 33.184008,2 32.521739,2 L 17.695652,2 z m 0.334783,0.382609 14.156522,0 c 0.632835,0 1.147825,0.514991 1.147825,1.147826 l 0,40.93913 c 0,0.632835 -0.51499,1.147826 -1.147825,1.147826 l -14.156522,0 c -0.632835,0 -1.147826,-0.514991 -1.147826,-1.147826 l 0,-40.93913 c 0,-0.632835 0.514991,-1.147826 1.147826,-1.147826 z m -0.765218,11.095652 0,10.330434 15.686957,0 0,-10.330434 -15.686957,0 z m 0,10.713044 0,10.330434 15.686957,0 0,-10.330434 -15.686957,0 z m 0,10.713043 0,9.565217 c 0,0.42087 0.344348,0.765218 0.765218,0.765218 l 14.156522,0 c 0.420869,0 0.765217,-0.344348 0.765217,-0.765218 l 0,-9.565217 -15.686957,0 z"
   id="path-main"
    />
</defs>
<acyl-settings>
<linearGradient
     id="linearGradient4321">
    <stop
       style="stop-color:#00DEFF;stop-opacity:0.0;"
       offset="1.38777878078e-16"
       id="stop1" />
    <stop
       style="stop-color:#B3DEDE;stop-opacity:1.0;"
       offset="1.38777878078e-16"
       id="stop2" />
  </linearGradient>
<linearGradient
     inkscape:collect="always"
     xlink:href="#linearGradient4321"
     id="acyl_gradient"
     x1="50.0%"
     y1="0.0%"
     x2="50.0%"
     y2="100.0%" />
<filter>
    </filter>
<use id="1" style="fill:url(#acyl_gradient);filter:url(#filter1111)" xlink:href="#path-main" />
</acyl-settings>
</svg>
