<svg xmlns="http://www.w3.org/2000/svg" width="48" height="48">
<defs>
  <path
     d="m 2,5.4999995 0,5.6718755 3.9244792,0 c 0.1859503,0 0.3776948,0.01557 0.515625,0.05729 0.2186153,0.07196 0.5041839,0.250675 0.6875,0.429687 0.045581,0.04669 0.1198247,0.185147 0.2005208,0.315104 0.1402592,0.238738 0.2578126,0.591722 0.2578125,0.859375 l 0,23.976563 c 0,0.267654 -0.1175547,0.620641 -0.2578125,0.859375 -0.064596,0.10403 -0.1266807,0.210813 -0.2005208,0.286458 -0.1833169,0.179013 -0.4688867,0.357732 -0.6875,0.429688 -0.1762797,0.05332 -0.36927,0.08594 -0.515625,0.08594 L 2,38.471354 2,44 l 44,0 0,-5.528646 -32.598958,0 c -0.146357,0 -0.339346,-0.03261 -0.515625,-0.08594 -0.218615,-0.07196 -0.504184,-0.250676 -0.6875,-0.429688 -0.07385,-0.07564 -0.135929,-0.182433 -0.200521,-0.286458 -0.140258,-0.238735 -0.257813,-0.59172 -0.257813,-0.859375 l 0,-23.976563 c 0,-0.267653 0.117554,-0.620637 0.257813,-0.859375 0.08069,-0.129954 0.154939,-0.268407 0.200521,-0.315104 0.183316,-0.179012 0.468886,-0.357731 0.6875,-0.429687 0.08678,-0.02624 0.227824,-0.04652 0.315104,-0.05729 0.02029,-0.0025 0.07199,0 0.200521,0 L 46,11.171875 l 0,-5.6718755 -44,0 z M 18.213542,16.471354 c -0.01736,0.01508 -0.04236,0.03976 -0.05729,0.05729 -0.09107,0.05622 -0.137567,0.127082 -0.171875,0.229166 -0.0078,0.04868 -0.0078,0.09455 0,0.14323 l 0,4.898437 c -0.0065,0.08462 -0.0096,0.182219 0.02865,0.257813 l 0,10.684895 c -0.0035,0.03257 -0.0035,0.05336 0,0.08594 0.05246,0.200595 0.25294,0.341766 0.458333,0.34375 l 17.015625,0 c 0.06748,-0.0016 0.140226,0.002 0.200521,-0.02865 0.05432,-0.02288 0.101433,-0.07274 0.143229,-0.114583 0.06498,-0.08375 0.08818,-0.180082 0.08594,-0.286459 l 0,-10.770833 c 0.0078,-0.04868 0.0078,-0.12319 0,-0.171875 l 0,-4.783854 c 4.37e-4,-0.03638 0.0078,-0.07971 0,-0.114583 0.0065,-0.08463 0.0096,-0.153573 -0.02865,-0.229167 -0.05565,-0.09199 -0.156747,-0.165866 -0.257813,-0.200521 -0.0482,-0.0079 -0.09503,-0.0079 -0.143229,0 l -17.072917,0 c -0.06393,-0.01406 -0.136589,-0.01406 -0.20052,0 z m 24.119791,4.354167 c -0.789272,0 -1.403646,0.399391 -1.403646,0.888021 l 0,6.072916 c 0,0.48863 0.614374,0.888022 1.403646,0.888021 l 3.666667,0 0,-7.848958 -3.666667,0 z m -23.403646,1.432291 16.127605,0 0,9.997396 -16.127605,0 0,-9.997396 z"
     id="path-main" />
</defs>
<acyl-settings>
<linearGradient
     id="linearGradient4321">
    <stop
       style="stop-color:#00DEFF;stop-opacity:0.0;"
       offset="1.38777878078e-16"
       id="stop1" />
    <stop
       style="stop-color:#B3DEDE;stop-opacity:1.0;"
       offset="1.38777878078e-16"
       id="stop2" />
  </linearGradient>
<linearGradient
     inkscape:collect="always"
     xlink:href="#linearGradient4321"
     id="acyl_gradient"
     x1="50.0%"
     y1="0.0%"
     x2="50.0%"
     y2="100.0%" />
<filter>
    </filter>
<use id="1" style="fill:url(#acyl_gradient);filter:url(#filter1111)" xlink:href="#path-main" />
</acyl-settings>
</svg>
