<svg xmlns="http://www.w3.org/2000/svg" width="48" height="48">
<defs>
  <path
     d="M 23.999999,2 C 11.849374,2 2,11.849374 2,24 2,36.15063 11.849374,46 23.999999,46 36.150625,46 46,36.15063 46,24 46,11.849374 36.150625,2 23.999999,2 z m 0,17.706897 c 2.373611,0 4.293104,1.919492 4.293104,4.293103 0,2.37361 -1.919493,4.293103 -4.293104,4.293103 -2.37361,0 -4.293103,-1.919493 -4.293103,-4.293103 0,-2.373611 1.919493,-4.293103 4.293103,-4.293103 z"
     id="path-main"
      />
</defs>
<acyl-settings>
<linearGradient
     id="linearGradient4321">
    <stop
       style="stop-color:#00DEFF;stop-opacity:0.0;"
       offset="1.38777878078e-16"
       id="stop1" />
    <stop
       style="stop-color:#B3DEDE;stop-opacity:1.0;"
       offset="1.38777878078e-16"
       id="stop2" />
  </linearGradient>
<linearGradient
     inkscape:collect="always"
     xlink:href="#linearGradient4321"
     id="acyl_gradient"
     x1="50.0%"
     y1="0.0%"
     x2="50.0%"
     y2="100.0%" />
<filter>
    </filter>
<use id="1" style="fill:url(#acyl_gradient);filter:url(#filter1111)" xlink:href="#path-main" />
</acyl-settings>
</svg>
