<svg xmlns="http://www.w3.org/2000/svg" width="48" height="48">
<defs>
<defs
     id="defs3">
    <inkscape:perspective
       sodipodi:type="inkscape:persp3d"
       inkscape:vp_x="0 : 24 : 1"
       inkscape:vp_y="0 : 1000 : 0"
       inkscape:vp_z="48 : 24 : 1"
       inkscape:persp3d-origin="24 : 16 : 1"
       id="perspective36" />
    <linearGradient
       inkscape:collect="always"
       xlink:href="#linearGradient4321"
       id="linearGradient2846"
       gradientUnits="userSpaceOnUse"
       gradientTransform="matrix(0.97853789,0,0,0.88580453,2,3.0697387)"
       x1="-11.241261"
       y1="24.289"
       x2="56.206306"
       y2="24.289" />
  </defs>
  <path
     id="path-main"
     d="m 37.029528,4.6699248 c -3.422456,10e-8 -6.555442,1.3781071 -8.81557,3.6367866 -0.140796,0.1089096 -0.210741,0.2912209 -0.174566,0.4655087 0.03618,0.1742875 0.176623,0.3052503 0.349131,0.3491315 0.17251,0.043881 0.350452,-0.00965 0.465509,-0.1454715 2.091505,-2.090164 5.004641,-3.3749378 8.175496,-3.3749379 3.170854,0 6.054899,1.2847742 8.146402,3.3749379 0.115057,0.135819 0.293,0.1893526 0.465509,0.1454715 C 45.813945,9.0774699 45.954396,8.9465077 45.99057,8.7722201 46.02674,8.5979322 45.956802,8.415621 45.816005,8.3067114 43.555877,6.0480319 40.451983,4.6699248 37.029528,4.6699248 z M 11.775682,4.9608677 C 11.033642,4.9758198 10.393705,5.3603003 10.000931,5.8336965 9.6081562,6.3070927 9.4209184,6.8516137 9.4190446,7.4338826 l -0.029094,0.9601117 -3.3167493,0 C 3.838081,8.3939943 2,10.233889 2,12.467195 L 2,40.42681 c 0,2.211357 1.779444,4.038368 3.9859181,4.073201 0.02188,3.46e-4 0.065312,0 0.087283,0 l 17.9220839,0 c 2.235122,0 4.0732,-1.839895 4.073201,-4.073201 l 0,-27.959615 c 0,-2.233306 -1.838079,-4.0732006 -4.073201,-4.0732007 l -3.171278,0 0,-1.0473946 0,-0.029094 C 20.787335,6.0724865 19.775965,4.9797436 18.46737,4.989962 l -6.662593,-0.029094 -0.02909,0 z m 0.05819,1.8620348 6.633499,0.029094 0.02909,0 c 0.221846,-0.00173 0.457565,0.2540422 0.465509,0.5236973 l 0,1.9493176 0,0.9310176 0.931017,0 4.102295,0 c 1.238225,0 2.211166,0.979689 2.211166,2.211166 l 0,27.959615 c 0,1.231478 -0.972941,2.211167 -2.211166,2.211167 l -17.9220836,0 c -0.012166,0 -0.046066,1.91e-4 -0.058189,0 C 4.79566,42.618727 3.8620347,41.646184 3.8620347,40.42681 l 0,-27.959615 c 0,-1.231477 0.972943,-2.211166 2.2111663,-2.211166 l 4.247767,0 0.901923,0 0.02909,-0.9019231 0.02909,-1.891129 c 3.31e-4,-0.1027801 0.07034,-0.3107889 0.174566,-0.4364144 0.104231,-0.1256255 0.198348,-0.2000355 0.378226,-0.20366 z m 5.033313,1.5710918 -3.72407,0.029094 0,3.6658807 -6.5462154,0 c -0.4747602,0 -0.8728287,0.263086 -0.8728287,0.931018 l 0,2.822146 18.6203471,0 0,-2.851241 c 0,-0.61479 -0.415424,-0.901923 -0.872829,-0.901923 l -6.57531,0 -0.02909,-3.694975 z m 20.162344,0.058188 c -2.380627,2.2e-6 -4.56713,0.9882575 -6.138895,2.5602977 -0.135819,0.115056 -0.189354,0.293 -0.145472,0.465508 0.04388,0.172509 0.174844,0.312957 0.349132,0.349132 0.174288,0.03617 0.356599,-0.03377 0.465508,-0.174566 1.403839,-1.404083 3.341916,-2.2693523 5.469727,-2.2693543 2.127811,0 4.036796,0.8652693 5.440633,2.2693543 0.108909,0.140796 0.29122,0.21074 0.465509,0.174566 0.174289,-0.03618 0.30525,-0.176622 0.349131,-0.349132 0.04388,-0.172509 -0.0097,-0.350452 -0.145471,-0.465508 C 41.567565,9.4404378 39.410155,8.4521828 37.029528,8.4521828 z m 0,3.7822577 c -1.342703,2e-6 -2.578251,0.570725 -3.462221,1.454715 -0.135818,0.115056 -0.189353,0.292999 -0.145471,0.465508 0.04388,0.172508 0.174844,0.312957 0.349132,0.349132 0.174286,0.03617 0.356599,-0.03377 0.465508,-0.174566 0.719915,-0.719932 1.70565,-1.16377 2.793052,-1.163772 1.087399,0 2.044042,0.44384 2.763958,1.163772 0.10891,0.140796 0.29122,0.21074 0.465509,0.174566 0.174289,-0.03617 0.305251,-0.176624 0.349131,-0.349132 0.04388,-0.172509 -0.0097,-0.350452 -0.145471,-0.465508 -0.88397,-0.88399 -2.090425,-1.454715 -3.433127,-1.454715 z m -31.3054581,5.469727 0,6.517121 18.6203471,0 0,-6.517121 -18.6203471,0 z M 30.308747,18.80975 c -0.800934,10e-7 -1.425622,0.586114 -1.425621,1.309243 l 0,22.984491 c -1e-6,0.723129 0.624687,1.338337 1.425621,1.338338 l 13.96526,0 c 0.800934,-1e-6 1.42562,-0.615209 1.42562,-1.338338 l 0,-22.984491 c 10e-7,-0.72313 -0.624685,-1.309243 -1.42562,-1.309243 l -13.96526,0 z m 1.396526,1.920223 2.123883,0 0,3.200373 -2.123883,0 0,-3.200373 z m 9.048325,0 2.123883,0 0,2.560298 -2.123883,0 0,-2.560298 z m -4.53871,1.920224 2.152978,0 0,2.560297 -2.152978,0 0,-2.560297 z m 4.53871,1.920223 2.123883,0 0,2.560298 -2.123883,0 0,-2.560298 z m -9.048325,0.640074 2.123883,0 0,12.161415 -2.123883,0 0,-12.161415 z m -25.9812031,0.872829 0,6.517122 18.6203471,0 0,-6.517122 -18.6203471,0 z m 30.4908181,0.40732 2.152978,0 0,2.560298 -2.152978,0 0,-2.560298 z m 4.53871,1.920224 2.123883,0 0,2.589392 -2.123883,0 0,-2.589392 z m -4.53871,1.920223 2.152978,0 0,2.560298 -2.152978,0 0,-2.560298 z m 4.53871,1.920223 2.123883,0 0,2.560298 -2.123883,0 0,-2.560298 z m -4.53871,1.949318 2.152978,0 0,2.531203 -2.152978,0 0,-2.531203 z m -11.812283,0.20366 -18.6494409,0.05819 0,4.596899 c 0,1.363479 0.6242473,1.920224 1.9493176,1.920223 l 14.7799003,0.02909 c 1.239251,0 1.920223,-0.666819 1.920223,-1.891129 l 0,-4.713275 z m 16.350993,1.716563 2.123883,0 0,2.531204 -2.123883,0 0,-2.531204 z m -4.53871,1.920223 2.152978,0 0,2.531204 -2.152978,0 0,-2.531204 z m -4.509615,0.610981 2.123883,0 0,3.840446 -2.123883,0 0,-3.840446 z m 9.048325,1.280148 2.123883,0 0,2.560298 -2.123883,0 0,-2.560298 z" />
  <g
     id="layer2" />
</defs>
<acyl-settings>
<linearGradient
     id="linearGradient4321">
    <stop
       style="stop-color:#00DEFF;stop-opacity:0.0;"
       offset="1.38777878078e-16"
       id="stop1" />
    <stop
       style="stop-color:#B3DEDE;stop-opacity:1.0;"
       offset="1.38777878078e-16"
       id="stop2" />
  </linearGradient>
<linearGradient
     inkscape:collect="always"
     xlink:href="#linearGradient4321"
     id="acyl_gradient"
     x1="50.0%"
     y1="0.0%"
     x2="50.0%"
     y2="100.0%" />
<filter>
    </filter>
<use id="1" style="fill:url(#acyl_gradient);filter:url(#filter1111)" xlink:href="#path-main" />
</acyl-settings>
</svg>
