<svg xmlns="http://www.w3.org/2000/svg" width="48" height="48">
<defs>
<defs
     id="defs4">
  </defs>
  <path
     id="path-main"
     d="m 10.243154,3.50286 0,14.206287 C 7.3699647,16.829397 2,17.044609 2,19.843013 c 0,1.770391 2.0229697,2.883831 4.7061978,2.776949 2.4584563,-0.09793 5.5656382,-1.309692 5.5538982,-2.396946 L 12.37702,7.2736644 c 2.082988,0.1142621 3.064254,3.0943586 6.313904,5.8462096 C 15.369042,8.9174674 16.533572,3.4584017 10.243154,3.50286 z m 18.210939,7.658534 c -7.098376,0.33536 -13.487253,5.164108 -15.40476,12.3355 -1.746463,6.531691 0.690157,13.196402 5.670823,17.187851 -0.08816,0.296721 -0.170814,0.596482 -0.263079,0.876932 -0.200341,0.608958 -0.434862,1.15949 -0.730777,1.549245 -0.295914,0.389756 -0.609289,0.607461 -1.11078,0.701545 -1.025827,0.192456 -1.974794,-0.405452 -3.069258,-1.286165 -1.094465,-0.880714 -2.229605,-2.007078 -3.7708049,-2.192328 -1.3476658,-0.16199 -2.2871511,0.160568 -2.9231042,0.58462 -0.635953,0.424052 -0.993328,0.816771 -1.2277037,0.906163 l 0.4969277,1.315396 c 0.7204579,-0.274784 1.0909635,-0.766227 1.5200141,-1.052317 0.4290507,-0.28609 0.9115768,-0.509355 1.9877109,-0.380003 0.8826001,0.106086 1.8943111,0.97806 3.0400281,1.900017 1.145717,0.921956 2.517504,1.925101 4.20927,1.607707 0.857311,-0.160838 1.535367,-0.66114 1.987711,-1.256934 0.452344,-0.595795 0.713404,-1.283719 0.935393,-1.95848 0.05255,-0.159721 0.09989,-0.281912 0.146156,-0.438466 1.494163,0.989643 3.165503,1.76883 4.998508,2.25079 8.935581,2.349471 18.121703,-2.919161 20.490961,-11.780109 2.369261,-8.860942 -2.961456,-17.966101 -11.897035,-20.315575 -0.03491,-0.0092 -0.08201,-0.02028 -0.116924,-0.02923 -1.669204,-0.427677 -3.33119,-0.603549 -4.969277,-0.526158 z m -3.186184,2.660024 c 0.455754,-0.02875 0.909951,0.01425 1.344628,0.116924 0.0138,0.0032 0.04471,-0.0033 0.05846,0 1.396863,0.343603 2.59861,1.345766 3.156952,2.776949 0.910417,2.333652 -0.248255,4.943402 -2.601562,5.846209 -2.353302,0.902808 -5.023488,-0.238685 -5.933902,-2.572332 -0.91041,-2.333644 0.277493,-4.97263 2.630795,-5.87544 0.447924,-0.171838 0.888872,-0.263565 1.344627,-0.29231 z m 11.897034,3.040029 c 0.342771,0.0028 0.689364,0.03866 1.023086,0.116924 0.01051,0.0025 0.01873,-0.0026 0.02923,0 0.934114,0.225994 1.802,0.753355 2.455407,1.549245 1.59307,1.940448 1.313715,4.792604 -0.643083,6.372367 -1.956787,1.579762 -4.837761,1.29736 -6.430829,-0.643083 -1.593063,-1.940446 -1.313712,-4.792605 0.643083,-6.372367 0.858891,-0.693395 1.894791,-1.031537 2.923104,-1.023086 z m -18.357094,6.927757 c 0.461328,-0.02517 0.917901,0.01349 1.344628,0.116924 0.02844,0.0069 0.05943,0.0218 0.08769,0.02923 1.862687,0.489716 3.279237,2.111139 3.390801,4.121577 0.138647,2.498417 -1.777503,4.656403 -4.296964,4.79389 -2.519457,0.137489 -4.684479,-1.798545 -4.823121,-4.296963 -0.138648,-2.498409 1.777501,-4.627175 4.296963,-4.764659 z m 10.464713,2.163097 c 0.116937,0.0015 0.232515,0.0044 0.350773,0.02923 0.02671,0.0058 0.06103,0.02223 0.08769,0.02923 0.975602,0.256524 1.544848,1.254108 1.286166,2.221558 -0.258673,0.967448 -1.245966,1.542685 -2.221558,1.286167 -0.975601,-0.256518 -1.574076,-1.254113 -1.315398,-2.221559 0.219297,-0.820157 0.993772,-1.355298 1.812325,-1.344628 z m 8.213922,2.776949 c 0.463322,-0.03161 0.943335,0.0057 1.403091,0.116924 0.02919,0.007 0.0586,-0.0077 0.08769,0 0.452103,0.118888 0.872152,0.319524 1.286165,0.584621 2.119782,1.357305 2.742603,4.153369 1.373859,6.255442 -1.368733,2.102077 -4.19413,2.731165 -6.313904,1.373859 -2.119782,-1.357303 -2.742597,-4.182603 -1.373859,-6.284674 0.813147,-1.248812 2.146989,-1.951352 3.536955,-2.046172 z m -10.669329,4.267732 c 0.299162,0.01209 0.604695,0.0437 0.906162,0.116924 0.0095,0.0024 0.01978,-0.0024 0.02923,0 0.01906,0.0047 0.03941,0.02423 0.05846,0.02923 2.438987,0.641296 3.891347,3.135271 3.244645,5.553898 -0.646692,2.418617 -3.173367,3.856713 -5.61236,3.215414 -2.438998,-0.641298 -3.891344,-3.135278 -3.244645,-5.553897 0.559244,-2.091556 2.524364,-3.446178 4.618505,-3.36157 z" />
</defs>
<acyl-settings>
<linearGradient
     id="linearGradient4321">
    <stop
       style="stop-color:#00DEFF;stop-opacity:0.0;"
       offset="1.38777878078e-16"
       id="stop1" />
    <stop
       style="stop-color:#B3DEDE;stop-opacity:1.0;"
       offset="1.38777878078e-16"
       id="stop2" />
  </linearGradient>
<linearGradient
     inkscape:collect="always"
     xlink:href="#linearGradient4321"
     id="acyl_gradient"
     x1="50.0%"
     y1="0.0%"
     x2="50.0%"
     y2="100.0%" />
<filter>
    </filter>
<use id="1" style="fill:url(#acyl_gradient);filter:url(#filter1111)" xlink:href="#path-main" />
</acyl-settings>
</svg>
