<svg xmlns="http://www.w3.org/2000/svg" width="48" height="48">
<defs>
  <path
     d="m 12.90772,2.00005 -1.284369,0.290019 -0.718142,3.065913 0.124294,0.552417 0.207157,0.414313 C 10.246941,6.879021 9.369642,7.637248 8.681732,8.532379 L 8.225988,8.145687 7.715002,7.8971 4.580037,7.91091 4,9.098606 l 1.947268,2.472065 0.524796,0.248588 0.64909,0.138104 c -0.108087,0.53656 -0.165725,1.088844 -0.165725,1.657251 0,0.564004 0.05926,1.110749 0.165725,1.64344 L 6.472064,15.396158 5.947268,15.644746 4,18.116811 l 0.580037,1.201506 3.134965,0 0.510986,-0.248587 0.455744,-0.372882 c 0.68791,0.895131 1.565209,1.639548 2.554928,2.195857 l -0.207157,0.414313 -0.124294,0.552417 0.718142,3.065913 1.284369,0.303829 1.974891,-2.458254 0.124293,-0.552417 0,-0.248588 c 0.104046,0.0038 0.198846,0 0.30383,0 1.115261,0 2.175935,-0.225174 3.148775,-0.621469 l 0.04143,0.06905 0.34526,0.441934 2.844947,1.367231 1.035781,-0.842435 -0.690521,-3.065914 -0.290018,-0.359071 c 0.786939,-0.945175 1.361084,-2.070898 1.67106,-3.30069 l 0.386692,-0.01381 2.831136,-1.367232 0,-1.3258 -2.831136,-1.381043 -0.386692,0 c -0.309294,-1.233958 -0.881854,-2.352793 -1.67106,-3.30069 l 0.290018,-0.372881 0.690521,-3.052103 -1.035781,-0.842436 -2.844947,1.353421 -0.34526,0.441934 -0.02762,0.06905 c -0.97588,-0.399196 -2.043031,-0.621469 -3.162586,-0.621469 -0.104984,0 -0.199784,0.01 -0.30383,0.01381 l 0,-0.248587 L 14.88261,4.458301 12.907719,2.000046 z m 2.403014,6.587571 c 2.77061,0 5.026993,2.256382 5.026993,5.026993 0,2.770611 -2.256383,5.013182 -5.026993,5.013182 -2.770612,0 -5.013183,-2.242571 -5.013183,-5.013182 0,-2.770611 2.242571,-5.026993 5.013183,-5.026993 z m 10.123038,9.21155 -1.394853,0.497175 -0.303829,3.052103 0.207156,0.704332 0.30383,0.524796 c -0.976611,0.549728 -1.854741,1.254482 -2.61017,2.071563 l -0.428123,-0.372882 -0.635279,-0.33145 -3.052103,-0.303829 -0.759573,1.284369 1.712492,2.541118 0.621469,0.400502 0.441933,0.151914 C 19.13079,29.05579 18.86658,30.168019 18.80477,31.333383 l -0.359071,-0.01381 -0.731952,0.165725 -2.513497,1.726302 0.234777,1.46391 2.95543,0.84243 0.731953,-0.0967 0.234777,-0.0829 c 0.376858,1.10866 0.946076,2.12703 1.64344,3.03829 l -0.165725,0.12429 -0.441934,0.58004 -0.828625,2.95543 1.132455,0.96673 2.803515,-1.25675 0.497175,-0.5248 0.06905,-0.11048 c 0.990896,0.58329 2.083269,1.01749 3.245449,1.25675 l -0.02762,0.0829 0.02762,0.73195 1.270559,2.78971 1.491525,0.0276 1.339611,-2.76208 0.04143,-0.73196 -0.01381,-0.0967 c 1.168351,-0.21681 2.271548,-0.62395 3.27307,-1.1877 l 0.06905,0.11049 0.483364,0.5386 2.775895,1.3258 1.146265,-0.9391 -0.759573,-2.96924 -0.428123,-0.58004 -0.179536,-0.15192 c 0.713627,-0.8923 1.298552,-1.89024 1.698682,-2.98305 l 0.276212,0.0967 0.731952,0.11048 2.95543,-0.77338 0.276209,-1.4501 -2.485876,-1.809164 -0.704332,-0.179536 -0.414312,0 c -0.03509,-1.162249 -0.243784,-2.274227 -0.621473,-3.3145 l 0.455748,-0.151915 0.621469,-0.386692 1.781544,-2.499686 -0.731952,-1.284369 -3.052107,0.220967 -0.6629,0.317639 -0.441934,0.386692 c -0.735942,-0.838034 -1.591865,-1.565969 -2.554927,-2.140615 l 0.33145,-0.538607 0.234777,-0.690521 -0.248588,-3.052102 -1.381042,-0.524796 -2.195857,2.126804 -0.303829,0.6629 -0.110483,0.676711 c -0.583893,-0.09883 -1.183331,-0.151915 -1.795355,-0.151915 -0.513692,0 -1.010999,0.02658 -1.505336,0.09667 l -0.110478,-0.649026 -0.276209,-0.676711 -2.154425,-2.195857 z m 4.046453,6.90521 c 3.972801,0 7.195229,3.222429 7.195229,7.19523 0,3.972799 -3.222428,7.195229 -7.195229,7.195229 -3.9728,0 -7.195229,-3.22243 -7.195229,-7.195229 0,-3.972801 3.222429,-7.19523 7.195229,-7.19523 z"
     id="path-main"
      />
</defs>
<acyl-settings>
<linearGradient
     id="linearGradient4321">
    <stop
       style="stop-color:#00DEFF;stop-opacity:0.0;"
       offset="1.38777878078e-16"
       id="stop1" />
    <stop
       style="stop-color:#B3DEDE;stop-opacity:1.0;"
       offset="1.38777878078e-16"
       id="stop2" />
  </linearGradient>
<linearGradient
     inkscape:collect="always"
     xlink:href="#linearGradient4321"
     id="acyl_gradient"
     x1="50.0%"
     y1="0.0%"
     x2="50.0%"
     y2="100.0%" />
<filter>
    </filter>
<use id="1" style="fill:url(#acyl_gradient);filter:url(#filter1111)" xlink:href="#path-main" />
</acyl-settings>
</svg>
