<svg xmlns="http://www.w3.org/2000/svg" width="48" height="48">
<defs>
  <path
     d="m 2,9.751687 7.7751,0 L 20.13454,25.279799 9.7751,40.83 2,40.83 12.359437,25.279799 z m 10.359437,0 7.775103,0 20.674696,31.078313 -7.753011,0 -6.471886,-9.718876 -6.449799,9.718876 -7.775103,0 10.35944,-15.550201 z M 28.726908,18.83 46,18.83 l 0,5.168674 -13.805221,0 z m 5.190762,7.753011 12.08233,0 0,5.168675 -8.636546,0 z"
     id="path-main"
      />
</defs>
<acyl-settings>
<linearGradient
     id="linearGradient4321">
    <stop
       style="stop-color:#00DEFF;stop-opacity:0.0;"
       offset="1.38777878078e-16"
       id="stop1" />
    <stop
       style="stop-color:#B3DEDE;stop-opacity:1.0;"
       offset="1.38777878078e-16"
       id="stop2" />
  </linearGradient>
<linearGradient
     inkscape:collect="always"
     xlink:href="#linearGradient4321"
     id="acyl_gradient"
     x1="50.0%"
     y1="0.0%"
     x2="50.0%"
     y2="100.0%" />
<filter>
    </filter>
<use id="1" style="fill:url(#acyl_gradient);filter:url(#filter1111)" xlink:href="#path-main" />
</acyl-settings>
</svg>
