<svg xmlns="http://www.w3.org/2000/svg" width="48" height="48">
<defs>
<defs
     id="defs561">
  </defs>
  <path
     d="m 23.995516,2.0003879 c -1.254169,0 -2.504383,0.49712 -3.465421,1.4892719 L 3.4321085,21.131803 c -0.9419432,0.972423 -1.4132673,2.22512 -1.4319922,3.494061 -2.616e-4,0.0213 0,0.06462 0,0.08592 l 0.02864,0 c 0.3269314,1.284148 8.7664349,2.922054 9.7089069,3.895018 1.423302,1.469398 -5.4615033,2.540174 -4.0382179,4.009578 1.4233032,1.469383 8.6005079,2.826572 10.0239449,4.295977 1.423305,1.469385 -2.883952,3.055709 -1.460632,4.525095 1.423304,1.469403 6.192941,-0.367323 5.327011,3.465421 1.922075,1.984303 5.935503,1.03919 8.620593,-0.945115 1.423303,-1.469384 -2.740749,-1.337316 -1.317433,-2.806704 1.423303,-1.469404 5.020534,-1.497058 8.047796,-5.011973 -1.218502,-1.956431 -5.203776,-2.769297 -3.780459,-4.238697 1.423304,-1.469386 4.196442,-0.723404 10.167144,-3.5227 2.914651,-1.366584 2.674667,-2.407455 2.663505,-3.6659 -2.32e-4,-0.02648 0,-0.05924 0,-0.08592 l -0.02864,0 c -0.01872,-1.268942 -0.490068,-2.521639 -1.431992,-3.494061 L 27.460937,3.4896598 C 26.499902,2.4975079 25.249684,2.0003879 23.995516,2.0003879 z m -0.143199,2.2911875 c 0.557556,0.014995 1.00729,0.4688084 1.890229,1.0596742 l 8.047796,6.1575664 c 0.08833,0.05914 0.180488,0.13715 0.257759,0.200479 0.07727,0.06332 0.162918,0.133411 0.229119,0.200479 0.0662,0.06695 0.116599,0.130375 0.171839,0.200479 0.05513,0.07009 0.09915,0.127934 0.143199,0.200479 0.04417,0.07266 0.08147,0.154604 0.114559,0.229118 0.03311,0.07465 0.0639,0.153082 0.08592,0.229119 0.02214,0.07593 0.04622,0.152388 0.05728,0.229119 0.01107,0.07687 0,0.152039 0,0.229119 l -4.754214,-2.377107 -0.486878,3.723179 -2.634865,-1.288793 -4.066858,2.806705 -1.546552,-5.52749 -2.004789,4.840134 -5.584769,0.572797 0.05728,-2.577586 c 0,-0.616835 3.222314,-4.9290152 5.183811,-5.9570879 l 3.60862,-2.6635054 c 0.529756,-0.3545199 0.89698,-0.4958742 1.231514,-0.4868773 z M 16.405958,29.494638 c 2.543521,0.680992 5.376376,1.587855 7.646838,1.603831 l 0.114559,1.031034 C 22.223128,31.92261 18.091926,30.951276 17.121954,30.439752 l -0.715996,-0.945114 z m 24.830744,5.097892 c -0.179481,0.01666 -0.345017,0.0493 -0.486878,0.08592 -0.534908,0.137985 -3.129929,0.223861 -2.921264,1.947509 2.295772,0.861405 5.826292,1.494642 6.243486,-0.229118 0.365345,-1.507896 -1.578978,-1.920935 -2.835344,-1.80431 z m -28.038407,3.007183 c -0.175591,0.02582 -0.347361,0.08428 -0.515517,0.171839 -1.344906,0.700361 -2.258851,2.249074 -1.002395,2.892624 1.256576,0.643551 2.163376,-0.08929 3.264943,-0.887835 1.101689,-0.798426 1.053408,-0.952125 0.973754,-1.260153 -0.177921,0.04899 -1.491644,-1.097229 -2.720785,-0.916475 z m 23.82835,0.773276 c -1.043515,0.430821 -1.03544,1.931361 -0.200479,2.577586 0.834741,0.646356 1.873986,0.230454 2.291187,-0.200479 0.417539,-0.430823 -0.0039,-1.946286 -2.090708,-2.377107 z"
     id="path-main"
      />
</defs>
<acyl-settings>
<linearGradient
     id="linearGradient4321">
    <stop
       style="stop-color:#00DEFF;stop-opacity:0.0;"
       offset="1.38777878078e-16"
       id="stop1" />
    <stop
       style="stop-color:#B3DEDE;stop-opacity:1.0;"
       offset="1.38777878078e-16"
       id="stop2" />
  </linearGradient>
<linearGradient
     inkscape:collect="always"
     xlink:href="#linearGradient4321"
     id="acyl_gradient"
     x1="50.0%"
     y1="0.0%"
     x2="50.0%"
     y2="100.0%" />
<filter>
    </filter>
<use id="1" style="fill:url(#acyl_gradient);filter:url(#filter1111)" xlink:href="#path-main" />
</acyl-settings>
</svg>
