<svg xmlns="http://www.w3.org/2000/svg" width="48" height="48">
<defs>
  <path
     d="m 24.09375,3.90625 c -11.012293,0 -19.9999998,8.987708 -19.9999998,20 0,11.012292 8.9877088,20 19.9999998,20 11.01229,-10e-7 20.000002,-8.987706 20,-20 -2e-6,-11.012292 -8.987708,-20 -20,-20 z m 0,5.375 c 8.104859,0 14.625,6.520139 14.625,14.625 10e-7,8.104861 -6.520139,14.625 -14.625,14.625 -8.104862,10e-7 -14.6249998,-6.520138 -14.6249998,-14.625 0,-8.104861 6.5201388,-14.625 14.6249998,-14.625 z m -4.03125,6.9375 C 19.928798,16.24426 19.841352,16.363907 19.84375,16.5 l 0,15.53125 c -8.95e-4,0.100354 0.03831,0.199437 0.125,0.25 0.08669,0.05056 0.194331,0.05028 0.28125,0 L 33.75,24.5 c 0.08901,-0.04926 0.125,-0.11702 0.125,-0.21875 0,-0.10173 -0.036,-0.200734 -0.125,-0.25 L 20.25,16.25 c -0.0578,-0.03439 -0.121293,-0.04309 -0.1875,-0.03125 z"
     id="path-main" />
</defs>
<acyl-settings>
<linearGradient
     id="linearGradient4321">
    <stop
       style="stop-color:#00DEFF;stop-opacity:0.0;"
       offset="1.38777878078e-16"
       id="stop1" />
    <stop
       style="stop-color:#B3DEDE;stop-opacity:1.0;"
       offset="1.38777878078e-16"
       id="stop2" />
  </linearGradient>
<linearGradient
     inkscape:collect="always"
     xlink:href="#linearGradient4321"
     id="acyl_gradient"
     x1="50.0%"
     y1="0.0%"
     x2="50.0%"
     y2="100.0%" />
<filter>
    </filter>
<use id="1" style="fill:url(#acyl_gradient);filter:url(#filter1111)" xlink:href="#path-main" />
</acyl-settings>
</svg>
