<svg xmlns="http://www.w3.org/2000/svg" width="48" height="48">
<defs>
  <path
     d="M 36.5,5.19375 C 35.032083,5.27212 33.953372,6.319585 33.875,7.7875 l 0,7.78125 C 34.559317,15.395925 35.265362,15.2875 36,15.2875 c 0.134617,0 0.273064,-0.0061 0.40625,0 l 0,-7.5 C 36.32788,7.85042 36.562914,7.646633 36.5,7.725 l 5,0 c 0.397051,0 0.71875,-0.580063 0.71875,-1.28125 0,-0.701187 -0.321699,-1.25 -0.71875,-1.25 l -5,0 z M 3.25,9.63125 C 2.548812,9.63125 2,10.211313 2,10.9125 l 0,16.5 c 0,0.70119 0.548812,1.25 1.25,1.25 l 22.34375,0 c 0.443369,-0.540576 0.995006,-0.987273 1.625,-1.3125 l 0,-3.3125 c 0,-3.780648 2.458466,-7.003617 5.84375,-8.21875 l 0,-6.1875 -29.8125,0 z M 36,16.7875 c -3.993349,0 -7.28125,3.25665 -7.28125,7.25 l 0,4.3125 c -1.589813,0.3482 -2.75,1.74019 -2.75,3.4375 l 0,8.28125 c 0,1.96048 1.570769,3.53125 3.53125,3.53125 l 12.96875,0 C 44.429231,43.6 46,42.02923 46,40.06875 L 46,31.7875 C 46,30.09444 44.833792,28.70263 43.25,28.35 l 0,-4.3125 c 0,-3.99335 -3.256654,-7.25 -7.25,-7.25 z m 0,2.40625 c 2.686104,0 4.8125,2.15764 4.8125,4.84375 l 0,4.21875 -9.65625,0 0,-4.21875 c 0,-2.68611 2.157643,-4.84375 4.84375,-4.84375 z m -18.6875,10.125 0,3.375 1.375,0 0,-3.375 -1.375,0 z m 1.9375,0 0,3.375 1.40625,0 0,-3.375 -1.40625,0 z m 2,0 0,3.375 1.375,0 0,-3.375 -1.375,0 z m 1.96875,0 0,3.375 1.25,0 0,-0.90625 c 0,-0.429626 0.05262,-0.853754 0.15625,-1.25 l 0,-1.21875 -1.40625,0 z"
     id="path-main"
      />
</defs>
<acyl-settings>
<linearGradient
     id="linearGradient4321">
    <stop
       style="stop-color:#00DEFF;stop-opacity:0.0;"
       offset="1.38777878078e-16"
       id="stop1" />
    <stop
       style="stop-color:#B3DEDE;stop-opacity:1.0;"
       offset="1.38777878078e-16"
       id="stop2" />
  </linearGradient>
<linearGradient
     inkscape:collect="always"
     xlink:href="#linearGradient4321"
     id="acyl_gradient"
     x1="50.0%"
     y1="0.0%"
     x2="50.0%"
     y2="100.0%" />
<filter>
    </filter>
<use id="1" style="fill:url(#acyl_gradient);filter:url(#filter1111)" xlink:href="#path-main" />
</acyl-settings>
</svg>
