<svg xmlns="http://www.w3.org/2000/svg" width="48" height="48">
<defs>
    <path
         d="M 40.90625 2.875 C 39.967294 2.875 39.17887 3.6198143 39.09375 4.53125 L 39.09375 4.65625 L 38.9375 4.6875 L 10.375 10.6875 L 10.28125 10.71875 L 10.1875 10.625 C 10.013996 10.441382 9.809973 10.34375 9.53125 10.34375 C 9.000479 10.34375 8.5625 10.757543 8.5625 11.28125 L 8.5625 13.59375 C 8.5625 13.60504 8.58927 13.60909 8.59375 13.625 C 8.59825 13.64091 8.58575 13.67117 8.59375 13.71875 L 8.625 13.90625 L 8.46875 13.9375 C 8.140671 14.03104 7.86817 14.171468 7.6875 14.3125 C 7.50683 14.453532 7.40625 14.583395 7.40625 14.71875 C 7.40625 14.923982 7.615693 15.151597 8 15.34375 C 8.384307 15.535903 8.927107 15.6875 9.53125 15.6875 C 10.135394 15.6875 10.686612 15.535255 11.0625 15.34375 C 11.438388 15.152245 11.625 14.92728 11.625 14.71875 C 11.625 14.583395 11.52442 14.453532 11.34375 14.3125 C 11.16308 14.171468 10.890579 14.03104 10.5625 13.9375 L 10.40625 13.90625 L 10.4375 13.71875 C 10.4455 13.67121 10.433 13.64089 10.4375 13.625 C 10.442 13.60911 10.46875 13.60507 10.46875 13.59375 L 10.40625 12 L 10.375 11.84375 L 10.5625 11.8125 L 39.34375 5.78125 L 39.4375 5.75 L 39.53125 5.84375 C 39.862251 6.2390207 40.349858 6.5 40.90625 6.5 C 41.902395 6.5 42.71875 5.6809235 42.71875 4.6875 C 42.71875 3.6940765 41.902395 2.875 40.90625 2.875 z M 6.9375 12.5 C 6.4963984 12.5 3.5 15.487354 3.5 15.9375 L 3.5 43.0625 C 3.5 44.410559 4.5894412 45.5 5.9375 45.5 L 41.03125 45.5 C 42.379309 45.5 43.46875 44.410559 43.46875 43.0625 L 43.46875 31.5 L 45.46875 31.5 C 46.035434 31.5 46.5 31.183838 46.5 30.78125 L 46.5 21.21875 C 46.5 20.816162 46.035434 20.5 45.46875 20.5 L 43.46875 20.5 L 43.46875 16 C 43.46875 15.434647 40.499179 12.5 40.03125 12.5 L 10.90625 12.5 L 10.96875 13.59375 C 11.216864 13.691557 11.480568 13.800362 11.65625 13.9375 C 11.883324 14.114755 12.125 14.335701 12.125 14.71875 C 12.125 15.225578 11.738622 15.579481 11.28125 15.8125 C 10.824697 16.045102 10.219394 16.1875 9.53125 16.1875 C 8.843464 16.1875 8.2399105 16.04183 7.78125 15.8125 C 7.5509604 15.697356 7.344233 15.572627 7.1875 15.40625 C 7.030767 15.239873 6.90625 14.991452 6.90625 14.71875 C 6.90625 14.335701 7.1479258 14.114755 7.375 13.9375 C 7.5553968 13.796681 7.805847 13.69291 8.0625 13.59375 L 8.0625 12.5 L 6.9375 12.5 z M 7 17.84375 L 40 17.84375 C 40.629079 17.84375 41.15625 18.370921 41.15625 19 L 41.15625 24 C 41.15625 24.629079 40.629079 25.15625 40 25.15625 L 7 25.15625 C 6.370921 25.15625 5.84375 24.629079 5.84375 24 L 5.84375 19 C 5.84375 18.370921 6.370921 17.84375 7 17.84375 z M 7 18.15625 C 6.5372932 18.15625 6.15625 18.537293 6.15625 19 L 6.15625 24 C 6.15625 24.462707 6.5372932 24.84375 7 24.84375 L 40 24.84375 C 40.462707 24.84375 40.84375 24.462707 40.84375 24 L 40.84375 19 C 40.84375 18.537293 40.462707 18.15625 40 18.15625 L 7 18.15625 z M 7 19 L 9 19 L 9 24 L 7 24 L 7 19 z M 10 19 L 12 19 L 12 24 L 10 24 L 10 19 z M 13 19 L 15 19 L 15 24 L 13 24 L 13 19 z M 16 19 L 18 19 L 18 24 L 16 24 L 16 19 z M 19 19 L 21 19 L 21 24 L 19 24 L 19 19 z M 22 19 L 24 19 L 24 24 L 22 24 L 22 19 z M 25 19 L 27 19 L 27 23 L 28 23 L 28 24 L 25 24 L 25 19 z M 29 19 L 30 19 L 30 24 L 29 24 L 29 23 L 29 19 z M 31 19 L 33 19 L 33 24 L 31 24 L 31 19 z M 34 19 L 36 19 L 36 24 L 34 24 L 34 19 z M 37 19 L 40 19 L 40 24 L 37 24 L 37 19 z M 7.34375 26.5 L 39.65625 26.5 C 40.128986 26.5 40.5 26.871014 40.5 27.34375 L 40.5 41.65625 C 40.5 42.128986 40.128986 42.5 39.65625 42.5 L 7.34375 42.5 C 6.8710144 42.5 6.5 42.128986 6.5 41.65625 L 6.5 27.34375 C 6.5 26.871014 6.8710144 26.5 7.34375 26.5 z M 8.4375 27.28125 A 0.250025 0.250025 0 0 0 8.40625 27.3125 A 0.250025 0.250025 0 0 0 8.375 27.34375 A 0.250025 0.250025 0 0 0 8.34375 27.375 A 0.250025 0.250025 0 0 0 8.3125 27.4375 A 0.250025 0.250025 0 0 0 8.28125 27.53125 L 8.28125 28.34375 L 7.59375 28.34375 A 0.250025 0.250025 0 0 0 7.5625 28.34375 A 0.250025 0.250025 0 0 0 7.5 28.34375 A 0.250025 0.250025 0 0 0 7.46875 28.375 A 0.250025 0.250025 0 0 0 7.40625 28.4375 A 0.250025 0.250025 0 0 0 7.375 28.46875 A 0.250025 0.250025 0 0 0 7.34375 28.53125 A 0.250025 0.250025 0 0 0 7.34375 28.59375 A 0.250025 0.250025 0 0 0 7.34375 28.65625 A 0.250025 0.250025 0 0 0 7.40625 28.71875 A 0.250025 0.250025 0 0 0 7.40625 28.75 A 0.250025 0.250025 0 0 0 7.4375 28.78125 A 0.250025 0.250025 0 0 0 7.5 28.8125 A 0.250025 0.250025 0 0 0 7.59375 28.84375 L 8.28125 28.84375 L 8.28125 30.34375 L 7.53125 30.34375 A 0.250025 0.250025 0 0 0 7.46875 30.34375 A 0.250025 0.250025 0 0 0 7.4375 30.34375 A 0.250025 0.250025 0 0 0 7.40625 30.34375 A 0.250025 0.250025 0 0 0 7.375 30.375 A 0.250025 0.250025 0 0 0 7.34375 30.40625 A 0.250025 0.250025 0 0 0 7.3125 30.46875 A 0.250025 0.250025 0 0 0 7.28125 30.53125 A 0.250025 0.250025 0 0 0 7.28125 30.59375 A 0.250025 0.250025 0 0 0 7.28125 30.65625 A 0.250025 0.250025 0 0 0 7.3125 30.71875 A 0.250025 0.250025 0 0 0 7.34375 30.78125 A 0.250025 0.250025 0 0 0 7.375 30.8125 A 0.250025 0.250025 0 0 0 7.40625 30.8125 A 0.250025 0.250025 0 0 0 7.5 30.84375 A 0.250025 0.250025 0 0 0 7.53125 30.84375 L 8.28125 30.84375 L 8.28125 32.28125 L 7.53125 32.28125 A 0.250025 0.250025 0 0 0 7.46875 32.28125 A 0.250025 0.250025 0 0 0 7.4375 32.28125 A 0.250025 0.250025 0 0 0 7.40625 32.3125 A 0.250025 0.250025 0 0 0 7.375 32.34375 A 0.250025 0.250025 0 0 0 7.34375 32.375 A 0.250025 0.250025 0 0 0 7.3125 32.40625 A 0.250025 0.250025 0 0 0 7.28125 32.46875 A 0.250025 0.250025 0 0 0 7.28125 32.5 A 0.250025 0.250025 0 0 0 7.28125 32.53125 A 0.250025 0.250025 0 0 0 7.28125 32.59375 A 0.250025 0.250025 0 0 0 7.3125 32.6875 A 0.250025 0.250025 0 0 0 7.34375 32.71875 A 0.250025 0.250025 0 0 0 7.40625 32.75 A 0.250025 0.250025 0 0 0 7.5 32.78125 A 0.250025 0.250025 0 0 0 7.53125 32.78125 L 8.28125 32.78125 L 8.28125 34.28125 L 7.5625 34.28125 A 0.250025 0.250025 0 0 0 7.53125 34.28125 A 0.250025 0.250025 0 0 0 7.5 34.28125 A 0.250025 0.250025 0 0 0 7.46875 34.3125 A 0.250025 0.250025 0 0 0 7.40625 34.34375 A 0.250025 0.250025 0 0 0 7.375 34.375 A 0.250025 0.250025 0 0 0 7.34375 34.4375 A 0.250025 0.250025 0 0 0 7.3125 34.53125 A 0.250025 0.250025 0 0 0 7.3125 34.59375 A 0.250025 0.250025 0 0 0 7.34375 34.65625 A 0.250025 0.250025 0 0 0 7.375 34.71875 A 0.250025 0.250025 0 0 0 7.40625 34.75 A 0.250025 0.250025 0 0 0 7.4375 34.75 A 0.250025 0.250025 0 0 0 7.5 34.78125 A 0.250025 0.250025 0 0 0 7.5625 34.78125 L 8.28125 34.78125 L 8.28125 36.34375 L 7.53125 36.34375 A 0.250025 0.250025 0 0 0 7.46875 36.34375 A 0.250025 0.250025 0 0 0 7.4375 36.34375 A 0.250025 0.250025 0 0 0 7.40625 36.34375 A 0.250025 0.250025 0 0 0 7.375 36.375 A 0.250025 0.250025 0 0 0 7.34375 36.40625 A 0.250025 0.250025 0 0 0 7.3125 36.46875 A 0.250025 0.250025 0 0 0 7.28125 36.53125 A 0.250025 0.250025 0 0 0 7.28125 36.59375 A 0.250025 0.250025 0 0 0 7.28125 36.65625 A 0.250025 0.250025 0 0 0 7.3125 36.71875 A 0.250025 0.250025 0 0 0 7.34375 36.78125 A 0.250025 0.250025 0 0 0 7.375 36.8125 A 0.250025 0.250025 0 0 0 7.40625 36.8125 A 0.250025 0.250025 0 0 0 7.5 36.84375 A 0.250025 0.250025 0 0 0 7.53125 36.84375 L 8.28125 36.84375 L 8.28125 38.28125 L 7.625 38.28125 A 0.250025 0.250025 0 0 0 7.5625 38.28125 A 0.250025 0.250025 0 0 0 7.53125 38.28125 A 0.250025 0.250025 0 0 0 7.5 38.3125 A 0.250025 0.250025 0 0 0 7.46875 38.34375 A 0.250025 0.250025 0 0 0 7.4375 38.375 A 0.250025 0.250025 0 0 0 7.40625 38.40625 A 0.250025 0.250025 0 0 0 7.375 38.46875 A 0.250025 0.250025 0 0 0 7.375 38.5 A 0.250025 0.250025 0 0 0 7.375 38.53125 A 0.250025 0.250025 0 0 0 7.375 38.59375 A 0.250025 0.250025 0 0 0 7.40625 38.6875 A 0.250025 0.250025 0 0 0 7.4375 38.71875 A 0.250025 0.250025 0 0 0 7.5 38.75 A 0.250025 0.250025 0 0 0 7.59375 38.78125 A 0.250025 0.250025 0 0 0 7.625 38.78125 L 8.28125 38.78125 L 8.28125 40.34375 L 7.4375 40.34375 A 0.250025 0.250025 0 0 0 7.375 40.34375 A 0.250025 0.250025 0 0 0 7.34375 40.34375 A 0.250025 0.250025 0 0 0 7.3125 40.34375 A 0.250025 0.250025 0 0 0 7.28125 40.375 A 0.250025 0.250025 0 0 0 7.25 40.40625 A 0.250025 0.250025 0 0 0 7.21875 40.46875 A 0.250025 0.250025 0 0 0 7.1875 40.53125 A 0.250025 0.250025 0 0 0 7.1875 40.59375 A 0.250025 0.250025 0 0 0 7.1875 40.65625 A 0.250025 0.250025 0 0 0 7.21875 40.71875 A 0.250025 0.250025 0 0 0 7.25 40.78125 A 0.250025 0.250025 0 0 0 7.28125 40.8125 A 0.250025 0.250025 0 0 0 7.3125 40.8125 A 0.250025 0.250025 0 0 0 7.375 40.84375 A 0.250025 0.250025 0 0 0 7.4375 40.84375 L 8.28125 40.84375 L 8.28125 41.40625 A 0.250025 0.250025 0 0 0 8.3125 41.5 A 0.250025 0.250025 0 0 0 8.375 41.5625 A 0.250025 0.250025 0 0 0 8.375 41.59375 A 0.250025 0.250025 0 0 0 8.4375 41.625 A 0.250025 0.250025 0 0 0 8.53125 41.65625 A 0.250025 0.250025 0 0 0 8.59375 41.65625 A 0.250025 0.250025 0 0 0 8.65625 41.625 A 0.250025 0.250025 0 0 0 8.6875 41.59375 A 0.250025 0.250025 0 0 0 8.71875 41.5625 A 0.250025 0.250025 0 0 0 8.75 41.53125 A 0.250025 0.250025 0 0 0 8.78125 41.46875 A 0.250025 0.250025 0 0 0 8.78125 41.40625 L 8.78125 40.84375 L 10.28125 40.84375 L 10.28125 41.40625 A 0.250025 0.250025 0 0 0 10.3125 41.5 A 0.250025 0.250025 0 0 0 10.34375 41.5625 A 0.250025 0.250025 0 0 0 10.375 41.59375 A 0.250025 0.250025 0 0 0 10.4375 41.625 A 0.250025 0.250025 0 0 0 10.5 41.625 A 0.250025 0.250025 0 0 0 10.5625 41.625 A 0.250025 0.250025 0 0 0 10.59375 41.625 A 0.250025 0.250025 0 0 0 10.6875 41.59375 A 0.250025 0.250025 0 0 0 10.71875 41.5625 A 0.250025 0.250025 0 0 0 10.75 41.53125 A 0.250025 0.250025 0 0 0 10.78125 41.46875 A 0.250025 0.250025 0 0 0 10.78125 41.4375 A 0.250025 0.250025 0 0 0 10.78125 41.40625 L 10.78125 40.84375 L 12.3125 40.84375 L 12.3125 41.40625 A 0.250025 0.250025 0 0 0 12.3125 41.46875 A 0.250025 0.250025 0 0 0 12.375 41.53125 A 0.250025 0.250025 0 0 0 12.375 41.5625 A 0.250025 0.250025 0 0 0 12.40625 41.59375 A 0.250025 0.250025 0 0 0 12.46875 41.625 A 0.250025 0.250025 0 0 0 12.53125 41.625 A 0.250025 0.250025 0 0 0 12.59375 41.625 A 0.250025 0.250025 0 0 0 12.625 41.625 A 0.250025 0.250025 0 0 0 12.6875 41.59375 A 0.250025 0.250025 0 0 0 12.71875 41.5625 A 0.250025 0.250025 0 0 0 12.75 41.53125 A 0.250025 0.250025 0 0 0 12.78125 41.46875 A 0.250025 0.250025 0 0 0 12.8125 41.40625 L 12.8125 40.84375 L 14.28125 40.84375 L 14.28125 41.40625 A 0.250025 0.250025 0 0 0 14.3125 41.5 A 0.250025 0.250025 0 0 0 14.375 41.5625 A 0.250025 0.250025 0 0 0 14.375 41.59375 A 0.250025 0.250025 0 0 0 14.4375 41.625 A 0.250025 0.250025 0 0 0 14.5 41.65625 A 0.250025 0.250025 0 0 0 14.5625 41.65625 A 0.250025 0.250025 0 0 0 14.625 41.625 A 0.250025 0.250025 0 0 0 14.6875 41.59375 A 0.250025 0.250025 0 0 0 14.71875 41.5625 A 0.250025 0.250025 0 0 0 14.75 41.53125 A 0.250025 0.250025 0 0 0 14.78125 41.46875 A 0.250025 0.250025 0 0 0 14.78125 41.40625 L 14.78125 40.84375 L 16.28125 40.84375 L 16.28125 41.40625 A 0.250025 0.250025 0 0 0 16.28125 41.46875 A 0.250025 0.250025 0 0 0 16.34375 41.53125 A 0.250025 0.250025 0 0 0 16.34375 41.5625 A 0.250025 0.250025 0 0 0 16.375 41.59375 A 0.250025 0.250025 0 0 0 16.4375 41.625 A 0.250025 0.250025 0 0 0 16.5 41.625 A 0.250025 0.250025 0 0 0 16.5625 41.625 A 0.250025 0.250025 0 0 0 16.59375 41.625 A 0.250025 0.250025 0 0 0 16.6875 41.59375 A 0.250025 0.250025 0 0 0 16.71875 41.5625 A 0.250025 0.250025 0 0 0 16.75 41.46875 A 0.250025 0.250025 0 0 0 16.78125 41.40625 L 16.78125 40.84375 L 18.28125 40.84375 L 18.28125 41.40625 A 0.250025 0.250025 0 0 0 18.3125 41.5 A 0.250025 0.250025 0 0 0 18.375 41.5625 A 0.250025 0.250025 0 0 0 18.375 41.59375 A 0.250025 0.250025 0 0 0 18.4375 41.625 A 0.250025 0.250025 0 0 0 18.53125 41.65625 A 0.250025 0.250025 0 0 0 18.5625 41.65625 A 0.250025 0.250025 0 0 0 18.65625 41.625 A 0.250025 0.250025 0 0 0 18.6875 41.59375 A 0.250025 0.250025 0 0 0 18.71875 41.5625 A 0.250025 0.250025 0 0 0 18.75 41.53125 A 0.250025 0.250025 0 0 0 18.78125 41.46875 A 0.250025 0.250025 0 0 0 18.78125 41.40625 L 18.78125 40.84375 L 20.28125 40.84375 L 20.28125 41.40625 A 0.250025 0.250025 0 0 0 20.3125 41.5 A 0.250025 0.250025 0 0 0 20.34375 41.5625 A 0.250025 0.250025 0 0 0 20.375 41.59375 A 0.250025 0.250025 0 0 0 20.4375 41.625 A 0.250025 0.250025 0 0 0 20.5 41.625 A 0.250025 0.250025 0 0 0 20.5625 41.625 A 0.250025 0.250025 0 0 0 20.59375 41.625 A 0.250025 0.250025 0 0 0 20.6875 41.59375 A 0.250025 0.250025 0 0 0 20.71875 41.5625 A 0.250025 0.250025 0 0 0 20.75 41.53125 A 0.250025 0.250025 0 0 0 20.78125 41.46875 A 0.250025 0.250025 0 0 0 20.78125 41.4375 A 0.250025 0.250025 0 0 0 20.78125 41.40625 L 20.78125 40.84375 L 22.28125 40.84375 L 22.28125 41.40625 A 0.250025 0.250025 0 0 0 22.28125 41.46875 A 0.250025 0.250025 0 0 0 22.28125 41.5 A 0.250025 0.250025 0 0 0 22.3125 41.5625 A 0.250025 0.250025 0 0 0 22.34375 41.59375 A 0.250025 0.250025 0 0 0 22.375 41.59375 A 0.250025 0.250025 0 0 0 22.4375 41.625 A 0.250025 0.250025 0 0 0 22.5 41.625 A 0.250025 0.250025 0 0 0 22.53125 41.625 A 0.250025 0.250025 0 0 0 22.59375 41.625 A 0.250025 0.250025 0 0 0 22.625 41.625 A 0.250025 0.250025 0 0 0 22.65625 41.59375 A 0.250025 0.250025 0 0 0 22.6875 41.5625 A 0.250025 0.250025 0 0 0 22.71875 41.53125 A 0.250025 0.250025 0 0 0 22.75 41.46875 A 0.250025 0.250025 0 0 0 22.78125 41.40625 L 22.78125 40.84375 L 24.28125 40.84375 L 24.28125 41.40625 A 0.250025 0.250025 0 0 0 24.3125 41.5 A 0.250025 0.250025 0 0 0 24.375 41.5625 A 0.250025 0.250025 0 0 0 24.375 41.59375 A 0.250025 0.250025 0 0 0 24.4375 41.625 A 0.250025 0.250025 0 0 0 24.5 41.625 A 0.250025 0.250025 0 0 0 24.53125 41.625 A 0.250025 0.250025 0 0 0 24.59375 41.625 A 0.250025 0.250025 0 0 0 24.625 41.625 A 0.250025 0.250025 0 0 0 24.6875 41.59375 A 0.250025 0.250025 0 0 0 24.71875 41.5625 A 0.250025 0.250025 0 0 0 24.75 41.53125 A 0.250025 0.250025 0 0 0 24.78125 41.46875 A 0.250025 0.250025 0 0 0 24.78125 41.40625 L 24.78125 40.84375 L 26.3125 40.84375 L 26.3125 41.40625 A 0.250025 0.250025 0 0 0 26.3125 41.46875 A 0.250025 0.250025 0 0 0 26.375 41.53125 A 0.250025 0.250025 0 0 0 26.375 41.5625 A 0.250025 0.250025 0 0 0 26.40625 41.59375 A 0.250025 0.250025 0 0 0 26.5 41.625 A 0.250025 0.250025 0 0 0 26.5625 41.625 A 0.250025 0.250025 0 0 0 26.625 41.625 A 0.250025 0.250025 0 0 0 26.71875 41.59375 A 0.250025 0.250025 0 0 0 26.75 41.5625 A 0.250025 0.250025 0 0 0 26.78125 41.53125 A 0.250025 0.250025 0 0 0 26.8125 41.46875 A 0.250025 0.250025 0 0 0 26.8125 41.4375 A 0.250025 0.250025 0 0 0 26.8125 41.40625 L 26.8125 40.84375 L 28.28125 40.84375 L 28.28125 41.40625 A 0.250025 0.250025 0 0 0 28.3125 41.5 A 0.250025 0.250025 0 0 0 28.375 41.5625 A 0.250025 0.250025 0 0 0 28.375 41.59375 A 0.250025 0.250025 0 0 0 28.4375 41.625 A 0.250025 0.250025 0 0 0 28.53125 41.65625 A 0.250025 0.250025 0 0 0 28.5625 41.65625 A 0.250025 0.250025 0 0 0 28.65625 41.625 A 0.250025 0.250025 0 0 0 28.6875 41.59375 A 0.250025 0.250025 0 0 0 28.71875 41.5625 A 0.250025 0.250025 0 0 0 28.75 41.53125 A 0.250025 0.250025 0 0 0 28.78125 41.46875 A 0.250025 0.250025 0 0 0 28.78125 41.40625 L 28.78125 40.84375 L 30.28125 40.84375 L 30.28125 41.40625 A 0.250025 0.250025 0 0 0 30.3125 41.5 A 0.250025 0.250025 0 0 0 30.34375 41.5625 A 0.250025 0.250025 0 0 0 30.375 41.59375 A 0.250025 0.250025 0 0 0 30.40625 41.625 A 0.250025 0.250025 0 0 0 30.46875 41.625 A 0.250025 0.250025 0 0 0 30.5 41.625 A 0.250025 0.250025 0 0 0 30.5625 41.625 A 0.250025 0.250025 0 0 0 30.59375 41.625 A 0.250025 0.250025 0 0 0 30.6875 41.59375 A 0.250025 0.250025 0 0 0 30.71875 41.5625 A 0.250025 0.250025 0 0 0 30.75 41.53125 A 0.250025 0.250025 0 0 0 30.78125 41.46875 A 0.250025 0.250025 0 0 0 30.78125 41.4375 A 0.250025 0.250025 0 0 0 30.78125 41.40625 L 30.78125 40.84375 L 32.28125 40.84375 L 32.28125 41.40625 A 0.250025 0.250025 0 0 0 32.28125 41.46875 A 0.250025 0.250025 0 0 0 32.28125 41.5 A 0.250025 0.250025 0 0 0 32.3125 41.5625 A 0.250025 0.250025 0 0 0 32.34375 41.59375 A 0.250025 0.250025 0 0 0 32.375 41.59375 A 0.250025 0.250025 0 0 0 32.4375 41.625 A 0.250025 0.250025 0 0 0 32.5 41.625 A 0.250025 0.250025 0 0 0 32.53125 41.625 A 0.250025 0.250025 0 0 0 32.59375 41.625 A 0.250025 0.250025 0 0 0 32.625 41.625 A 0.250025 0.250025 0 0 0 32.65625 41.59375 A 0.250025 0.250025 0 0 0 32.6875 41.5625 A 0.250025 0.250025 0 0 0 32.71875 41.53125 A 0.250025 0.250025 0 0 0 32.75 41.46875 A 0.250025 0.250025 0 0 0 32.78125 41.40625 L 32.78125 40.84375 L 34.28125 40.84375 L 34.28125 41.40625 A 0.250025 0.250025 0 0 0 34.3125 41.5 A 0.250025 0.250025 0 0 0 34.375 41.5625 A 0.250025 0.250025 0 0 0 34.375 41.59375 A 0.250025 0.250025 0 0 0 34.4375 41.625 A 0.250025 0.250025 0 0 0 34.5 41.625 A 0.250025 0.250025 0 0 0 34.53125 41.625 A 0.250025 0.250025 0 0 0 34.59375 41.625 A 0.250025 0.250025 0 0 0 34.625 41.625 A 0.250025 0.250025 0 0 0 34.6875 41.59375 A 0.250025 0.250025 0 0 0 34.71875 41.5625 A 0.250025 0.250025 0 0 0 34.75 41.53125 A 0.250025 0.250025 0 0 0 34.78125 41.46875 A 0.250025 0.250025 0 0 0 34.78125 41.40625 L 34.78125 40.84375 L 36.28125 40.84375 L 36.28125 41.40625 A 0.250025 0.250025 0 0 0 36.28125 41.46875 A 0.250025 0.250025 0 0 0 36.34375 41.53125 A 0.250025 0.250025 0 0 0 36.34375 41.5625 A 0.250025 0.250025 0 0 0 36.375 41.59375 A 0.250025 0.250025 0 0 0 36.40625 41.625 A 0.250025 0.250025 0 0 0 36.46875 41.65625 A 0.250025 0.250025 0 0 0 36.5 41.65625 A 0.250025 0.250025 0 0 0 36.5625 41.65625 A 0.250025 0.250025 0 0 0 36.625 41.625 A 0.250025 0.250025 0 0 0 36.6875 41.59375 A 0.250025 0.250025 0 0 0 36.71875 41.5625 A 0.250025 0.250025 0 0 0 36.75 41.53125 A 0.250025 0.250025 0 0 0 36.78125 41.46875 A 0.250025 0.250025 0 0 0 36.78125 41.4375 A 0.250025 0.250025 0 0 0 36.78125 41.40625 L 36.78125 40.84375 L 38.28125 40.84375 L 38.28125 41.40625 A 0.250025 0.250025 0 0 0 38.3125 41.5 A 0.250025 0.250025 0 0 0 38.34375 41.5625 A 0.250025 0.250025 0 0 0 38.375 41.59375 A 0.250025 0.250025 0 0 0 38.40625 41.625 A 0.250025 0.250025 0 0 0 38.46875 41.625 A 0.250025 0.250025 0 0 0 38.5 41.625 A 0.250025 0.250025 0 0 0 38.5625 41.625 A 0.250025 0.250025 0 0 0 38.59375 41.625 A 0.250025 0.250025 0 0 0 38.6875 41.59375 A 0.250025 0.250025 0 0 0 38.71875 41.5625 A 0.250025 0.250025 0 0 0 38.75 41.53125 A 0.250025 0.250025 0 0 0 38.78125 41.46875 A 0.250025 0.250025 0 0 0 38.78125 41.4375 A 0.250025 0.250025 0 0 0 38.78125 41.40625 L 38.78125 40.84375 L 39.375 40.84375 A 0.250025 0.250025 0 0 0 39.4375 40.84375 A 0.250025 0.250025 0 0 0 39.5 40.8125 A 0.250025 0.250025 0 0 0 39.5625 40.78125 A 0.250025 0.250025 0 0 0 39.59375 40.75 A 0.250025 0.250025 0 0 0 39.625 40.6875 A 0.250025 0.250025 0 0 0 39.65625 40.625 A 0.250025 0.250025 0 0 0 39.65625 40.59375 A 0.250025 0.250025 0 0 0 39.65625 40.53125 A 0.250025 0.250025 0 0 0 39.625 40.5 A 0.250025 0.250025 0 0 0 39.59375 40.4375 A 0.250025 0.250025 0 0 0 39.5625 40.375 A 0.250025 0.250025 0 0 0 39.53125 40.375 A 0.250025 0.250025 0 0 0 39.46875 40.34375 A 0.250025 0.250025 0 0 0 39.40625 40.34375 A 0.250025 0.250025 0 0 0 39.375 40.34375 L 38.78125 40.34375 L 38.78125 38.78125 L 39.59375 38.78125 A 0.250025 0.250025 0 0 0 39.65625 38.78125 A 0.250025 0.250025 0 0 0 39.71875 38.75 A 0.250025 0.250025 0 0 0 39.75 38.71875 A 0.250025 0.250025 0 0 0 39.78125 38.6875 A 0.250025 0.250025 0 0 0 39.8125 38.625 A 0.250025 0.250025 0 0 0 39.84375 38.5625 A 0.250025 0.250025 0 0 0 39.84375 38.5 A 0.250025 0.250025 0 0 0 39.8125 38.46875 A 0.250025 0.250025 0 0 0 39.78125 38.375 A 0.250025 0.250025 0 0 0 39.75 38.34375 A 0.250025 0.250025 0 0 0 39.65625 38.3125 A 0.250025 0.250025 0 0 0 39.59375 38.28125 L 38.78125 38.28125 L 38.78125 36.84375 L 39.46875 36.84375 A 0.250025 0.250025 0 0 0 39.53125 36.84375 A 0.250025 0.250025 0 0 0 39.59375 36.8125 A 0.250025 0.250025 0 0 0 39.65625 36.78125 A 0.250025 0.250025 0 0 0 39.6875 36.75 A 0.250025 0.250025 0 0 0 39.71875 36.6875 A 0.250025 0.250025 0 0 0 39.75 36.625 A 0.250025 0.250025 0 0 0 39.75 36.59375 A 0.250025 0.250025 0 0 0 39.75 36.53125 A 0.250025 0.250025 0 0 0 39.71875 36.5 A 0.250025 0.250025 0 0 0 39.6875 36.4375 A 0.250025 0.250025 0 0 0 39.65625 36.375 A 0.250025 0.250025 0 0 0 39.625 36.375 A 0.250025 0.250025 0 0 0 39.5625 36.34375 A 0.250025 0.250025 0 0 0 39.5 36.34375 A 0.250025 0.250025 0 0 0 39.46875 36.34375 L 38.78125 36.34375 L 38.78125 34.78125 L 39.53125 34.78125 A 0.250025 0.250025 0 0 0 39.59375 34.78125 A 0.250025 0.250025 0 0 0 39.6875 34.75 A 0.250025 0.250025 0 0 0 39.71875 34.71875 A 0.250025 0.250025 0 0 0 39.75 34.6875 A 0.250025 0.250025 0 0 0 39.78125 34.625 A 0.250025 0.250025 0 0 0 39.8125 34.5625 A 0.250025 0.250025 0 0 0 39.78125 34.5 A 0.250025 0.250025 0 0 0 39.75 34.40625 A 0.250025 0.250025 0 0 0 39.71875 34.34375 A 0.250025 0.250025 0 0 0 39.6875 34.34375 A 0.250025 0.250025 0 0 0 39.65625 34.3125 A 0.250025 0.250025 0 0 0 39.5625 34.28125 A 0.250025 0.250025 0 0 0 39.53125 34.28125 L 38.78125 34.28125 L 38.78125 32.78125 L 39.46875 32.78125 A 0.250025 0.250025 0 0 0 39.53125 32.78125 A 0.250025 0.250025 0 0 0 39.625 32.75 A 0.250025 0.250025 0 0 0 39.65625 32.71875 A 0.250025 0.250025 0 0 0 39.6875 32.6875 A 0.250025 0.250025 0 0 0 39.71875 32.625 A 0.250025 0.250025 0 0 0 39.75 32.5625 A 0.250025 0.250025 0 0 0 39.75 32.5 A 0.250025 0.250025 0 0 0 39.71875 32.46875 A 0.250025 0.250025 0 0 0 39.6875 32.40625 A 0.250025 0.250025 0 0 0 39.65625 32.375 A 0.250025 0.250025 0 0 0 39.625 32.34375 A 0.250025 0.250025 0 0 0 39.5625 32.3125 A 0.250025 0.250025 0 0 0 39.46875 32.28125 L 38.78125 32.28125 L 38.78125 30.84375 L 39.46875 30.84375 A 0.250025 0.250025 0 0 0 39.53125 30.84375 A 0.250025 0.250025 0 0 0 39.59375 30.8125 A 0.250025 0.250025 0 0 0 39.65625 30.78125 A 0.250025 0.250025 0 0 0 39.6875 30.75 A 0.250025 0.250025 0 0 0 39.71875 30.6875 A 0.250025 0.250025 0 0 0 39.75 30.625 A 0.250025 0.250025 0 0 0 39.75 30.59375 A 0.250025 0.250025 0 0 0 39.75 30.53125 A 0.250025 0.250025 0 0 0 39.71875 30.5 A 0.250025 0.250025 0 0 0 39.6875 30.4375 A 0.250025 0.250025 0 0 0 39.65625 30.375 A 0.250025 0.250025 0 0 0 39.625 30.375 A 0.250025 0.250025 0 0 0 39.5625 30.34375 A 0.250025 0.250025 0 0 0 39.5 30.34375 A 0.250025 0.250025 0 0 0 39.46875 30.34375 L 38.78125 30.34375 L 38.78125 28.84375 L 39.5625 28.84375 A 0.250025 0.250025 0 0 0 39.59375 28.84375 A 0.250025 0.250025 0 0 0 39.6875 28.8125 A 0.250025 0.250025 0 0 0 39.71875 28.78125 A 0.250025 0.250025 0 0 0 39.75 28.75 A 0.250025 0.250025 0 0 0 39.78125 28.71875 A 0.250025 0.250025 0 0 0 39.8125 28.625 A 0.250025 0.250025 0 0 0 39.8125 28.59375 A 0.250025 0.250025 0 0 0 39.8125 28.53125 A 0.250025 0.250025 0 0 0 39.78125 28.46875 A 0.250025 0.250025 0 0 0 39.75 28.4375 A 0.250025 0.250025 0 0 0 39.71875 28.40625 A 0.250025 0.250025 0 0 0 39.6875 28.375 A 0.250025 0.250025 0 0 0 39.59375 28.34375 A 0.250025 0.250025 0 0 0 39.5625 28.34375 L 38.78125 28.34375 L 38.78125 27.53125 A 0.250025 0.250025 0 0 0 38.78125 27.46875 A 0.250025 0.250025 0 0 0 38.75 27.375 A 0.250025 0.250025 0 0 0 38.71875 27.34375 A 0.250025 0.250025 0 0 0 38.6875 27.3125 A 0.250025 0.250025 0 0 0 38.625 27.28125 A 0.250025 0.250025 0 0 0 38.59375 27.28125 A 0.250025 0.250025 0 0 0 38.5625 27.28125 A 0.250025 0.250025 0 0 0 38.5 27.28125 A 0.250025 0.250025 0 0 0 38.4375 27.28125 A 0.250025 0.250025 0 0 0 38.40625 27.28125 A 0.250025 0.250025 0 0 0 38.375 27.3125 A 0.250025 0.250025 0 0 0 38.34375 27.34375 A 0.250025 0.250025 0 0 0 38.3125 27.375 A 0.250025 0.250025 0 0 0 38.28125 27.46875 A 0.250025 0.250025 0 0 0 38.28125 27.53125 L 38.28125 28.34375 L 36.78125 28.34375 L 36.78125 27.53125 A 0.250025 0.250025 0 0 0 36.75 27.4375 A 0.250025 0.250025 0 0 0 36.71875 27.375 A 0.250025 0.250025 0 0 0 36.6875 27.34375 A 0.250025 0.250025 0 0 0 36.625 27.3125 A 0.250025 0.250025 0 0 0 36.53125 27.28125 A 0.250025 0.250025 0 0 0 36.46875 27.28125 A 0.250025 0.250025 0 0 0 36.4375 27.28125 A 0.250025 0.250025 0 0 0 36.40625 27.28125 A 0.250025 0.250025 0 0 0 36.375 27.3125 A 0.250025 0.250025 0 0 0 36.34375 27.34375 A 0.250025 0.250025 0 0 0 36.3125 27.375 A 0.250025 0.250025 0 0 0 36.28125 27.46875 A 0.250025 0.250025 0 0 0 36.28125 27.53125 L 36.28125 28.34375 L 34.78125 28.34375 L 34.78125 27.53125 A 0.250025 0.250025 0 0 0 34.8125 27.46875 A 0.250025 0.250025 0 0 0 34.78125 27.4375 A 0.250025 0.250025 0 0 0 34.75 27.375 A 0.250025 0.250025 0 0 0 34.71875 27.34375 A 0.250025 0.250025 0 0 0 34.6875 27.3125 A 0.250025 0.250025 0 0 0 34.59375 27.28125 A 0.250025 0.250025 0 0 0 34.53125 27.28125 A 0.250025 0.250025 0 0 0 34.46875 27.28125 A 0.250025 0.250025 0 0 0 34.4375 27.28125 A 0.250025 0.250025 0 0 0 34.40625 27.3125 A 0.250025 0.250025 0 0 0 34.34375 27.375 A 0.250025 0.250025 0 0 0 34.3125 27.40625 A 0.250025 0.250025 0 0 0 34.28125 27.46875 A 0.250025 0.250025 0 0 0 34.28125 27.53125 L 34.28125 28.34375 L 32.78125 28.34375 L 32.78125 27.53125 A 0.250025 0.250025 0 0 0 32.75 27.4375 A 0.250025 0.250025 0 0 0 32.71875 27.375 A 0.250025 0.250025 0 0 0 32.6875 27.34375 A 0.250025 0.250025 0 0 0 32.65625 27.3125 A 0.250025 0.250025 0 0 0 32.625 27.28125 A 0.250025 0.250025 0 0 0 32.5625 27.28125 A 0.250025 0.250025 0 0 0 32.5 27.28125 A 0.250025 0.250025 0 0 0 32.4375 27.28125 A 0.250025 0.250025 0 0 0 32.40625 27.28125 A 0.250025 0.250025 0 0 0 32.375 27.28125 A 0.250025 0.250025 0 0 0 32.34375 27.3125 A 0.250025 0.250025 0 0 0 32.3125 27.375 A 0.250025 0.250025 0 0 0 32.28125 27.46875 A 0.250025 0.250025 0 0 0 32.28125 27.53125 L 32.28125 28.34375 L 30.78125 28.34375 L 30.78125 27.53125 A 0.250025 0.250025 0 0 0 30.78125 27.46875 A 0.250025 0.250025 0 0 0 30.75 27.375 A 0.250025 0.250025 0 0 0 30.71875 27.34375 A 0.250025 0.250025 0 0 0 30.6875 27.3125 A 0.250025 0.250025 0 0 0 30.625 27.28125 A 0.250025 0.250025 0 0 0 30.59375 27.28125 A 0.250025 0.250025 0 0 0 30.5625 27.28125 A 0.250025 0.250025 0 0 0 30.5 27.28125 A 0.250025 0.250025 0 0 0 30.4375 27.28125 A 0.250025 0.250025 0 0 0 30.40625 27.28125 A 0.250025 0.250025 0 0 0 30.375 27.3125 A 0.250025 0.250025 0 0 0 30.34375 27.34375 A 0.250025 0.250025 0 0 0 30.3125 27.375 A 0.250025 0.250025 0 0 0 30.28125 27.46875 A 0.250025 0.250025 0 0 0 30.28125 27.53125 L 30.28125 28.34375 L 28.78125 28.34375 L 28.78125 27.53125 A 0.250025 0.250025 0 0 0 28.8125 27.46875 A 0.250025 0.250025 0 0 0 28.78125 27.4375 A 0.250025 0.250025 0 0 0 28.75 27.375 A 0.250025 0.250025 0 0 0 28.71875 27.34375 A 0.250025 0.250025 0 0 0 28.6875 27.3125 A 0.250025 0.250025 0 0 0 28.625 27.28125 A 0.250025 0.250025 0 0 0 28.5625 27.28125 A 0.250025 0.250025 0 0 0 28.5 27.28125 A 0.250025 0.250025 0 0 0 28.4375 27.28125 A 0.250025 0.250025 0 0 0 28.40625 27.3125 A 0.250025 0.250025 0 0 0 28.375 27.34375 A 0.250025 0.250025 0 0 0 28.34375 27.375 A 0.250025 0.250025 0 0 0 28.3125 27.46875 A 0.250025 0.250025 0 0 0 28.28125 27.53125 L 28.28125 28.34375 L 26.8125 28.34375 L 26.8125 27.53125 A 0.250025 0.250025 0 0 0 26.8125 27.46875 A 0.250025 0.250025 0 0 0 26.78125 27.40625 A 0.250025 0.250025 0 0 0 26.75 27.375 A 0.250025 0.250025 0 0 0 26.71875 27.34375 A 0.250025 0.250025 0 0 0 26.6875 27.3125 A 0.250025 0.250025 0 0 0 26.59375 27.28125 A 0.250025 0.250025 0 0 0 26.53125 27.28125 A 0.250025 0.250025 0 0 0 26.46875 27.28125 A 0.250025 0.250025 0 0 0 26.4375 27.28125 A 0.250025 0.250025 0 0 0 26.40625 27.3125 A 0.250025 0.250025 0 0 0 26.375 27.34375 A 0.250025 0.250025 0 0 0 26.34375 27.375 A 0.250025 0.250025 0 0 0 26.3125 27.46875 A 0.250025 0.250025 0 0 0 26.3125 27.53125 L 26.3125 28.34375 L 24.78125 28.34375 L 24.78125 27.53125 A 0.250025 0.250025 0 0 0 24.8125 27.46875 A 0.250025 0.250025 0 0 0 24.78125 27.4375 A 0.250025 0.250025 0 0 0 24.75 27.375 A 0.250025 0.250025 0 0 0 24.71875 27.34375 A 0.250025 0.250025 0 0 0 24.6875 27.3125 A 0.250025 0.250025 0 0 0 24.59375 27.28125 A 0.250025 0.250025 0 0 0 24.53125 27.28125 A 0.250025 0.250025 0 0 0 24.46875 27.28125 A 0.250025 0.250025 0 0 0 24.4375 27.28125 A 0.250025 0.250025 0 0 0 24.40625 27.3125 A 0.250025 0.250025 0 0 0 24.34375 27.375 A 0.250025 0.250025 0 0 0 24.3125 27.40625 A 0.250025 0.250025 0 0 0 24.28125 27.46875 A 0.250025 0.250025 0 0 0 24.28125 27.53125 L 24.28125 28.34375 L 22.78125 28.34375 L 22.78125 27.53125 A 0.250025 0.250025 0 0 0 22.75 27.4375 A 0.250025 0.250025 0 0 0 22.71875 27.375 A 0.250025 0.250025 0 0 0 22.6875 27.34375 A 0.250025 0.250025 0 0 0 22.65625 27.3125 A 0.250025 0.250025 0 0 0 22.625 27.28125 A 0.250025 0.250025 0 0 0 22.5625 27.28125 A 0.250025 0.250025 0 0 0 22.5 27.28125 A 0.250025 0.250025 0 0 0 22.4375 27.28125 A 0.250025 0.250025 0 0 0 22.40625 27.28125 A 0.250025 0.250025 0 0 0 22.375 27.28125 A 0.250025 0.250025 0 0 0 22.34375 27.3125 A 0.250025 0.250025 0 0 0 22.3125 27.375 A 0.250025 0.250025 0 0 0 22.28125 27.46875 A 0.250025 0.250025 0 0 0 22.28125 27.53125 L 22.28125 28.34375 L 20.78125 28.34375 L 20.78125 27.53125 A 0.250025 0.250025 0 0 0 20.78125 27.46875 A 0.250025 0.250025 0 0 0 20.75 27.375 A 0.250025 0.250025 0 0 0 20.71875 27.34375 A 0.250025 0.250025 0 0 0 20.6875 27.3125 A 0.250025 0.250025 0 0 0 20.625 27.28125 A 0.250025 0.250025 0 0 0 20.59375 27.28125 A 0.250025 0.250025 0 0 0 20.5625 27.28125 A 0.250025 0.250025 0 0 0 20.5 27.28125 A 0.250025 0.250025 0 0 0 20.4375 27.28125 A 0.250025 0.250025 0 0 0 20.40625 27.28125 A 0.250025 0.250025 0 0 0 20.375 27.3125 A 0.250025 0.250025 0 0 0 20.34375 27.34375 A 0.250025 0.250025 0 0 0 20.3125 27.375 A 0.250025 0.250025 0 0 0 20.28125 27.46875 A 0.250025 0.250025 0 0 0 20.28125 27.53125 L 20.28125 28.34375 L 18.78125 28.34375 L 18.78125 27.53125 A 0.250025 0.250025 0 0 0 18.8125 27.46875 A 0.250025 0.250025 0 0 0 18.78125 27.4375 A 0.250025 0.250025 0 0 0 18.75 27.375 A 0.250025 0.250025 0 0 0 18.71875 27.34375 A 0.250025 0.250025 0 0 0 18.6875 27.3125 A 0.250025 0.250025 0 0 0 18.625 27.28125 A 0.250025 0.250025 0 0 0 18.5625 27.28125 A 0.250025 0.250025 0 0 0 18.5 27.28125 A 0.250025 0.250025 0 0 0 18.4375 27.28125 A 0.250025 0.250025 0 0 0 18.40625 27.3125 A 0.250025 0.250025 0 0 0 18.375 27.34375 A 0.250025 0.250025 0 0 0 18.34375 27.375 A 0.250025 0.250025 0 0 0 18.3125 27.40625 A 0.250025 0.250025 0 0 0 18.28125 27.46875 A 0.250025 0.250025 0 0 0 18.28125 27.5 A 0.250025 0.250025 0 0 0 18.28125 27.53125 L 18.28125 28.34375 L 16.78125 28.34375 L 16.78125 27.53125 A 0.250025 0.250025 0 0 0 16.75 27.4375 A 0.250025 0.250025 0 0 0 16.71875 27.375 A 0.250025 0.250025 0 0 0 16.6875 27.34375 A 0.250025 0.250025 0 0 0 16.65625 27.3125 A 0.250025 0.250025 0 0 0 16.625 27.28125 A 0.250025 0.250025 0 0 0 16.5625 27.28125 A 0.250025 0.250025 0 0 0 16.53125 27.28125 A 0.250025 0.250025 0 0 0 16.46875 27.28125 A 0.250025 0.250025 0 0 0 16.4375 27.28125 A 0.250025 0.250025 0 0 0 16.40625 27.28125 A 0.250025 0.250025 0 0 0 16.375 27.3125 A 0.250025 0.250025 0 0 0 16.34375 27.34375 A 0.250025 0.250025 0 0 0 16.3125 27.375 A 0.250025 0.250025 0 0 0 16.28125 27.46875 A 0.250025 0.250025 0 0 0 16.28125 27.53125 L 16.28125 28.34375 L 14.78125 28.34375 L 14.78125 27.53125 A 0.250025 0.250025 0 0 0 14.8125 27.46875 A 0.250025 0.250025 0 0 0 14.78125 27.4375 A 0.250025 0.250025 0 0 0 14.75 27.375 A 0.250025 0.250025 0 0 0 14.71875 27.34375 A 0.250025 0.250025 0 0 0 14.6875 27.3125 A 0.250025 0.250025 0 0 0 14.59375 27.28125 A 0.250025 0.250025 0 0 0 14.53125 27.28125 A 0.250025 0.250025 0 0 0 14.46875 27.28125 A 0.250025 0.250025 0 0 0 14.4375 27.28125 A 0.250025 0.250025 0 0 0 14.40625 27.3125 A 0.250025 0.250025 0 0 0 14.34375 27.375 A 0.250025 0.250025 0 0 0 14.3125 27.40625 A 0.250025 0.250025 0 0 0 14.28125 27.46875 A 0.250025 0.250025 0 0 0 14.28125 27.53125 L 14.28125 28.34375 L 12.8125 28.34375 L 12.8125 27.53125 A 0.250025 0.250025 0 0 0 12.78125 27.4375 A 0.250025 0.250025 0 0 0 12.75 27.375 A 0.250025 0.250025 0 0 0 12.71875 27.34375 A 0.250025 0.250025 0 0 0 12.6875 27.3125 A 0.250025 0.250025 0 0 0 12.65625 27.28125 A 0.250025 0.250025 0 0 0 12.59375 27.28125 A 0.250025 0.250025 0 0 0 12.53125 27.28125 A 0.250025 0.250025 0 0 0 12.46875 27.28125 A 0.250025 0.250025 0 0 0 12.4375 27.28125 A 0.250025 0.250025 0 0 0 12.40625 27.28125 A 0.250025 0.250025 0 0 0 12.375 27.3125 A 0.250025 0.250025 0 0 0 12.34375 27.375 A 0.250025 0.250025 0 0 0 12.3125 27.46875 A 0.250025 0.250025 0 0 0 12.3125 27.53125 L 12.3125 28.34375 L 10.78125 28.34375 L 10.78125 27.53125 A 0.250025 0.250025 0 0 0 10.78125 27.46875 A 0.250025 0.250025 0 0 0 10.75 27.375 A 0.250025 0.250025 0 0 0 10.71875 27.34375 A 0.250025 0.250025 0 0 0 10.6875 27.3125 A 0.250025 0.250025 0 0 0 10.625 27.28125 A 0.250025 0.250025 0 0 0 10.59375 27.28125 A 0.250025 0.250025 0 0 0 10.5625 27.28125 A 0.250025 0.250025 0 0 0 10.5 27.28125 A 0.250025 0.250025 0 0 0 10.4375 27.28125 A 0.250025 0.250025 0 0 0 10.40625 27.28125 A 0.250025 0.250025 0 0 0 10.375 27.3125 A 0.250025 0.250025 0 0 0 10.34375 27.34375 A 0.250025 0.250025 0 0 0 10.3125 27.375 A 0.250025 0.250025 0 0 0 10.28125 27.4375 A 0.250025 0.250025 0 0 0 10.28125 27.5 A 0.250025 0.250025 0 0 0 10.28125 27.53125 L 10.28125 28.34375 L 8.78125 28.34375 L 8.78125 27.53125 A 0.250025 0.250025 0 0 0 8.8125 27.46875 A 0.250025 0.250025 0 0 0 8.78125 27.4375 A 0.250025 0.250025 0 0 0 8.75 27.375 A 0.250025 0.250025 0 0 0 8.71875 27.34375 A 0.250025 0.250025 0 0 0 8.6875 27.3125 A 0.250025 0.250025 0 0 0 8.625 27.28125 A 0.250025 0.250025 0 0 0 8.5625 27.28125 A 0.250025 0.250025 0 0 0 8.5 27.28125 A 0.250025 0.250025 0 0 0 8.4375 27.28125 z M 8.78125 28.84375 L 10.28125 28.84375 L 10.28125 30.34375 L 8.78125 30.34375 L 8.78125 28.84375 z M 10.78125 28.84375 L 12.3125 28.84375 L 12.3125 30.34375 L 10.78125 30.34375 L 10.78125 28.84375 z M 12.8125 28.84375 L 14.28125 28.84375 L 14.28125 30.34375 L 12.8125 30.34375 L 12.8125 28.84375 z M 14.78125 28.84375 L 16.28125 28.84375 L 16.28125 30.34375 L 14.78125 30.34375 L 14.78125 28.84375 z M 16.78125 28.84375 L 18.28125 28.84375 L 18.28125 30.34375 L 16.78125 30.34375 L 16.78125 28.84375 z M 18.78125 28.84375 L 20.28125 28.84375 L 20.28125 30.34375 L 18.78125 30.34375 L 18.78125 28.84375 z M 20.78125 28.84375 L 22.28125 28.84375 L 22.28125 30.34375 L 20.78125 30.34375 L 20.78125 28.84375 z M 22.78125 28.84375 L 24.28125 28.84375 L 24.28125 30.34375 L 22.78125 30.34375 L 22.78125 28.84375 z M 24.78125 28.84375 L 26.3125 28.84375 L 26.3125 30.34375 L 24.78125 30.34375 L 24.78125 28.84375 z M 26.8125 28.84375 L 28.28125 28.84375 L 28.28125 30.34375 L 26.8125 30.34375 L 26.8125 28.84375 z M 28.78125 28.84375 L 30.28125 28.84375 L 30.28125 30.34375 L 28.78125 30.34375 L 28.78125 28.84375 z M 30.78125 28.84375 L 32.28125 28.84375 L 32.28125 30.34375 L 30.78125 30.34375 L 30.78125 28.84375 z M 32.78125 28.84375 L 34.28125 28.84375 L 34.28125 30.34375 L 32.78125 30.34375 L 32.78125 28.84375 z M 34.78125 28.84375 L 36.28125 28.84375 L 36.28125 30.34375 L 34.78125 30.34375 L 34.78125 28.84375 z M 36.78125 28.84375 L 38.28125 28.84375 L 38.28125 30.34375 L 36.78125 30.34375 L 36.78125 28.84375 z M 8.78125 30.84375 L 10.28125 30.84375 L 10.28125 32.28125 L 8.78125 32.28125 L 8.78125 30.84375 z M 10.78125 30.84375 L 12.3125 30.84375 L 12.3125 32.28125 L 10.78125 32.28125 L 10.78125 30.84375 z M 12.8125 30.84375 L 14.28125 30.84375 L 14.28125 32.28125 L 12.8125 32.28125 L 12.8125 30.84375 z M 14.78125 30.84375 L 16.28125 30.84375 L 16.28125 32.28125 L 14.78125 32.28125 L 14.78125 30.84375 z M 16.78125 30.84375 L 18.28125 30.84375 L 18.28125 32.28125 L 16.78125 32.28125 L 16.78125 30.84375 z M 18.78125 30.84375 L 20.28125 30.84375 L 20.28125 32.28125 L 18.78125 32.28125 L 18.78125 30.84375 z M 20.78125 30.84375 L 22.28125 30.84375 L 22.28125 32.28125 L 20.78125 32.28125 L 20.78125 30.84375 z M 22.78125 30.84375 L 24.28125 30.84375 L 24.28125 32.28125 L 22.78125 32.28125 L 22.78125 30.84375 z M 24.78125 30.84375 L 26.3125 30.84375 L 26.3125 32.28125 L 24.78125 32.28125 L 24.78125 30.84375 z M 26.8125 30.84375 L 28.28125 30.84375 L 28.28125 32.28125 L 26.8125 32.28125 L 26.8125 30.84375 z M 28.78125 30.84375 L 30.28125 30.84375 L 30.28125 32.28125 L 28.78125 32.28125 L 28.78125 30.84375 z M 30.78125 30.84375 L 32.28125 30.84375 L 32.28125 32.28125 L 30.78125 32.28125 L 30.78125 30.84375 z M 32.78125 30.84375 L 34.28125 30.84375 L 34.28125 32.28125 L 32.78125 32.28125 L 32.78125 30.84375 z M 34.78125 30.84375 L 36.28125 30.84375 L 36.28125 32.28125 L 34.78125 32.28125 L 34.78125 30.84375 z M 36.78125 30.84375 L 38.28125 30.84375 L 38.28125 32.28125 L 36.78125 32.28125 L 36.78125 30.84375 z M 8.78125 32.78125 L 10.28125 32.78125 L 10.28125 34.28125 L 8.78125 34.28125 L 8.78125 32.78125 z M 10.78125 32.78125 L 12.3125 32.78125 L 12.3125 34.28125 L 10.78125 34.28125 L 10.78125 32.78125 z M 12.8125 32.78125 L 14.28125 32.78125 L 14.28125 34.28125 L 12.8125 34.28125 L 12.8125 32.78125 z M 14.78125 32.78125 L 16.28125 32.78125 L 16.28125 34.28125 L 14.78125 34.28125 L 14.78125 32.78125 z M 16.78125 32.78125 L 18.28125 32.78125 L 18.28125 34.28125 L 16.78125 34.28125 L 16.78125 32.78125 z M 18.78125 32.78125 L 20.28125 32.78125 L 20.28125 34.28125 L 18.78125 34.28125 L 18.78125 32.78125 z M 20.78125 32.78125 L 22.28125 32.78125 L 22.28125 34.28125 L 20.78125 34.28125 L 20.78125 32.78125 z M 22.78125 32.78125 L 24.28125 32.78125 L 24.28125 34.28125 L 22.78125 34.28125 L 22.78125 32.78125 z M 24.78125 32.78125 L 26.3125 32.78125 L 26.3125 34.28125 L 24.78125 34.28125 L 24.78125 32.78125 z M 26.8125 32.78125 L 28.28125 32.78125 L 28.28125 34.28125 L 26.8125 34.28125 L 26.8125 32.78125 z M 28.78125 32.78125 L 30.28125 32.78125 L 30.28125 34.28125 L 28.78125 34.28125 L 28.78125 32.78125 z M 30.78125 32.78125 L 32.28125 32.78125 L 32.28125 34.28125 L 30.78125 34.28125 L 30.78125 32.78125 z M 32.78125 32.78125 L 34.28125 32.78125 L 34.28125 34.28125 L 32.78125 34.28125 L 32.78125 32.78125 z M 34.78125 32.78125 L 36.28125 32.78125 L 36.28125 34.28125 L 34.78125 34.28125 L 34.78125 32.78125 z M 36.78125 32.78125 L 38.28125 32.78125 L 38.28125 34.28125 L 36.78125 34.28125 L 36.78125 32.78125 z M 8.78125 34.78125 L 10.28125 34.78125 L 10.28125 36.34375 L 8.78125 36.34375 L 8.78125 34.78125 z M 10.78125 34.78125 L 12.3125 34.78125 L 12.3125 36.34375 L 10.78125 36.34375 L 10.78125 34.78125 z M 12.8125 34.78125 L 14.28125 34.78125 L 14.28125 36.34375 L 12.8125 36.34375 L 12.8125 34.78125 z M 14.78125 34.78125 L 16.28125 34.78125 L 16.28125 36.34375 L 14.78125 36.34375 L 14.78125 34.78125 z M 16.78125 34.78125 L 18.28125 34.78125 L 18.28125 36.34375 L 16.78125 36.34375 L 16.78125 34.78125 z M 18.78125 34.78125 L 20.28125 34.78125 L 20.28125 36.34375 L 18.78125 36.34375 L 18.78125 34.78125 z M 20.78125 34.78125 L 22.28125 34.78125 L 22.28125 36.34375 L 20.78125 36.34375 L 20.78125 34.78125 z M 22.78125 34.78125 L 24.28125 34.78125 L 24.28125 36.34375 L 22.78125 36.34375 L 22.78125 34.78125 z M 24.78125 34.78125 L 26.3125 34.78125 L 26.3125 36.34375 L 24.78125 36.34375 L 24.78125 34.78125 z M 26.8125 34.78125 L 28.28125 34.78125 L 28.28125 36.34375 L 26.8125 36.34375 L 26.8125 34.78125 z M 28.78125 34.78125 L 30.28125 34.78125 L 30.28125 36.34375 L 28.78125 36.34375 L 28.78125 34.78125 z M 30.78125 34.78125 L 32.28125 34.78125 L 32.28125 36.34375 L 30.78125 36.34375 L 30.78125 34.78125 z M 32.78125 34.78125 L 34.28125 34.78125 L 34.28125 36.34375 L 32.78125 36.34375 L 32.78125 34.78125 z M 34.78125 34.78125 L 36.28125 34.78125 L 36.28125 36.34375 L 34.78125 36.34375 L 34.78125 34.78125 z M 36.78125 34.78125 L 38.28125 34.78125 L 38.28125 36.34375 L 36.78125 36.34375 L 36.78125 34.78125 z M 8.78125 36.84375 L 10.28125 36.84375 L 10.28125 38.28125 L 8.78125 38.28125 L 8.78125 36.84375 z M 10.78125 36.84375 L 12.3125 36.84375 L 12.3125 38.28125 L 10.78125 38.28125 L 10.78125 36.84375 z M 12.8125 36.84375 L 14.28125 36.84375 L 14.28125 38.28125 L 12.8125 38.28125 L 12.8125 36.84375 z M 14.78125 36.84375 L 16.28125 36.84375 L 16.28125 38.28125 L 14.78125 38.28125 L 14.78125 36.84375 z M 16.78125 36.84375 L 18.28125 36.84375 L 18.28125 38.28125 L 16.78125 38.28125 L 16.78125 36.84375 z M 18.78125 36.84375 L 20.28125 36.84375 L 20.28125 38.28125 L 18.78125 38.28125 L 18.78125 36.84375 z M 20.78125 36.84375 L 22.28125 36.84375 L 22.28125 38.28125 L 20.78125 38.28125 L 20.78125 36.84375 z M 22.78125 36.84375 L 24.28125 36.84375 L 24.28125 38.28125 L 22.78125 38.28125 L 22.78125 36.84375 z M 24.78125 36.84375 L 26.3125 36.84375 L 26.3125 38.28125 L 24.78125 38.28125 L 24.78125 36.84375 z M 26.8125 36.84375 L 28.28125 36.84375 L 28.28125 38.28125 L 26.8125 38.28125 L 26.8125 36.84375 z M 28.78125 36.84375 L 30.28125 36.84375 L 30.28125 38.28125 L 28.78125 38.28125 L 28.78125 36.84375 z M 30.78125 36.84375 L 32.28125 36.84375 L 32.28125 38.28125 L 30.78125 38.28125 L 30.78125 36.84375 z M 32.78125 36.84375 L 34.28125 36.84375 L 34.28125 38.28125 L 32.78125 38.28125 L 32.78125 36.84375 z M 34.78125 36.84375 L 36.28125 36.84375 L 36.28125 38.28125 L 34.78125 38.28125 L 34.78125 36.84375 z M 36.78125 36.84375 L 38.28125 36.84375 L 38.28125 38.28125 L 36.78125 38.28125 L 36.78125 36.84375 z M 8.78125 38.78125 L 10.28125 38.78125 L 10.28125 40.34375 L 8.78125 40.34375 L 8.78125 38.78125 z M 10.78125 38.78125 L 12.3125 38.78125 L 12.3125 40.34375 L 10.78125 40.34375 L 10.78125 38.78125 z M 12.8125 38.78125 L 14.28125 38.78125 L 14.28125 40.34375 L 12.8125 40.34375 L 12.8125 38.78125 z M 14.78125 38.78125 L 16.28125 38.78125 L 16.28125 40.34375 L 14.78125 40.34375 L 14.78125 38.78125 z M 16.78125 38.78125 L 18.28125 38.78125 L 18.28125 40.34375 L 16.78125 40.34375 L 16.78125 38.78125 z M 18.78125 38.78125 L 20.28125 38.78125 L 20.28125 40.34375 L 18.78125 40.34375 L 18.78125 38.78125 z M 20.78125 38.78125 L 22.28125 38.78125 L 22.28125 40.34375 L 20.78125 40.34375 L 20.78125 38.78125 z M 22.78125 38.78125 L 24.28125 38.78125 L 24.28125 40.34375 L 22.78125 40.34375 L 22.78125 38.78125 z M 24.78125 38.78125 L 26.3125 38.78125 L 26.3125 40.34375 L 24.78125 40.34375 L 24.78125 38.78125 z M 26.8125 38.78125 L 28.28125 38.78125 L 28.28125 40.34375 L 26.8125 40.34375 L 26.8125 38.78125 z M 28.78125 38.78125 L 30.28125 38.78125 L 30.28125 40.34375 L 28.78125 40.34375 L 28.78125 38.78125 z M 30.78125 38.78125 L 32.28125 38.78125 L 32.28125 40.34375 L 30.78125 40.34375 L 30.78125 38.78125 z M 32.78125 38.78125 L 34.28125 38.78125 L 34.28125 40.34375 L 32.78125 40.34375 L 32.78125 38.78125 z M 34.78125 38.78125 L 36.28125 38.78125 L 36.28125 40.34375 L 34.78125 40.34375 L 34.78125 38.78125 z M 36.78125 38.78125 L 38.28125 38.78125 L 38.28125 40.34375 L 36.78125 40.34375 L 36.78125 38.78125 z "
       id="path-main" />
</defs>
<acyl-settings>
<linearGradient
     id="linearGradient4321">
    <stop
       style="stop-color:#00DEFF;stop-opacity:0.0;"
       offset="1.38777878078e-16"
       id="stop1" />
    <stop
       style="stop-color:#B3DEDE;stop-opacity:1.0;"
       offset="1.38777878078e-16"
       id="stop2" />
  </linearGradient>
<linearGradient
     inkscape:collect="always"
     xlink:href="#linearGradient4321"
     id="acyl_gradient"
     x1="50.0%"
     y1="0.0%"
     x2="50.0%"
     y2="100.0%" />
<filter>
    </filter>
<use id="1" style="fill:url(#acyl_gradient);filter:url(#filter1111)" xlink:href="#path-main" />
</acyl-settings>
</svg>
