<svg xmlns="http://www.w3.org/2000/svg" width="48" height="48">
<defs>
<defs
     id="defs5">
  </defs>
  <path
     d="M 24,2 C 11.856001,2 2,11.856001 2,24 2,36.144 11.856,46.000002 24,46 36.143999,46 46,36.144 46,24 46,11.856 36.143999,2 24,2 z m 0,4.5833333 c 9.613998,2e-7 17.416667,7.8026677 17.416667,17.4166667 -10e-7,5.561681 -2.611921,10.503312 -6.67448,13.692708 L 32.364583,14.661458 28.783854,14.375 24.200521,32.278646 20.5625,14.460938 16.953125,14.546875 13.401042,37.807292 C 9.2560669,34.622596 6.5833333,29.627298 6.5833333,24 6.5833332,14.386002 14.386002,6.5833333 24,6.5833333 z m -4.984375,18.7057297 3.179687,15.583333 3.58073,0.08594 4.010416,-15.640625 1.460938,14.494792 C 29.039521,40.82562 26.586876,41.416667 24,41.416667 c -2.573228,0 -5.019925,-0.572453 -7.21875,-1.575521 l 2.234375,-14.552083 z"
     id="path-main"
      />
</defs>
<acyl-settings>
<linearGradient
     id="linearGradient4321">
    <stop
       style="stop-color:#00DEFF;stop-opacity:0.0;"
       offset="1.38777878078e-16"
       id="stop1" />
    <stop
       style="stop-color:#B3DEDE;stop-opacity:1.0;"
       offset="1.38777878078e-16"
       id="stop2" />
  </linearGradient>
<linearGradient
     inkscape:collect="always"
     xlink:href="#linearGradient4321"
     id="acyl_gradient"
     x1="50.0%"
     y1="0.0%"
     x2="50.0%"
     y2="100.0%" />
<filter>
    </filter>
<use id="1" style="fill:url(#acyl_gradient);filter:url(#filter1111)" xlink:href="#path-main" />
</acyl-settings>
</svg>
