<svg xmlns="http://www.w3.org/2000/svg" width="48" height="48">
<defs>
    <path
       d="M 18.40625,2 C 17.618842,2 17,2.6709037 17,3.5 L 17,35.5 C 17,36.329096 17.618842,37 18.40625,37 L 23,37 L 23,40.21875 C 22.432038,40.470287 21.970287,40.932038 21.71875,41.5 L 2.5,41.5 C 2.4687672,41.498534 2.4374828,41.498534 2.40625,41.5 C 1.8539653,41.525888 1.4116117,42.010215 1.4375,42.5625 C 1.4633883,43.114785 1.9477153,43.525888 2.5,43.5 L 21.71875,43.5 C 22.107168,44.377034 22.979596,45 24,45 C 25.020404,45 25.892833,44.377034 26.28125,43.5 L 45.46875,43.5 C 45.829386,43.5051 46.161943,43.311498 46.34375,43 C 46.525556,42.688502 46.525556,42.311497 46.34375,42 C 46.161943,41.688503 45.829386,41.4949 45.46875,41.5 L 26.28125,41.5 C 26.029713,40.932038 25.567962,40.470287 25,40.21875 L 25,37 L 29.59375,37 C 30.381158,37 31,36.329096 31,35.5 L 31,3.5 C 31,2.6709037 30.381158,2 29.59375,2 L 18.40625,2 z"
       id="path-main"
        />
</defs>
<acyl-settings>
<linearGradient
     id="linearGradient4321">
    <stop
       style="stop-color:#00DEFF;stop-opacity:0.0;"
       offset="1.38777878078e-16"
       id="stop1" />
    <stop
       style="stop-color:#B3DEDE;stop-opacity:1.0;"
       offset="1.38777878078e-16"
       id="stop2" />
  </linearGradient>
<linearGradient
     inkscape:collect="always"
     xlink:href="#linearGradient4321"
     id="acyl_gradient"
     x1="50.0%"
     y1="0.0%"
     x2="50.0%"
     y2="100.0%" />
<filter>
    </filter>
<use id="1" style="fill:url(#acyl_gradient);filter:url(#filter1111)" xlink:href="#path-main" />
</acyl-settings>
</svg>
