<svg xmlns="http://www.w3.org/2000/svg" width="48" height="48">
<defs>
<defs
     id="defs4291">
  </defs>
  <path
     d="M 30.90625 2 C 29.510633 2.00466 28.423528 2.00639 28 2.03125 C 26.305889 2.13069 25.459867 3.189065 25.125 4.75 C 25.08256 5.535203 25.125 18.5 25.125 18.5 C 25.124999 20.098342 26.401659 21.40625 28 21.40625 L 43.09375 21.40625 C 44.69209 21.40625 45.968749 20.098342 45.96875 18.5 C 45.968751 16.901658 46.163141 4.959408 45.75 3.875 C 45.336859 2.790591 44.330188 2.03125 43.09375 2.03125 C 42.166421 2.03125 35.093101 1.986016 30.90625 2 z M 29.03125 4.28125 L 42.03125 4.28125 C 42.959317 4.28125 43.71875 5.009431 43.71875 5.9375 L 43.71875 17.5 C 43.71875 18.428066 42.959319 19.15625 42.03125 19.15625 L 29.03125 19.15625 C 28.10318 19.156248 27.34375 18.428069 27.34375 17.5 L 27.34375 5.9375 C 27.34375 5.009431 28.103181 4.28125 29.03125 4.28125 z M 29.59375 6.5 L 29.59375 16.9375 L 41.46875 16.9375 L 41.46875 6.5 L 29.59375 6.5 z M 41.5 22.0625 C 40.949666 22.110137 40.399167 22.313787 39.9375 22.6875 C 38.706387 23.684067 38.534683 25.487637 39.53125 26.71875 C 40.527817 27.949863 42.331387 28.152817 43.5625 27.15625 C 44.793613 26.159683 44.965317 24.356113 43.96875 23.125 C 43.345896 22.355554 42.417223 21.983105 41.5 22.0625 z M 7.78125 26.59375 C 6.385633 26.59845 5.329778 26.60015 4.90625 26.625 C 3.212139 26.72444 2.334867 27.782815 2 29.34375 C 1.9792433 29.727779 1.9950449 33.074585 2 36.34375 C 2.0001106 36.416722 1.9998842 36.427088 2 36.5 C 2.005305 39.83935 2 43.09375 2 43.09375 C 1.999999 44.692092 3.307909 46 4.90625 46 L 19.96875 46 C 21.56709 46 22.843749 44.692092 22.84375 43.09375 C 22.843751 41.495408 23.069391 29.553158 22.65625 28.46875 C 22.243109 27.384341 21.205188 26.625 19.96875 26.625 C 19.041421 26.625 11.9681 26.57977 7.78125 26.59375 z M 5.90625 28.875 L 18.90625 28.875 C 19.834317 28.875 20.59375 29.603181 20.59375 30.53125 L 20.59375 42.09375 C 20.59375 43.021816 19.834319 43.75 18.90625 43.75 L 5.90625 43.75 C 4.97818 43.749998 4.21875 43.021819 4.21875 42.09375 L 4.21875 30.53125 C 4.21875 29.603181 4.978181 28.875 5.90625 28.875 z M 38.3125 30.96875 C 37.636802 31.027238 36.973084 31.291157 36.40625 31.75 C 34.894694 32.973581 34.682669 35.175944 35.90625 36.6875 C 37.129831 38.199056 39.332194 38.442331 40.84375 37.21875 C 42.355306 35.995169 42.598581 33.761556 41.375 32.25 C 40.610262 31.305277 39.438664 30.871269 38.3125 30.96875 z M 6.46875 31.09375 L 6.46875 41.53125 L 18.375 41.53125 L 18.375 31.09375 L 6.46875 31.09375 z M 30.46875 36.53125 C 29.6508 36.602052 28.873667 36.913308 28.1875 37.46875 C 26.357721 38.949927 26.050073 41.638971 27.53125 43.46875 C 29.012427 45.298529 31.701471 45.574927 33.53125 44.09375 C 35.361029 42.612573 35.637427 39.923529 34.15625 38.09375 C 33.230514 36.950138 31.832001 36.413247 30.46875 36.53125 z "
     id="path-main" />
</defs>
<acyl-settings>
<linearGradient
     id="linearGradient4321">
    <stop
       style="stop-color:#00DEFF;stop-opacity:0.0;"
       offset="1.38777878078e-16"
       id="stop1" />
    <stop
       style="stop-color:#B3DEDE;stop-opacity:1.0;"
       offset="1.38777878078e-16"
       id="stop2" />
  </linearGradient>
<linearGradient
     inkscape:collect="always"
     xlink:href="#linearGradient4321"
     id="acyl_gradient"
     x1="50.0%"
     y1="0.0%"
     x2="50.0%"
     y2="100.0%" />
<filter>
    </filter>
<use id="1" style="fill:url(#acyl_gradient);filter:url(#filter1111)" xlink:href="#path-main" />
</acyl-settings>
</svg>
