<svg xmlns="http://www.w3.org/2000/svg" width="48" height="48">
<defs>
<defs
     id="defs4291">
  </defs>
  <path
     id="path-main"
       d="M 27.84375 5.40625 C 26.727509 5.5321741 25.936576 6.5400088 26.0625 7.65625 C 26.188424 8.7724912 27.196259 9.5946741 28.3125 9.46875 C 29.428741 9.3428259 30.219674 8.3349912 30.09375 7.21875 C 29.967826 6.1025088 28.959991 5.2803259 27.84375 5.40625 z M 21.8125 6.75 C 21.014867 6.75 20.375 7.3898667 20.375 8.1875 C 20.375 8.9851333 21.014867 9.625 21.8125 9.625 C 22.610133 9.625 23.28125 8.9851333 23.28125 8.1875 C 23.28125 7.3898667 22.610133 6.75 21.8125 6.75 z M 35.0625 8.03125 C 33.488569 8.2088064 32.353694 9.6135692 32.53125 11.1875 C 32.708806 12.761431 34.144819 13.896306 35.71875 13.71875 C 37.292681 13.541194 38.427556 12.136431 38.25 10.5625 C 38.072444 8.9885692 36.636431 7.8536936 35.0625 8.03125 z M 16.25 8.875 C 11.681578 8.875 8.40625 11.624501 8.40625 16.09375 L 8.40625 20 L 7.125 20 C 5.8197372 20 5.15625 20.659291 5.15625 21.96875 L 5.15625 33.09375 C 5.15625 33.735598 5.8197372 35.0625 7.125 35.0625 L 26.28125 35.0625 C 27.335891 35.0563 28 33.735597 28 33.09375 L 28 21.96875 C 28 20.659291 27.336513 20 26.03125 20 L 24.71875 20 L 24.71875 16.09375 C 24.71875 11.510631 21.474674 8.875 16.90625 8.875 L 16.25 8.875 z M 16.25 12.15625 L 16.90625 12.15625 C 21.474674 12.15625 21.46875 16.06554 21.46875 17.375 L 21.46875 20 L 11.6875 20 L 11.6875 17.375 C 11.6875 16.06554 11.681578 12.15625 16.25 12.15625 z M 40 15.09375 C 38.067533 15.311753 36.688247 17.067533 36.90625 19 C 37.124253 20.932467 38.848783 22.311753 40.78125 22.09375 C 42.713717 21.875747 44.124253 20.151217 43.90625 18.21875 C 43.688247 16.286283 41.932467 14.875747 40 15.09375 z M 39.4375 25.0625 C 37.098198 25.326399 35.392351 27.441948 35.65625 29.78125 C 35.920149 32.120552 38.035698 33.795149 40.375 33.53125 C 42.714302 33.267351 44.388899 31.151802 44.125 28.8125 C 43.861101 26.473198 41.776802 24.798601 39.4375 25.0625 z "
/>
</defs>
<acyl-settings>
<linearGradient
     id="linearGradient4321">
    <stop
       style="stop-color:#00DEFF;stop-opacity:0.0;"
       offset="1.38777878078e-16"
       id="stop1" />
    <stop
       style="stop-color:#B3DEDE;stop-opacity:1.0;"
       offset="1.38777878078e-16"
       id="stop2" />
  </linearGradient>
<linearGradient
     inkscape:collect="always"
     xlink:href="#linearGradient4321"
     id="acyl_gradient"
     x1="50.0%"
     y1="0.0%"
     x2="50.0%"
     y2="100.0%" />
<filter>
    </filter>
<use id="1" style="fill:url(#acyl_gradient);filter:url(#filter1111)" xlink:href="#path-main" />
</acyl-settings>
</svg>
