<svg xmlns="http://www.w3.org/2000/svg" width="48" height="48">
<defs>
  <path
     d="M 43.4375,3 4.53125,7.3652561 C 3.1271449,7.3652561 2,8.4898911 2,9.890869 L 2,42.443207 C 2,43.844185 3.1271449,45 4.53125,45 L 43.4375,40.665924 c 1.404105,0 2.5625,-1.155815 2.5625,-2.556793 L 46,5.5567929 C 46,4.155815 44.841605,3 43.4375,3 z m -3.65625,4.5835189 c 1.116754,0 2,0.8812792 2,1.9955461 l 0,25.942093 c 0,1.114266 -0.883246,1.995546 -2,1.995546 l -31,3.461024 c -1.1167544,0 -2,-0.912459 -2,-2.026726 l 0,-25.879733 c 0,-1.114266 0.8832456,-2.026726 2,-2.026726 l 31,-3.4610241 z m -2.46875,2.9933181 -16.46875,2.30735 c -1.305758,0.192286 -2.374406,1.426912 -2.375,2.743875 l 0,19.144767 c 0,1.453016 1.324991,2.775054 2.78125,2.775054 1.456259,0 2.78125,-1.322038 2.78125,-2.775054 l 0,-16.743876 L 27,17.623608 27,33.400891 c 0,1.453016 1.324991,2.775054 2.78125,2.775054 1.456259,0 2.78125,-1.322038 2.78125,-2.775054 l 0,-16.556793 2.03125,-0.280624 0,15.621381 c 0,1.453016 1.324991,2.775054 2.78125,2.775054 1.456259,0 2.78125,-1.322038 2.78125,-2.775054 l 0,-18.801782 c 0.0172,-1.484425 -1.356292,-2.839802 -2.84375,-2.806236 z M 12.75,14.193764 c -1.643458,0 -2.75,1.280698 -2.75,2.837416 l 0,12.44098 c 0,1.453016 1.324991,2.775054 2.78125,2.775054 1.456259,0 2.78125,-1.322038 2.78125,-2.775054 l 0,-12.44098 c 0,-1.500604 -1.169042,-2.837416 -2.8125,-2.837416 z m 0.0625,19.45657 c -1.53578,0 -2.78125,1.242696 -2.78125,2.775056 0,1.532359 1.24547,2.775055 2.78125,2.775055 1.53578,0 2.78125,-1.242696 2.78125,-2.775055 0,-1.53236 -1.24547,-2.775056 -2.78125,-2.775056 z"
     id="path-main" />
</defs>
<acyl-settings>
<linearGradient
     id="linearGradient4321">
    <stop
       style="stop-color:#00DEFF;stop-opacity:0.0;"
       offset="1.38777878078e-16"
       id="stop1" />
    <stop
       style="stop-color:#B3DEDE;stop-opacity:1.0;"
       offset="1.38777878078e-16"
       id="stop2" />
  </linearGradient>
<linearGradient
     inkscape:collect="always"
     xlink:href="#linearGradient4321"
     id="acyl_gradient"
     x1="50.0%"
     y1="0.0%"
     x2="50.0%"
     y2="100.0%" />
<filter>
    </filter>
<use id="1" style="fill:url(#acyl_gradient);filter:url(#filter1111)" xlink:href="#path-main" />
</acyl-settings>
</svg>
