<svg xmlns="http://www.w3.org/2000/svg" width="48" height="48">
<defs>
<defs
     id="defs4">
  </defs>
  <path
     id="path-main"
     d="M 6.0677083,2 C 3.8513505,2 2,3.8513528 2,6.0677083 L 2,20.447917 C 2,21.983003 2.8946825,23.317416 4.1770833,24 2.8946825,24.682584 2,26.016997 2,27.552083 L 2,41.932292 C 2,44.148647 3.8513491,46.000003 6.0677083,46 L 20.447917,46 C 21.983005,46 23.317417,45.105318 24,43.822917 24.682583,45.105318 26.016994,46.000002 27.552083,46 l 14.380209,0 C 44.14865,46 46,44.148647 46,41.932292 L 46,27.552083 C 46,26.016997 45.105318,24.682584 43.822917,24 45.105318,23.317416 46,21.983003 46,20.447917 L 46,6.0677083 C 46,3.8513528 44.14865,2 41.932292,2 L 27.552083,2 C 26.016995,2 24.682583,2.8946826 24,4.1770833 23.317417,2.8946826 21.983005,2 20.447917,2 L 6.0677083,2 z M 13,4.75 c 2.499265,1.61e-5 4.519228,0.7360041 6.015625,2.234375 C 20.51199,8.475672 21.249983,10.48613 21.25,13 c -1.8e-5,2.506785 -0.738009,4.517242 -2.234375,6.015625 C 17.519228,20.506911 15.499265,21.25 13,21.25 10.492757,21.25 8.4887118,20.506911 6.984375,19.015625 5.4879902,17.524344 4.7499986,15.513886 4.75,13 4.7499986,10.48613 5.4879905,8.475672 6.984375,6.984375 8.4887116,5.486004 10.492756,4.7500162 13,4.75 z m 14.552083,0.9166667 14.380209,0 c 0.248443,0 0.401041,0.1525901 0.401041,0.4010416 l 0,14.3802087 c 0,0.248449 -0.1526,0.372396 -0.401041,0.372396 l -14.380209,0 c -0.248443,0 -0.372396,-0.123945 -0.372396,-0.372396 l 0,-14.3802087 c 0,-0.2484515 0.123955,-0.4010416 0.372396,-0.4010416 z M 13,6.4973958 C 11.248906,6.4974104 9.8810803,7.080183 8.8463542,8.244792 7.8195769,9.409426 7.2994752,10.990326 7.2994792,13 c -4e-6,2.002589 0.5200975,3.59059 1.546875,4.755208 1.0347262,1.164624 2.4025518,1.747398 4.1536458,1.747396 1.751074,2e-6 3.134819,-0.582771 4.153646,-1.747396 C 18.180405,16.59059 18.700505,15.002589 18.700521,13 18.700504,10.990326 18.180404,9.409426 17.153646,8.244792 16.13482,7.0801831 14.751074,6.4974103 13,6.4973958 z M 24,22.338542 C 24.379654,23.047116 24.952884,23.620346 25.661458,24 24.952884,24.379654 24.379654,24.952884 24,25.661458 23.620346,24.952884 23.047116,24.379654 22.338542,24 23.047116,23.620346 23.620346,23.047116 24,22.338542 z m 2.75,4.411458 8.049479,0 c 2.399422,1.7e-5 4.230235,0.352611 5.528646,1.059896 1.298378,0.707315 1.947898,1.703739 1.947917,3.007812 -1.8e-5,1.00939 -0.337844,1.809476 -1.002605,2.40625 -0.664795,0.596794 -1.633883,0.969843 -2.921875,1.117188 1.547672,0.235776 2.757611,0.738084 3.609375,1.489583 0.862114,0.744147 1.289044,1.687404 1.289063,2.807292 -1.8e-5,1.473548 -0.707156,2.605774 -2.119792,3.408854 C 39.717539,42.849958 37.721747,43.25 35.114583,43.25 l -8.364583,0 0,-16.5 z m -20.6822917,0.429688 14.3802087,0 c 0.248443,0 0.372395,0.123944 0.372395,0.372395 l 0,14.380209 c 0,0.248449 -0.123954,0.401041 -0.372395,0.401041 l -14.3802087,0 c -0.24844,0 -0.4010416,-0.15259 -0.4010416,-0.401041 l 0,-14.380209 c 0,-0.248453 0.1526001,-0.372395 0.4010416,-0.372395 z m 23.8333337,1.403645 0,4.984375 4.640625,0 c 1.537285,9e-6 2.689611,-0.224973 3.4375,-0.630208 0.758248,-0.412581 1.145817,-1.022048 1.145833,-1.861979 -1.6e-5,-0.83254 -0.387586,-1.449373 -1.145833,-1.861979 -0.747888,-0.412577 -1.900213,-0.630194 -3.4375,-0.630209 l -4.640625,0 z m 0,6.789063 0,6.044271 5.041666,0 c 1.693096,2e-6 2.942391,-0.251152 3.752604,-0.744792 0.820569,-0.501002 1.231755,-1.26755 1.231771,-2.291667 -1.7e-5,-1.031475 -0.411201,-1.776744 -1.231771,-2.26302 -0.810214,-0.493629 -2.059509,-0.744784 -3.752604,-0.744792 l -5.041666,0 z" />
</defs>
<acyl-settings>
<linearGradient
     id="linearGradient4321">
    <stop
       style="stop-color:#00DEFF;stop-opacity:0.0;"
       offset="1.38777878078e-16"
       id="stop1" />
    <stop
       style="stop-color:#B3DEDE;stop-opacity:1.0;"
       offset="1.38777878078e-16"
       id="stop2" />
  </linearGradient>
<linearGradient
     inkscape:collect="always"
     xlink:href="#linearGradient4321"
     id="acyl_gradient"
     x1="50.0%"
     y1="0.0%"
     x2="50.0%"
     y2="100.0%" />
<filter>
    </filter>
<use id="1" style="fill:url(#acyl_gradient);filter:url(#filter1111)" xlink:href="#path-main" />
</acyl-settings>
</svg>
