<svg xmlns="http://www.w3.org/2000/svg" width="48" height="48">
<defs>
  <path
     d="M 32.1875 4.71875 L 31.6875 5.875 L 29.9375 9.625 L 6.59375 9.625 C 5.9888102 9.625 5.5 10.107824 5.5 10.6875 L 5.5 42.4375 C 5.5 43.017178 5.9888102 43.5 6.59375 43.5 L 36.5625 43.5 C 37.167439 43.5 37.625 43.017178 37.625 42.4375 L 37.625 24.6875 L 38.5625 25.28125 L 38.3125 24.03125 L 37.625 20.65625 L 37.625 17.21875 L 41.90625 13.5 L 42.84375 12.65625 L 41.59375 12.53125 L 37.625 12.09375 L 37.625 10.6875 C 37.625 10.107823 37.167439 9.625 36.5625 9.625 L 34.28125 9.625 L 32.6875 5.875 L 32.1875 4.71875 z M 32.125 7.5 L 34.3125 12.53125 L 34.4375 12.8125 L 34.75 12.84375 L 40.21875 13.5 L 36.0625 17.09375 L 35.8125 17.34375 L 35.90625 17.65625 L 37 23.03125 L 32.28125 20.21875 L 32 20.03125 L 31.71875 20.21875 L 26.90625 22.90625 L 28.125 17.53125 L 28.21875 17.21875 L 27.96875 17 L 23.9375 13.28125 L 29.40625 12.78125 L 29.71875 12.78125 L 29.84375 12.46875 L 32.125 7.5 z M 17.375 11.96875 L 25.75 11.96875 L 25.75 12 L 22.5625 12.28125 L 21.3125 12.40625 L 22.25 13.21875 L 22.28125 13.25 L 18.6875 13.25 L 18.6875 17.34375 C 18.178699 17.518551 17.723529 17.756733 17.28125 18 L 15 15.8125 L 11.8125 18.8125 L 14 20.875 C 13.594031 21.47447 13.276917 22.130973 13.03125 22.8125 L 9.125 22.8125 L 9.125 28.5625 L 13.03125 28.5625 C 13.241535 29.151752 13.509993 29.718258 13.84375 30.25 L 11.84375 32.21875 L 14.84375 35.21875 L 16.8125 33.21875 C 17.397805 33.572841 18.016829 33.842342 18.6875 34.0625 L 18.6875 38.125 L 24.4375 38.125 L 24.4375 34.0625 C 25.054367 33.862485 25.640822 33.597559 26.1875 33.28125 L 28.15625 35.21875 L 31.25 32.21875 L 29.28125 30.28125 C 29.621448 29.741399 29.910423 29.165761 30.125 28.5625 L 34 28.5625 L 34 22.8125 L 30.125 22.8125 C 30.082445 22.691857 30.017006 22.584405 29.96875 22.46875 L 32 21.3125 L 36.96875 24.3125 L 36.96875 26.5625 L 35.3125 26.5625 L 35.3125 29.875 L 30.90625 29.875 C 30.88579 29.91879 30.86487 29.956489 30.84375 30 L 33.125 32.1875 L 30.03125 35.25 L 37.0625 35.25 L 37.0625 41.25 C 37.0611 42.862218 37.08892 42.851082 35.09375 42.84375 L 7.40625 42.84375 C 6.261103 42.85055 6.1522755 42.819784 6.15625 41.5625 L 6.15625 35.25 L 13.03125 35.25 L 10.03125 32.21875 L 12.25 29.96875 C 12.23429 29.93594 12.23405 29.907948 12.21875 29.875 L 7.84375 29.875 L 7.84375 26.5625 L 6.15625 26.5625 L 6.15625 17.875 L 10.9375 17.875 L 15 14.03125 L 17.375 16.3125 L 17.375 11.96875 z M 24.4375 15.25 L 26.65625 17.34375 L 26 18 C 25.516518 17.731655 24.98851 17.526858 24.4375 17.34375 L 24.4375 15.25 z M 21.59375 20.65625 C 23.30354 20.65625 24.844773 21.61282 25.6875 23.125 L 25.53125 23.875 L 25.25 25.0625 L 26.25 24.5625 C 26.33026 24.921952 26.375 25.294212 26.375 25.6875 C 26.375 28.623362 24.139681 30.75 21.59375 30.75 C 19.047607 30.75 16.75 28.62058 16.75 25.6875 C 16.75 22.754418 19.047607 20.65625 21.59375 20.65625 z M 18.1875 26.5625 C 18.560402 28.322549 20.016944 29.4375 21.59375 29.4375 C 23.169821 29.4375 24.606642 28.33025 24.96875 26.5625 L 18.1875 26.5625 z "
     id="path-main" />
</defs>
<acyl-settings>
<linearGradient
     id="linearGradient4321">
    <stop
       style="stop-color:#00DEFF;stop-opacity:0.0;"
       offset="1.38777878078e-16"
       id="stop1" />
    <stop
       style="stop-color:#B3DEDE;stop-opacity:1.0;"
       offset="1.38777878078e-16"
       id="stop2" />
  </linearGradient>
<linearGradient
     inkscape:collect="always"
     xlink:href="#linearGradient4321"
     id="acyl_gradient"
     x1="50.0%"
     y1="0.0%"
     x2="50.0%"
     y2="100.0%" />
<filter>
    </filter>
<use id="1" style="fill:url(#acyl_gradient);filter:url(#filter1111)" xlink:href="#path-main" />
</acyl-settings>
</svg>
