<svg xmlns="http://www.w3.org/2000/svg" width="48" height="48">
<defs>
<defs
     id="defs7477">
  </defs>
  <g
     id="layer1"
     inkscape:label="Layer 1"
     inkscape:groupmode="layer">
    <path
         d="M 39.389755,2 33.546504,7.8113208 C 26.21284,0.3363281 15.170912,0.4134456 9.1836595,6.1509434 l -1.1175617,0 c -1.1232849,0 -2.0435414,0.9202564 -2.0435414,2.0435414 l 0,2.6502182 c -1.2648288,3.151051 -1.4907661,7.051473 -0.1596517,11.654571 0.044186,0.152798 0.1084508,0.276884 0.1596517,0.415095 l 0,7.759071 c 0,1.123284 0.9202565,2.043541 2.0435414,2.043541 l 10.2177072,0 0,11.239478 C 18.283805,45.079743 19.204061,46 20.327346,46 l 20.435414,0 c 1.123284,0 2.043541,-0.920257 2.043541,-2.043541 l 0,-22.478955 c 0,-1.123285 -0.920257,-2.043542 -2.043541,-2.043542 l -0.223513,0 L 39.389755,2 z m -31.3236572,5.1727141 0.1596516,0 C 7.7948346,7.6810702 7.3997187,8.2227544 7.0443271,8.8011611 l 0,-0.6066763 c 0,-0.574898 0.4468727,-1.0217707 1.0217707,-1.0217707 z m 8.1741652,4.7895499 c 0.68898,-0.02049 1.41921,0.08825 2.171263,0.287373 l -1.851959,0 -4.693759,12.676343 3.256894,0 0.830188,-2.298984 2.330915,0 0,9.068214 -10.2177072,0 c -0.574898,0 -1.0217707,-0.446872 -1.0217707,-1.02177 l 0,-6.130624 C 8.840047,26.125561 11.535407,24.441877 11.067549,21.988389 9.8351105,15.525398 12.436044,12.0754 16.240263,11.962264 z m 4.534108,1.213353 c 1.379929,0.750164 2.776361,1.864569 4.119013,3.320755 l -2.139333,2.107402 -1.97968,-5.428157 z m -2.267054,2.043541 1.436865,4.246735 c -0.512354,0.09745 -0.944217,0.393951 -1.245283,0.798258 l -1.94775,0 1.756168,-5.044993 z m 1.820029,5.236575 0.574746,0 -1.596517,1.596517 0,-0.574746 c 0,-0.28745 0.103793,-0.550818 0.287373,-0.734398 0.183581,-0.183581 0.446948,-0.287373 0.734398,-0.287373 z m 20.275762,0 0.159652,0 c 0.574898,0 1.02177,0.446872 1.02177,1.021771 l 0,22.478955 c 0,0.574898 -0.446872,1.02177 -1.02177,1.02177 l -20.435414,0 c -0.574898,0 -1.021771,-0.446872 -1.021771,-1.02177 l 0,-21.137881 21.521045,0.95791 -0.223512,-3.320755 z m -15.230769,5.651669 0,12.676343 5.428156,0 c 1.684982,0 2.942238,-0.29469 3.76778,-0.89405 0.82552,-0.599357 1.21334,-1.524671 1.213353,-2.746008 -1.3e-5,-0.797256 -0.190263,-1.463136 -0.574746,-2.011612 -0.384506,-0.548464 -0.927321,-0.913999 -1.628448,-1.117561 0.54846,-0.209204 0.988832,-0.528174 1.277214,-0.95791 0.288359,-0.435376 0.415083,-0.980186 0.415094,-1.596517 -1.1e-5,-1.170436 -0.389827,-2.022909 -1.181422,-2.554427 -0.785961,-0.531494 -2.073151,-0.798246 -3.83164,-0.798258 l -4.885341,0 z m 3.256894,2.235123 1.820029,0 c 0.514537,1.1e-5 0.88373,0.119417 1.149492,0.351234 0.265745,0.226183 0.415086,0.554467 0.415094,0.98984 -8e-6,0.441047 -0.149349,0.763676 -0.415094,0.989841 -0.265762,0.226181 -0.634955,0.351242 -1.149492,0.351233 l -1.820029,0 0,-2.682148 z m 0,4.885341 1.91582,0 c 0.661549,6e-6 1.172767,0.138038 1.500725,0.415095 0.327943,0.271413 0.478946,0.696817 0.478955,1.245283 -9e-6,0.559782 -0.177288,0.968224 -0.510885,1.245283 -0.327959,0.277064 -0.8129,0.415096 -1.468795,0.415094 l -1.91582,0 0,-3.320755 z"
       id="path-main" />
  </g>
</defs>
<acyl-settings>
<linearGradient
     id="linearGradient4321">
    <stop
       style="stop-color:#00DEFF;stop-opacity:0.0;"
       offset="1.38777878078e-16"
       id="stop1" />
    <stop
       style="stop-color:#B3DEDE;stop-opacity:1.0;"
       offset="1.38777878078e-16"
       id="stop2" />
  </linearGradient>
<linearGradient
     inkscape:collect="always"
     xlink:href="#linearGradient4321"
     id="acyl_gradient"
     x1="50.0%"
     y1="0.0%"
     x2="50.0%"
     y2="100.0%" />
<filter>
    </filter>
<use id="1" style="fill:url(#acyl_gradient);filter:url(#filter1111)" xlink:href="#path-main" />
</acyl-settings>
</svg>
