<svg xmlns="http://www.w3.org/2000/svg" width="48" height="48">
<defs>
<defs
     id="defs5">
  </defs>
  <path
     d="M 24,2 C 11.861011,2 2,11.861013 2,24 2,36.138988 11.861012,46 24,46 36.138986,46 46,36.138988 46,24 45.999999,11.861013 36.138987,2 24,2 z m 0,0.9166667 C 35.643011,2.9166666 45.083333,12.356987 45.083333,24 45.083335,35.643012 35.643011,45.083333 24,45.083333 12.356987,45.083332 2.9166667,35.643012 2.9166667,24 2.9166667,12.356987 12.356988,2.9166667 24,2.9166667 z M 23.3125,5.6953125 C 16.656628,5.9440506 10.391119,9.819873 7.3854167,16.265625 c -4.2747776,9.167293 -0.2870842,20.07418 8.8802083,24.348958 0.01815,0.0011 0.03914,0.0011 0.05729,0 0.08873,0.02762 0.169083,0.02762 0.257812,0 0.192929,-0.05772 0.342358,-0.228313 0.34375,-0.429687 2.02e-4,-0.07606 -0.02132,-0.16215 -0.05729,-0.229167 -0.02992,-0.04222 -0.07236,-0.05602 -0.114584,-0.08594 -0.03374,-0.02293 -0.07599,-0.04406 -0.114583,-0.05729 C 7.9202337,35.747331 4.1223292,25.355806 8.1875,16.638021 12.252669,7.9202343 22.644194,4.1223299 31.361979,8.1875 c 8.717789,4.06517 12.515692,14.456693 8.450521,23.174479 -1.813183,3.888385 -4.562138,6.637338 -8.450521,8.450521 -0.01815,-0.0011 -0.03914,-0.0011 -0.05729,0 -0.04222,0.02992 -0.08467,0.07236 -0.114583,0.114583 -0.02294,0.03374 -0.04406,0.04734 -0.05729,0.08594 -0.04592,0.083 -0.06776,0.192179 -0.05729,0.286458 0.03637,0.214517 0.240889,0.364823 0.458333,0.372396 0.07606,2.01e-4 0.133505,-0.02132 0.200521,-0.05729 4.06054,-1.893461 6.986745,-4.819667 8.880208,-8.880208 C 44.88936,22.567082 40.901667,11.660194 31.734375,7.3854167 29.442552,6.316722 27.038695,5.7805458 24.658854,5.6953125 c -0.44622,-0.015981 -0.90263,-0.016583 -1.346354,0 z M 24.229167,10.25 c -0.884774,-0.01415 -1.740015,0.07633 -2.606771,0.229167 -3.467026,0.611329 -6.704925,2.507955 -8.880208,5.614583 -4.3505707,6.213257 -2.8616968,14.813492 3.351562,19.164062 0.212614,0.145473 0.513381,0.09803 0.658854,-0.114583 0.145474,-0.212614 0.09803,-0.513381 -0.114583,-0.658854 C 10.831041,30.418283 9.4495342,22.445 13.515625,16.638021 17.581715,10.831042 25.555,9.449534 31.361979,13.515625 c 5.80698,4.06609 7.188486,12.039375 3.122396,17.846354 -0.908965,1.298135 -1.824263,2.213433 -3.122396,3.122396 -0.212614,0.145472 -0.260056,0.446241 -0.114583,0.658854 0.145473,0.212614 0.44624,0.260057 0.658854,0.114583 1.37303,-0.961407 2.390156,-1.978532 3.351562,-3.351562 C 39.60838,25.692993 38.119509,17.092757 31.90625,12.742188 29.576279,11.110723 26.88349,10.292442 24.229167,10.25 z M 24,16.666667 c -2.024001,0 -3.666667,1.642978 -3.666667,3.666666 0,2.02369 1.642667,3.666668 3.666667,3.666667 2.024001,0 3.666667,-1.642977 3.666667,-3.666667 0,-2.023689 -1.642666,-3.666667 -3.666667,-3.666666 z m -0.02865,9.166666 c -1.009094,-0.0125 -2.030137,0.2102 -2.864583,0.716146 -0.834446,0.505946 -1.474632,1.316061 -1.690104,2.377604 -0.390763,1.925127 -0.670745,5.268211 -0.401042,8.192709 0.134851,1.462249 0.384777,2.825007 0.888021,3.867187 0.503243,1.04218 1.327622,1.804689 2.434896,1.804688 l 3.322916,0 c 1.111182,0 1.952091,-0.778063 2.463542,-1.833334 0.511451,-1.05527 0.774668,-2.421581 0.916667,-3.895833 0.283998,-2.948503 -0.0034,-6.307923 -0.458334,-8.164063 -0.2492,-1.016741 -0.905847,-1.784381 -1.747396,-2.291666 -0.841548,-0.507285 -1.855489,-0.760943 -2.864583,-0.773438 z"
     id="path-main"
      />
</defs>
<acyl-settings>
<linearGradient
     id="linearGradient4321">
    <stop
       style="stop-color:#00DEFF;stop-opacity:0.0;"
       offset="1.38777878078e-16"
       id="stop1" />
    <stop
       style="stop-color:#B3DEDE;stop-opacity:1.0;"
       offset="1.38777878078e-16"
       id="stop2" />
  </linearGradient>
<linearGradient
     inkscape:collect="always"
     xlink:href="#linearGradient4321"
     id="acyl_gradient"
     x1="50.0%"
     y1="0.0%"
     x2="50.0%"
     y2="100.0%" />
<filter>
    </filter>
<use id="1" style="fill:url(#acyl_gradient);filter:url(#filter1111)" xlink:href="#path-main" />
</acyl-settings>
</svg>
