<svg xmlns="http://www.w3.org/2000/svg" width="48" height="48">
<defs>
  <path
     d="m 35.248223,1.9999422 c 1.766924,0 3.280699,0.136278 4.749306,0.687006 4.419229,1.657211 5.709498,3.284418 5.52592,5.854489 -0.06278,0.878886 -0.276406,2.2562028 -0.627266,3.8532088 L 31.096315,5.2856242 c -0.401819,-1.384177 -0.948706,-2.420349 -2.120758,-3.166203 2.478282,0 4.505743,-0.119479 6.272666,-0.119479 z m -9.408999,1.224663 c 1.299256,-0.0352 2.376312,0.263199 3.166203,0.955835 3.159564,2.77055 0.288186,10.6589418 -6.422016,17.5933368 C 15.873209,28.708171 7.8509411,32.071522 4.6913771,29.300976 1.5318141,26.530428 4.4330601,18.642035 11.143262,11.70764 16.175913,6.5068442 21.941454,3.3301822 25.839224,3.2246052 z m 19.773832,9.5284798 -2.359718,31.184117 -27.450381,1.8818 7.377851,-3.46491 9.886917,-7.79602 7.676549,-9.588222 4.390866,-8.931083 z M 44.7767,12.992043 c -0.715394,2.98645 -2.052142,6.748858 -4.420735,10.245356 -1.794437,2.648933 -4.588524,5.832062 -7.557068,8.811603 -3.408968,3.42159 -7.0284,6.58875 -9.677829,8.45317 -4.670572,3.28671 -8.696618,5.2782 -12.216765,5.49605 L 17.17697,29.539935 32.798897,32.049002 29.184646,17.532259 z M 2.3615291,30.226941 c 0,0 0.151661,0.902831 1.612971,1.612971 l 6.6311049,14.15831 c -0.115989,0.004 -0.213664,0 -0.328568,0 -3.6715279,0 -6.6348289,-0.90292 -7.7362889,-4.39087 -1.101457,-3.48795 -0.179219,-11.380411 -0.179219,-11.380411 z"
     id="path-main" />
</defs>
<acyl-settings>
<linearGradient
     id="linearGradient4321">
    <stop
       style="stop-color:#00DEFF;stop-opacity:0.0;"
       offset="1.38777878078e-16"
       id="stop1" />
    <stop
       style="stop-color:#B3DEDE;stop-opacity:1.0;"
       offset="1.38777878078e-16"
       id="stop2" />
  </linearGradient>
<linearGradient
     inkscape:collect="always"
     xlink:href="#linearGradient4321"
     id="acyl_gradient"
     x1="50.0%"
     y1="0.0%"
     x2="50.0%"
     y2="100.0%" />
<filter>
    </filter>
<use id="1" style="fill:url(#acyl_gradient);filter:url(#filter1111)" xlink:href="#path-main" />
</acyl-settings>
</svg>
