<svg xmlns="http://www.w3.org/2000/svg" width="48" height="48">
<defs>
  <path
     d="m 36.971366,3.1883951 c -0.258412,-0.0032 -0.505677,0.0042 -0.750089,0.02459 -1.955289,0.162941 -3.177021,0.811432 -4.562017,2.766722 -1.384997,1.955289 -6.520161,8.6351189 -7.660746,10.4274679 -1.099681,1.728069 -0.408195,3.030066 -0.3566,3.123321 -0.04759,0.03752 -8.441641,6.656433 -9.579006,7.550077 -1.140585,0.896174 -1.484591,1.029273 -2.490292,2.559137 C 10.478396,31.30422 7.5956254,34.25456 2,42.648 c 0,0 3.5842334,-2.53147 6.5171674,-3.59059 2.9329336,-1.05912 7.3347256,-2.44397 9.6158956,-1.95515 2.281171,0.48882 2.357851,0.49195 2.520791,-0.81157 0.162941,-1.30353 1.229562,-4.15149 2.533088,-6.02531 1.303526,-1.873821 5.533444,-5.299812 5.533444,-5.299812 0,0 -2.199468,-0.9729 -3.258584,-1.869074 -1.05223,-0.890349 -1.785841,-3.543755 -1.795295,-3.578294 0.05256,-0.126466 0.539419,-1.233036 1.38951,-1.63544 0.728968,-0.345069 2.503176,-0.225975 3.664369,0.811571 1.202826,1.074747 1.964695,2.070157 1.918261,3.492218 -0.03449,1.056233 -1.150984,2.239364 -1.844482,2.754426 0.514698,0.196209 2.260715,0.01731 2.619164,-0.221338 1.072256,-0.713879 12.45782,-8.801145 14.00576,-10.267613 1.547936,-1.466467 -0.239619,-5.3703179 -2.520791,-8.1403109 -1.996026,-2.423744 -4.118035,-3.101044 -5.926932,-3.123321 z"
     id="path-main"
      />
</defs>
<acyl-settings>
<linearGradient
     id="linearGradient4321">
    <stop
       style="stop-color:#00DEFF;stop-opacity:0.0;"
       offset="1.38777878078e-16"
       id="stop1" />
    <stop
       style="stop-color:#B3DEDE;stop-opacity:1.0;"
       offset="1.38777878078e-16"
       id="stop2" />
  </linearGradient>
<linearGradient
     inkscape:collect="always"
     xlink:href="#linearGradient4321"
     id="acyl_gradient"
     x1="50.0%"
     y1="0.0%"
     x2="50.0%"
     y2="100.0%" />
<filter>
    </filter>
<use id="1" style="fill:url(#acyl_gradient);filter:url(#filter1111)" xlink:href="#path-main" />
</acyl-settings>
</svg>
