<svg xmlns="http://www.w3.org/2000/svg" width="48" height="48">
<defs>
  <path
     d="M 9.533365,2 C 8.205913,2 7.149,3.069945 7.149,4.397394 l 0,39.205216 C 7.149,44.93005 8.205913,46 9.533365,46 l 29.10749,0 c 1.327447,0 2.384365,-1.06995 2.384365,-2.39739 l 0,-29.459288 -8.76873,0 c -1.795381,0 -3.361563,-1.309648 -3.361563,-3.04886 L 28.894927,2 9.533365,2 z m 21.029314,0 0,9.094462 c 0,0.714683 0.680431,1.381108 1.693811,1.381108 l 8.76873,0 L 30.562679,2 z m -6.579804,12.781759 c 0.06256,-7.09e-4 0.135334,0.01755 0.19544,0.02606 0.901574,0.127594 1.527799,1.218265 2.423453,1.498372 0.955363,0.298781 2.219553,-0.331825 3.03583,0.247557 0.816277,0.57938 0.627467,1.971976 1.224756,2.775244 0.597289,0.803268 1.986359,1.03193 2.306188,1.980456 0.319834,0.948525 -0.649506,1.95672 -0.638436,2.957654 0.01105,1.000935 1.002365,2.002289 0.703583,2.957655 -0.298778,0.955365 -1.687719,1.216294 -2.267101,2.032575 -0.579381,0.81628 -0.369369,2.19098 -1.172638,2.78827 -0.397079,0.29526 -0.904176,0.29475 -1.433225,0.26059 l 0,12.65146 -3.973941,-5.48534 -3.98697,5.48534 0,-12.59935 c -0.668444,0.0626 -1.342228,0.17812 -1.850163,-0.18241 -0.816277,-0.57938 -0.627467,-1.97197 -1.224756,-2.77524 -0.597289,-0.803268 -1.986355,-1.03193 -2.306189,-1.980456 -0.319829,-0.948525 0.649494,-1.95672 0.638437,-2.957654 -0.01109,-1.000935 -1.002361,-2.002289 -0.703583,-2.957655 0.298782,-0.955365 1.687719,-1.203266 2.267101,-2.019544 0.579381,-0.816278 0.35634,-2.204014 1.159609,-2.801302 0.803268,-0.597288 2.061246,0.02015 3.009772,-0.299675 0.948525,-0.319831 1.591898,-1.591536 2.592833,-1.602605 z m 0,2.697068 c -3.193796,0.04932 -6.028378,2.345151 -6.64495,5.602605 -0.704655,3.722806 1.749509,7.334438 5.472312,8.039088 3.722807,0.70465 7.334433,-1.76254 8.039087,-5.485342 0.704655,-3.722805 -1.749505,-7.334434 -5.472312,-8.039087 -0.465349,-0.08808 -0.937877,-0.124306 -1.394137,-0.117264 z m -0.221498,1.224756 c 0.36184,-0.0209 0.723079,0.001 1.094462,0.05212 0.09584,0.01318 0.190495,0.03392 0.286645,0.05212 3.076816,0.58238 5.090523,3.529049 4.508143,6.605863 -0.582379,3.076814 -3.529047,5.09052 -6.605862,4.50814 -3.076812,-0.58238 -5.090523,-3.542076 -4.508143,-6.618889 0.493658,-2.608081 2.691877,-4.453047 5.224755,-4.599348 z m 0.286645,0.612377 c -2.422223,0.131441 -4.46371,2.068639 -4.820847,4.416938 -0.03515,0.231222 0.02668,0.462409 0.143323,0.612378 0.116638,0.14997 0.283947,0.241812 0.469055,0.234528 0.185108,-0.0073 0.348068,-0.09466 0.469055,-0.208469 0.120992,-0.113807 0.210725,-0.26383 0.234528,-0.429968 0.241757,-1.687299 1.856509,-3.25253 3.557003,-3.283387 0.07461,-0.003 0.146783,-0.0015 0.221498,0 0.172283,0.0036 0.33521,-0.05294 0.469056,-0.156352 0.133845,-0.103413 0.239164,-0.247947 0.273615,-0.429967 0.03444,-0.18202 -0.01459,-0.368176 -0.143322,-0.508144 -0.09653,-0.104977 -0.228274,-0.185833 -0.390879,-0.221498 -0.0542,-0.01192 -0.12394,-0.01178 -0.182411,-0.01303 -0.101433,-0.0021 -0.198229,-0.01699 -0.299674,-0.01303 z"
     id="path-main"
      />
</defs>
<acyl-settings>
<linearGradient
     id="linearGradient4321">
    <stop
       style="stop-color:#00DEFF;stop-opacity:0.0;"
       offset="1.38777878078e-16"
       id="stop1" />
    <stop
       style="stop-color:#B3DEDE;stop-opacity:1.0;"
       offset="1.38777878078e-16"
       id="stop2" />
  </linearGradient>
<linearGradient
     inkscape:collect="always"
     xlink:href="#linearGradient4321"
     id="acyl_gradient"
     x1="50.0%"
     y1="0.0%"
     x2="50.0%"
     y2="100.0%" />
<filter>
    </filter>
<use id="1" style="fill:url(#acyl_gradient);filter:url(#filter1111)" xlink:href="#path-main" />
</acyl-settings>
</svg>
