<svg xmlns="http://www.w3.org/2000/svg" width="48" height="48">
<defs>
  <path
     d="m 36.689815,2.0111895 c -0.623094,0.04524 -1.24967,0.235943 -1.832867,0.5727709 -2.073588,1.1976105 -2.800946,3.8538576 -1.603759,5.9281796 1.197188,2.074321 3.854591,2.801369 5.92818,1.603759 2.073588,-1.197611 2.772309,-3.853858 1.57512,-5.9281799 -0.748241,-1.2964509 -2.047458,-2.0781445 -3.436626,-2.1765296 -0.208375,-0.014758 -0.42235,-0.01508 -0.630048,0 z M 26.408576,5.591008 c -4.389538,0.167999 -7.531938,1.8901442 -7.531938,1.8901442 l -0.486855,0.257747 0.286385,0.4295778 c 0,0 1.548099,2.649162 3.637096,6.443674 l 0.229108,0.372301 0.372301,-0.143193 c 6.271747,-1.940611 9.577192,0.06021 11.484058,2.520192 1.059684,1.367059 1.624554,2.839566 1.947422,3.923482 0.726174,0.457706 1.319807,1.111205 1.689674,1.890144 0.04521,-0.0017 0.06591,0.0012 0.114554,0 0.560482,-0.01327 1.356513,-0.02227 2.17653,-0.02864 1.640033,-0.01273 3.470255,0.01378 4.353059,0.02864 l 0.572771,0 -0.02864,-0.572771 C 44.897837,18.171299 43.170838,15.507061 40.240995,11.66238 l -0.20047,-0.286385 -0.315024,0.08591 C 36.087762,12.411941 34.178943,11.515995 33.05272,10.259086 31.926496,9.002185 31.588489,7.2655613 31.506238,6.5074416 L 31.477599,6.163779 31.133937,6.0778633 C 29.464895,5.6718453 27.871756,5.5350083 26.408576,5.591008 z m -9.651191,2.892493 -0.458216,0.315024 c -3.672946,2.498203 -5.124312,5.333834 -6.9878065,9.794384 l -0.1431927,0.315024 0.2291084,0.20047 c 0.7589238,0.76902 1.2962458,1.502317 1.6896738,2.17653 0.596821,-0.440102 1.329289,-0.715964 2.119253,-0.715964 1.282274,0 2.194846,0.836527 2.77794,1.804228 0.255117,0.006 0.462716,0.05324 0.658686,0.114555 0.119283,-0.60628 0.323589,-1.177938 0.544133,-1.718313 1.176231,-2.882002 3.522541,-4.696722 3.522541,-4.696722 l 0.372301,-0.286386 -0.429578,-0.630048 C 20.568268,15.026768 20.454433,14.851616 20.308565,14.612151 20.016831,14.133223 19.635819,13.486507 19.220301,12.779284 18.389261,11.364835 17.443677,9.713956 17.015132,8.941718 L 16.757385,8.483501 z m 10.453071,9.27889 c -1.212713,0 -2.174856,0.959176 -2.291084,2.147891 l -0.08592,0.630048 -0.658686,0.114555 c -2.427822,0.351197 -4.505418,1.658594 -5.842264,3.579818 l -0.40094,0.572771 -0.630048,-0.257747 c -0.32073,-0.134018 -0.573699,-0.232096 -0.80188,-0.315024 -0.10337,-0.03943 -0.200153,-0.08993 -0.286385,-0.114554 -0.0096,-0.0023 -0.0191,0.0021 -0.02864,0 -0.09278,-0.02508 -0.168489,-0.02864 -0.257746,-0.02864 -0.03095,0.01074 -0.109433,0.04125 -0.257747,0.05728 l -0.630048,0.05728 -0.257747,-0.630048 c -0.310702,-0.803314 -0.815763,-1.288735 -1.575121,-1.288735 -0.151262,0 -0.288447,0.02346 -0.429578,0.05728 -0.236512,0.05667 -0.465752,0.149873 -0.658686,0.286385 -0.03917,0.0278 -0.07768,0.05531 -0.114555,0.08592 -0.0467,0.03857 -0.100395,0.07176 -0.143192,0.114554 -0.0328,0.03288 -0.05561,0.07938 -0.08592,0.114554 -0.285354,0.331187 -0.458217,0.761604 -0.458217,1.231458 0,0.410688 0.16599,0.729663 0.458217,1.030988 0.129686,0.133724 0.277538,0.276734 0.458217,0.400939 l 0.544132,0.40094 -0.229108,0.60141 c -0.07768,0.216677 -0.135415,0.431761 -0.171831,0.658686 l -0.143193,0.916434 -0.887796,-0.229109 c -0.534745,-0.140593 -0.740621,-0.286385 -0.830517,-0.286385 -0.0596,0 -0.113284,-0.0033 -0.171832,0 -1.0404863,0.0597 -1.925133,0.647234 -2.6061077,1.489204 L 7.3066591,29.704677 6.6766111,29.361014 C 6.3022841,29.148662 5.9284282,29.04599 5.5310691,29.04599 c -1.2938753,-1e-6 -2.3197224,1.026293 -2.3197224,2.319723 10e-8,1.293427 1.03536,2.348361 2.3197224,2.348361 0.3785941,-10e-7 0.7464204,-0.115037 1.145542,-0.343663 l 0.630048,-0.343662 0.4295782,0.544132 c 0.7193137,0.889372 1.6598152,1.489204 2.7779397,1.489204 0.451239,0 0.854459,-0.109251 1.288734,-0.286385 0.02903,-0.01167 0.05665,-0.01617 0.08592,-0.02864 l 0.687325,-0.286385 0.40094,0.630048 c 0.812721,1.33388 2.185271,2.233807 3.837566,2.233807 0.47732,0 0.946375,-0.0936 1.37465,-0.257747 0.493977,-0.191667 0.968268,-0.485174 1.403289,-0.830518 l 0.515494,-0.372301 0.486855,0.343662 c 0.01768,0.01196 0.03953,0.01678 0.05728,0.02864 0.689571,0.460637 1.420537,0.849181 2.205168,1.116903 0.0084,0.0029 0.02022,-0.0029 0.02864,0 0.04726,0.01596 0.09562,0.04215 0.143193,0.05728 0.351487,0.112313 0.720393,0.194424 1.088264,0.257747 0.418715,0.07208 0.850502,0.114555 1.288735,0.114555 2.3728,-1e-6 4.447596,-1.04246 6.042734,-2.634747 l 0.515494,-0.515494 0.544132,0.40094 c 0.210566,0.144617 0.436793,0.285223 0.658687,0.40094 0.221894,0.115716 0.453708,0.204406 0.687325,0.286385 0.467235,0.163959 0.944061,0.257747 1.460566,0.257747 1.208099,0 2.271225,-0.522864 3.178879,-1.288735 l 0.458217,-0.343662 0.486855,0.229108 c 0.573322,0.277215 0.954234,0.486855 1.317373,0.486855 0.322615,0 0.595556,-0.06227 0.887795,-0.171831 0.313068,-0.118548 0.605224,-0.288767 0.916434,-0.515494 l 0.486855,-0.343662 0.486855,0.315024 c 0.259125,0.176855 0.517956,0.257747 0.80188,0.257747 0.787238,0 1.460567,-0.644151 1.460566,-1.431928 -1e-6,-0.682654 -0.553124,-1.194167 -1.288735,-1.317373 L 43.964007,31.738003 43.849452,31.19387 c -0.01875,-0.08873 -0.06087,-0.171831 -0.08591,-0.257747 -0.04084,-0.139841 -0.08687,-0.26954 -0.143193,-0.400939 -0.01216,-0.02835 -0.01577,-0.058 -0.02864,-0.08592 -0.04388,-0.09548 -0.09145,-0.196311 -0.143192,-0.286385 -0.034,-0.05834 -0.07732,-0.11598 -0.114555,-0.171832 -0.0637,-0.09712 -0.127634,-0.197297 -0.200469,-0.286385 -0.03517,-0.0425 -0.07737,-0.07402 -0.114555,-0.114554 -0.08071,-0.08939 -0.167852,-0.178501 -0.257746,-0.257747 -0.03624,-0.03126 -0.07694,-0.05637 -0.114555,-0.08592 -0.10262,-0.08251 -0.202396,-0.160447 -0.315024,-0.229108 -0.02906,-0.01737 -0.05625,-0.04086 -0.08592,-0.05728 -0.127023,-0.07148 -0.263079,-0.119154 -0.40094,-0.171832 -0.01987,-0.0075 -0.0372,-0.02153 -0.05728,-0.02864 -0.150882,-0.0539 -0.296194,-0.08495 -0.458217,-0.114554 -0.0091,-0.0017 -0.01955,0.0016 -0.02864,0 -0.172236,-0.02977 -0.361144,-0.05728 -0.544133,-0.05728 -0.01856,0 -0.164372,0.04378 -0.458217,0.08592 l -0.515494,0.05728 -0.315024,-0.429578 C 38.909818,27.438696 38.1499,26.811998 37.176665,26.411225 l -0.630049,-0.257747 0.114555,-0.687325 c 0.06227,-0.342858 0.114554,-0.42189 0.114554,-0.40094 0,-0.08651 -0.02085,-0.173306 -0.02864,-0.257747 -0.131092,-1.41568 -1.319342,-2.520192 -2.777939,-2.520192 -0.601514,0 -1.130683,0.251611 -1.661036,0.658686 l -0.601409,0.429579 -0.486856,-0.486856 C 30.743659,22.454735 30.217824,22.055694 29.673371,21.743149 L 29.1006,21.428125 29.272431,20.769439 c 0.152631,-0.494405 0.257747,-0.66265 0.257747,-0.658687 0,-1.29343 -1.025849,-2.348361 -2.319722,-2.348361 z M 6.046568,19.681174 c -1.389167,0.09839 -2.7170225,0.880079 -3.4652644,2.17653 -1.1553991,2.001917 -0.5328799,4.533282 1.3746503,5.784986 0.4826647,-0.205632 1.0209758,-0.315024 1.5751202,-0.315024 0.5120179,0 0.9146417,0.199973 1.3460118,0.372301 0.8416068,-0.873323 1.9367069,-1.516641 3.2647941,-1.632397 0.02456,-0.04561 0.03453,-0.09709 0.05728,-0.143193 -0.3484135,-0.495049 -0.6014092,-1.061573 -0.6014091,-1.746951 0,-0.75341 0.2549109,-1.452144 0.6586861,-2.033337 C 9.8898437,21.378186 9.2700088,20.70973 8.4808446,20.253945 7.7032487,19.804841 6.8800681,19.622144 6.046568,19.681174 z m 32.390199,5.1263 c 0.005,0.08591 0.02864,0.170635 0.02864,0.257747 0,0.07304 -0.02279,0.05264 -0.02864,0.114554 0.807712,0.434348 1.496532,1.024889 2.061975,1.746952 0.09424,-0.01395 0.127825,-0.02864 0.257747,-0.02864 1.539049,0 2.828817,0.738658 3.694373,1.861506 0.518589,-1.991892 0.572771,-3.407987 0.572771,-3.407987 l 0.02864,-0.486856 -0.515493,0 c 0,0 -2.590551,-0.0025 -6.100011,-0.05728 z m -6.32912,11.884998 c -1.797379,1.606412 -4.063851,2.777938 -6.70142,2.777939 -1.961287,0 -3.708515,-0.639018 -5.240854,-1.57512 -0.206975,0.141512 -0.436117,0.247924 -0.658687,0.372301 -0.329652,0.568145 -0.747179,1.3311 -0.945072,1.661036 l -0.286385,0.458216 0.486855,0.257747 c 3.999229,1.932895 7.206206,1.76142 11.999552,1.145542 l 0.343662,-0.02864 0.05728,-0.315024 c 0.568556,-2.069306 1.391905,-3.313193 2.291084,-4.095313 -0.478691,-0.169589 -0.917864,-0.408717 -1.346012,-0.658686 z m 5.069024,0.658686 c -0.579086,0.202587 -1.20173,0.315024 -1.861506,0.315024 -0.01954,0 -0.03782,2.17e-4 -0.05728,0 -1.554173,0.664907 -2.663384,2.212981 -2.663385,4.009397 0,2.395221 1.958683,4.324423 4.353059,4.324421 2.394374,0 4.324421,-1.929202 4.324421,-4.324421 0,-2.315182 -1.812255,-4.199147 -4.095312,-4.324421 z"
     id="path-main" />
</defs>
<acyl-settings>
<linearGradient
     id="linearGradient4321">
    <stop
       style="stop-color:#00DEFF;stop-opacity:0.0;"
       offset="1.38777878078e-16"
       id="stop1" />
    <stop
       style="stop-color:#B3DEDE;stop-opacity:1.0;"
       offset="1.38777878078e-16"
       id="stop2" />
  </linearGradient>
<linearGradient
     inkscape:collect="always"
     xlink:href="#linearGradient4321"
     id="acyl_gradient"
     x1="50.0%"
     y1="0.0%"
     x2="50.0%"
     y2="100.0%" />
<filter>
    </filter>
<use id="1" style="fill:url(#acyl_gradient);filter:url(#filter1111)" xlink:href="#path-main" />
</acyl-settings>
</svg>
