<svg xmlns="http://www.w3.org/2000/svg" width="48" height="48">
<defs>
  <path
     d="M 6.7849125,2 C 3.6201768,2.097778 2.4703067,5.1428092 2.2540856,6.53125 l 0,26.375 10.5927604,0 c 1.4546,-11.850671 9.401497,-21.797755 22.06044,-21.09375 -5.346637,8.135107 -3.248922,17.769309 0.249977,21.09375 C 38.774102,32.82804 42.383161,32.89074 46,32.8125 l -0.156235,-26.5 C 45.696335,4.1711671 44.273787,2.2640006 41.531667,2 L 6.7849125,2 z M 31.501354,14.03125 C 18.292019,18.020585 17.212514,26.708253 14.971648,35.15625 10.64716,35.11713 6.3285963,35.07034 2.0041089,35.03125 l 0,6.34375 C 1.9058291,43.154555 3.573816,45.74578 6.6599241,46 l 34.6217669,0 c 2.13276,-0.0098 4.850625,-2.237309 4.624568,-4.59375 l 0,-6.375 c -4.295,0 -8.578798,0.21875 -12.873798,0.21875 -3.774095,-5.827552 -5.659017,-11.871191 -1.531107,-21.21875 z"
     id="path-main" />
</defs>
<acyl-settings>
<linearGradient
     id="linearGradient4321">
    <stop
       style="stop-color:#00DEFF;stop-opacity:0.0;"
       offset="1.38777878078e-16"
       id="stop1" />
    <stop
       style="stop-color:#B3DEDE;stop-opacity:1.0;"
       offset="1.38777878078e-16"
       id="stop2" />
  </linearGradient>
<linearGradient
     inkscape:collect="always"
     xlink:href="#linearGradient4321"
     id="acyl_gradient"
     x1="50.0%"
     y1="0.0%"
     x2="50.0%"
     y2="100.0%" />
<filter>
    </filter>
<use id="1" style="fill:url(#acyl_gradient);filter:url(#filter1111)" xlink:href="#path-main" />
</acyl-settings>
</svg>
