<svg xmlns="http://www.w3.org/2000/svg" width="48" height="48">
<defs>
  <path
     d="m 39.502311,3 -0.582435,0.5824345 -17.634822,17.1818185 -0.25886,0.258859 0,0.38829 0,5.824345 0,0.841294 0.841294,0 5.306626,0 0.323574,0 0.258861,-0.226502 L 45.488444,10.151002 46.070878,9.5362095 45.488444,8.9214176 40.084746,3.5824345 39.502311,3 z m 0,2.3297381 4.174114,4.174114 -16.8906,16.8582429 C 25.350962,24.88548 24.060157,23.313332 22.741141,21.734977 L 39.502311,5.3297381 z M 13.098614,8.953775 c -1.206202,8.6e-6 -2.16178,0.384102 -2.847459,1.164869 -0.6806766,0.780782 -1.0354391,1.854381 -1.0354381,3.235747 -1e-6,1.376371 0.3547615,2.482327 1.0354381,3.268105 0.685679,0.780775 1.641257,1.16487 2.847459,1.16487 1.201187,0 2.129412,-0.384095 2.815099,-1.16487 0.685673,-0.785778 1.035431,-1.891734 1.035439,-3.268105 -8e-6,-1.381366 -0.349766,-2.454965 -1.035439,-3.235747 C 15.228026,9.337877 14.299801,8.9537836 13.098614,8.953775 z m 0,1.164869 c 0.735724,8e-6 1.31687,0.288078 1.747303,0.873652 0.43042,0.580582 0.647142,1.366111 0.64715,2.362095 -8e-6,1.000998 -0.21673,1.813879 -0.64715,2.394453 -0.430433,0.580579 -1.011579,0.873653 -1.747303,0.873652 -0.745745,10e-7 -1.349238,-0.298079 -1.779662,-0.873652 -0.425425,-0.580574 -0.647151,-1.38845 -0.647149,-2.394453 -2e-6,-1.005993 0.216719,-1.786517 0.647149,-2.362095 0.430424,-0.580569 1.038921,-0.873644 1.779662,-0.873652 z m -2.750386,9.48074 0,13.137134 1.714946,0 0,-13.137134 -1.714946,0 z m 3.850539,0 0,12.942989 1.714946,0 0,-12.942989 -1.714946,0 z M 13.033899,32.768875 12.419106,33.35131 2,43.770416 3.1972265,45 13.033899,35.195686 22.741141,44.902928 23.970724,43.673343 13.64869,33.35131 13.033899,32.768875 z"
     id="path-main" />
</defs>
<acyl-settings>
<linearGradient
     id="linearGradient4321">
    <stop
       style="stop-color:#00DEFF;stop-opacity:0.0;"
       offset="1.38777878078e-16"
       id="stop1" />
    <stop
       style="stop-color:#B3DEDE;stop-opacity:1.0;"
       offset="1.38777878078e-16"
       id="stop2" />
  </linearGradient>
<linearGradient
     inkscape:collect="always"
     xlink:href="#linearGradient4321"
     id="acyl_gradient"
     x1="50.0%"
     y1="0.0%"
     x2="50.0%"
     y2="100.0%" />
<filter>
    </filter>
<use id="1" style="fill:url(#acyl_gradient);filter:url(#filter1111)" xlink:href="#path-main" />
</acyl-settings>
</svg>
