<svg xmlns="http://www.w3.org/2000/svg" width="48" height="48">
<defs>
	<path
   d="m 13.560004,2.012828 c -1.247153,0.239995 -2.125761,1.32296 -2.12438,2.592994 l 0,1.530804 -6.3419006,0 c -1.4487688,-10e-7 -2.4992712,1.017685 -2.4992712,2.46803 l 0,32.396802 c -2e-7,1.450346 1.0489266,2.49927 2.4992712,2.49927 l 10.2157706,0 C 15.441892,44.956314 16.585167,46 18.089933,46 l 24.774025,0 c 1.599536,2e-6 2.81168,-1.180906 2.81168,-2.78044 l 0,-22.618404 c -2e-6,-1.599533 -1.212146,-2.780438 -2.81168,-2.780438 l -2.686716,0 0,-9.216062 c 0,-1.450345 -1.050504,-2.46803 -2.499272,-2.46803 l -5.560878,0 0,-1.530804 C 32.092552,3.154084 30.91352,2.001518 29.461616,2.012828 l -15.370517,0 c -0.173138,-0.0171 -0.326716,-0.0171 -0.499854,0 l -0.03124,0 z m 0.624818,2.686717 15.183072,0 0,4.904819 0,0.03124 0.03124,0.03124 2.249344,2.249344 -19.744243,0 2.249344,-2.249344 0.03124,-0.03124 0,-0.03124 0,-4.904819 z m 3.905111,14.901904 24.774025,0 c 0.599828,-10e-7 0.999708,0.399883 0.999708,0.999707 l 0,22.399718 0.218688,0 c 0,0.599828 -0.399884,0.99971 -0.99971,0.99971 l -24.992711,0 c -0.599824,2e-6 -0.999709,-0.399884 -0.999709,-0.99971 l 0,-22.399718 c 1e-6,-0.599826 0.399884,-0.999707 0.999709,-0.999707 z m 4.186279,4.811097 0,2.999124 16.995044,0 0,-2.999124 -16.995044,0 z m 0,5.99825 0,2.81168 16.995044,0 0,-2.81168 -16.995044,0 z m 0,5.810806 0,2.999124 16.995044,0 0,-2.999124 -16.995044,0 z"
   id="path-main"
    />
</defs>
<acyl-settings>
<linearGradient
     id="linearGradient4321">
    <stop
       style="stop-color:#00DEFF;stop-opacity:0.0;"
       offset="1.38777878078e-16"
       id="stop1" />
    <stop
       style="stop-color:#B3DEDE;stop-opacity:1.0;"
       offset="1.38777878078e-16"
       id="stop2" />
  </linearGradient>
<linearGradient
     inkscape:collect="always"
     xlink:href="#linearGradient4321"
     id="acyl_gradient"
     x1="50.0%"
     y1="0.0%"
     x2="50.0%"
     y2="100.0%" />
<filter>
    </filter>
<use id="1" style="fill:url(#acyl_gradient);filter:url(#filter1111)" xlink:href="#path-main" />
</acyl-settings>
</svg>
