<svg xmlns="http://www.w3.org/2000/svg" width="48" height="48">
<defs>
<defs
     id="defs4">
  </defs>
  <path
     id="path-main"
     d="M 8.9546816,3.5381154 3.2306838,9.2621136 11.158421,17.189851 c -0.124053,0 -0.247771,0 -0.37206,0 -0.579484,0.0031 -1.0947052,0.369499 -1.2878996,0.915839 -0.456298,1.271373 -0.9174615,2.535086 -1.3737595,3.806459 C 7.6713123,20.642247 7.2329521,19.375591 6.7795625,18.10569 6.5829125,17.549383 6.053015,17.180758 5.463043,17.189851 c -0.6979299,0 -1.3913284,-1e-6 -2.0892592,0 -0.7586751,7.6e-5 -1.3736837,0.615084 -1.3737596,1.373759 0,3.577659 0,7.154836 0,10.732496 -8.058e-4,0.135653 0.018483,0.270678 0.05724,0.40068 0.1777423,0.564228 0.7903414,1.016515 1.1734196,1.116179 0.3830781,0.09966 0.6368058,0.07163 0.8299797,0.05724 0.1931738,-0.01439 0.3519462,-0.02371 0.4292998,-0.02862 -0.027297,-0.01015 -0.048761,-0.03909 -0.1144799,-0.05724 0.4130211,0.116149 0.859481,0.02936 1.2020395,-0.228959 0.3425587,-0.258323 0.5418827,-0.658522 0.5437798,-1.08756 0,-0.552791 0,-1.107169 0,-1.659959 0.047354,0.09205 0.1049587,0.178463 0.1717199,0.257579 0.3001764,0.384655 0.7320895,0.587392 1.0589396,0.65826 0.3268502,0.07087 0.5820712,0.04029 0.7727397,0.02862 0.3813372,-0.02333 0.6153469,0.01029 0.4292999,-0.02862 0.6727269,0.139426 1.3450306,-0.239509 1.5740992,-0.887219 0,0.485881 0,0.973738 0,1.459619 0.0055,0.14677 0.03448,0.291709 0.08586,0.4293 0.183593,0.562366 0.792942,0.989072 1.17342,1.087559 0.14341,0.03712 0.237135,0.04839 0.34344,0.05724 L 3.2306838,39.370342 8.9546816,45.09434 24.008795,30.040226 39.06291,45.09434 44.786908,39.370342 31.936532,26.519967 c 0,-1.469577 0,-2.93876 0,-4.407478 l 0.94446,-0.94446 c 0.343215,0 0.686427,0 1.03032,0 l 0,-0.02862 c 0.09097,0.0077 0.18191,0.0097 0.2862,0 -0.131861,0.368968 -0.354643,0.70884 -0.4293,1.08756 -0.341398,1.731829 -0.15092,3.548348 0.45792,5.122978 1.250316,3.326817 5.122533,4.524944 8.099456,3.205439 1.647296,-0.711978 2.683945,-2.147619 3.205439,-3.663359 0.511873,-1.487778 0.585147,-3.08036 0.31482,-4.550578 -0.005,-0.02763 0.0053,-0.05832 0,-0.08586 l -0.02862,0 c -0.43855,-2.969092 -2.96282,-5.410664 -6.010198,-5.266078 -0.02812,-8.2e-5 -0.05765,-2.49e-4 -0.08586,0 -0.999911,0.0088 -2.046487,0.23512 -3.005098,0.801359 -0.468729,0.281701 -0.761686,0.710053 -1.11618,1.08756 -0.0015,-0.01296 10e-4,-0.04633 0,-0.05724 -0.002,-0.02247 -0.03079,0.0399 -0.02862,0.02862 0.02801,-0.13156 0.04056,-0.270393 0.02862,-0.40068 L 44.786908,9.2621136 39.06291,3.5381154 25.439795,17.189851 c -0.758675,7.6e-5 -1.373684,0.615084 -1.37376,1.373759 L 24.008795,18.59223 8.9546816,3.5381154 z M 35.456791,17.96259 c 0.03239,0.06414 0.06383,0.132529 0.08586,0.20034 -0.02282,-0.0691 -0.05183,-0.13524 -0.08586,-0.20034 z m -15.569274,0.40068 c 2.297846,-0.146 4.352409,1.794032 4.665058,4.149899 0.487514,2.523291 -0.222857,5.716493 -2.690279,6.782937 -2.275516,1.00861 -5.318408,0.06474 -6.267777,-2.461319 -1.019847,-2.637614 -0.657259,-6.340273 1.888919,-7.870497 0.726803,-0.429314 1.57587,-0.603415 2.404079,-0.60102 z m 19.919512,0 c 2.297849,-0.146 4.381028,1.794032 4.693679,4.149899 0.487512,2.523291 -0.251478,5.716493 -2.718899,6.782937 -2.275515,1.00861 -5.318409,0.06474 -6.267778,-2.461319 -1.019847,-2.637614 -0.628638,-6.340273 1.917539,-7.870497 0.726804,-0.429314 1.547251,-0.603415 2.375459,-0.60102 z M 3.3737838,18.56361 c 0.6979298,-1e-6 1.3913293,0 2.0892592,0 0.883426,2.474391 1.7782327,4.938184 2.6616589,7.412577 0.8880638,-2.474393 1.7735953,-4.938185 2.6616591,-7.412577 0.69793,-1e-6 1.391329,0 2.089259,0 0,3.63609 0,7.268125 0,10.904216 -0.407407,-0.110296 -1.242918,0.229062 -1.373759,-0.17172 0,-3.134413 0,-6.281564 0,-9.415976 -0.892702,2.493876 -1.7689584,5.00456 -2.6616593,7.498437 -0.4625514,-0.09675 -1.2029199,0.193897 -1.4882395,-0.17172 -0.8731231,-2.439183 -1.731296,-4.887534 -2.604419,-7.326717 -1e-7,3.192842 0,6.394853 0,9.587696 -0.4039102,-0.111532 -1.2469416,0.230853 -1.3737594,-0.17172 -10e-8,-3.57766 0,-7.154837 0,-10.732496 z m 22.0660112,0 c 2.928524,-1e-6 5.857814,0 8.786337,0 -0.126726,0.397779 0.32869,1.375678 -0.31482,1.23066 -1.117651,-1e-6 -2.230888,0 -3.348539,0 0,3.222067 0,6.451486 0,9.673556 -0.427918,-0.103364 -1.276554,0.218884 -1.431,-0.17172 0,-3.163638 0,-6.338199 0,-9.501836 -1.228913,-1e-6 -2.463064,0 -3.691978,0 1e-6,-0.414024 0,-0.816638 0,-1.23066 z m -5.552278,1.0017 c -1.825253,-0.111801 -3.154869,1.705737 -3.262679,3.491638 -0.26258,1.95699 0.196428,4.541914 2.203739,5.266078 1.600998,0.607029 3.520211,-0.336841 4.035419,-2.060639 0.631181,-2.020824 0.54272,-4.707268 -1.17342,-6.124678 -0.518399,-0.398263 -1.167247,-0.576235 -1.803059,-0.572399 z m 19.919512,0 c -1.82525,-0.111801 -3.154868,1.705737 -3.262678,3.491638 -0.262578,1.95699 0.196428,4.541914 2.203739,5.266078 1.600998,0.607029 3.520211,-0.336841 4.035418,-2.060639 0.631182,-2.020824 0.542721,-4.707268 -1.173419,-6.124678 -0.518398,-0.398263 -1.167246,-0.576235 -1.80306,-0.572399 z m -25.55765,0.715499 0.25758,0.25758 c -0.09605,0.219266 -0.179226,0.433003 -0.25758,0.65826 0,-0.305393 0,-0.6106 0,-0.91584 z m 25.47179,0.65826 c 0.03815,0.0016 0.07634,0.0016 0.11448,0 0.38255,-0.0023 0.712856,0.108269 0.94446,0.2862 0.536234,0.442891 0.823174,1.086632 0.94446,1.946159 0.121285,0.859528 0.0012,1.861882 -0.25758,2.690279 -0.28724,0.961055 -1.40648,1.486557 -2.232359,1.17342 -0.544802,-0.196545 -0.899809,-0.629158 -1.1448,-1.34514 -0.244991,-0.715981 -0.30661,-1.66929 -0.20034,-2.461319 0.01048,-0.0283 0.02003,-0.05694 0.02862,-0.08586 0.03491,-0.578383 0.298683,-1.247719 0.65826,-1.659959 0.359577,-0.412241 0.70438,-0.570757 1.144799,-0.54378 z m -21.808431,3.005099 0.37206,0.37206 -0.31482,0.31482 c -0.02341,-0.231741 -0.05988,-0.454184 -0.05724,-0.68688 z m -3.663359,3.148199 c 0.02887,0.08162 0.02614,0.177147 0.05724,0.25758 0.08609,0.229063 0.176399,0.449507 0.2862,0.658259 l -0.34344,0.34344 c 0,-0.419682 0,-0.839363 0,-1.259279 z m 1.0017,1.888919 c 0.135741,0.162949 0.278032,0.313424 0.4293,0.45792 -0.146341,-0.139885 -0.297433,-0.30074 -0.4293,-0.45792 z m 2.489939,1.717199 c 0.180322,0.06508 0.358082,0.123484 0.54378,0.17172 -0.184093,-0.04825 -0.36501,-0.106864 -0.54378,-0.17172 z m 3.920938,0.11448 c -0.132426,0.03878 -0.266291,0.08472 -0.40068,0.11448 0.138785,-0.03072 0.263971,-0.07412 0.40068,-0.11448 z m -2.804759,0.17172 c 0.160207,0.02616 0.324615,0.04335 0.48654,0.05724 -0.160706,-0.01381 -0.327536,-0.03132 -0.48654,-0.05724 z" />
</defs>
<acyl-settings>
<linearGradient
     id="linearGradient4321">
    <stop
       style="stop-color:#00DEFF;stop-opacity:0.0;"
       offset="1.38777878078e-16"
       id="stop1" />
    <stop
       style="stop-color:#B3DEDE;stop-opacity:1.0;"
       offset="1.38777878078e-16"
       id="stop2" />
  </linearGradient>
<linearGradient
     inkscape:collect="always"
     xlink:href="#linearGradient4321"
     id="acyl_gradient"
     x1="50.0%"
     y1="0.0%"
     x2="50.0%"
     y2="100.0%" />
<filter>
    </filter>
<use id="1" style="fill:url(#acyl_gradient);filter:url(#filter1111)" xlink:href="#path-main" />
</acyl-settings>
</svg>
