<svg xmlns="http://www.w3.org/2000/svg" width="48" height="48">
<defs>
<defs
     id="defs2385">
  </defs>
  <path
     id="path-main"
     d="M 3 7 L 3 42 L 45 42 L 45 10.5 L 25.75 10.5 L 25.75 7 L 3 7 z M 4.75 8.75 L 24 8.75 L 24 12.25 L 43.25 12.25 L 43.25 15.75 L 20.5 15.75 L 20.5 12.25 L 4.75 12.25 L 4.75 8.75 z M 26 20.28125 C 26.712735 20.282625 27.435065 20.376164 28.15625 20.5625 C 28.17436 20.5672 28.20065 20.5577 28.21875 20.5625 C 32.851524 21.790879 35.603377 26.55473 34.375 31.1875 C 33.146627 35.820274 28.382774 38.572127 23.75 37.34375 C 22.794293 37.090345 21.934187 36.709161 21.15625 36.1875 C 21.13255 36.266967 21.12019 36.32523 21.09375 36.40625 C 20.978802 36.758591 20.827493 37.095789 20.59375 37.40625 C 20.360009 37.71671 20.037836 37.97848 19.59375 38.0625 C 18.717375 38.228301 18.000087 37.731883 17.40625 37.25 C 16.812414 36.768117 16.270747 36.3368 15.8125 36.28125 C 15.254295 36.213588 15.004297 36.287519 14.78125 36.4375 C 14.558203 36.587481 14.372693 36.856658 14 37 L 13.75 36.34375 C 13.872354 36.29669 14.077131 36.096303 14.40625 35.875 C 14.735369 35.653696 15.207803 35.44659 15.90625 35.53125 C 16.704655 35.628027 17.276133 36.226892 17.84375 36.6875 C 18.411367 37.148107 18.936152 37.475763 19.46875 37.375 C 19.729152 37.325738 19.877047 37.204815 20.03125 37 C 20.185452 36.795185 20.302235 36.506326 20.40625 36.1875 C 20.455183 36.037503 20.48713 35.873536 20.53125 35.71875 C 17.947792 33.632055 16.688071 30.165729 17.59375 26.75 C 18.626144 22.856369 22.15123 20.27395 26 20.28125 z M 23.9375 21.65625 C 23.701207 21.671276 23.450982 21.75391 23.21875 21.84375 C 21.998648 22.315766 21.402984 23.686149 21.875 24.90625 C 22.347015 26.126352 23.717398 26.722015 24.9375 26.25 C 26.157604 25.777984 26.753268 24.407604 26.28125 23.1875 C 25.991771 22.439234 25.380472 21.929647 24.65625 21.75 C 24.64908 21.7483 24.6322 21.7517 24.625 21.75 C 24.399635 21.69632 24.173792 21.64122 23.9375 21.65625 z M 30.09375 23.25 C 29.560607 23.245583 29.039053 23.449971 28.59375 23.8125 C 27.579222 24.638448 27.424055 26.110475 28.25 27.125 C 29.075948 28.139523 30.547977 28.294699 31.5625 27.46875 C 32.577027 26.642802 32.763449 25.139526 31.9375 24.125 C 31.598733 23.708884 31.109304 23.430656 30.625 23.3125 C 30.451977 23.27158 30.271465 23.2514 30.09375 23.25 z M 20.59375 26.875 C 19.287501 26.946884 18.27187 28.068756 18.34375 29.375 C 18.415633 30.681249 19.537505 31.69688 20.84375 31.625 C 22.149999 31.553116 23.16563 30.431249 23.09375 29.125 C 23.035907 28.073881 22.309486 27.224788 21.34375 26.96875 C 21.32909 26.96484 21.296 26.9411 21.28125 26.9375 C 21.060006 26.88341 20.832932 26.86184 20.59375 26.875 z M 26 28.03125 C 25.575609 28.025674 25.176196 28.289947 25.0625 28.71875 C 24.928384 29.22456 25.244185 29.740883 25.75 29.875 C 26.25581 30.009115 26.772136 29.72456 26.90625 29.21875 C 27.040366 28.712937 26.724562 28.196618 26.21875 28.0625 C 26.20492 28.05881 26.20134 28.03425 26.1875 28.03125 C 26.126189 28.01827 26.06063 28.032047 26 28.03125 z M 30.25 29.46875 C 29.529353 29.518323 28.827837 29.878332 28.40625 30.53125 C 27.69661 31.630278 28.057221 33.102861 29.15625 33.8125 C 30.255276 34.52214 31.727858 34.224032 32.4375 33.125 C 33.147144 32.025972 32.78653 30.553391 31.6875 29.84375 C 31.472849 29.705148 31.265648 29.59341 31.03125 29.53125 C 31.01616 29.52727 30.98388 29.53495 30.96875 29.53125 C 30.730384 29.47306 30.490216 29.45223 30.25 29.46875 z M 24.5 31.6875 C 23.504867 31.74498 22.612988 32.45333 22.34375 33.46875 C 22.00846 34.733279 22.766718 36.008458 24.03125 36.34375 C 25.29578 36.67904 26.602215 35.952026 26.9375 34.6875 C 27.272791 33.422968 26.483277 32.085288 25.21875 31.75 C 24.984301 31.69257 24.729646 31.67423 24.5 31.6875 z "
/>
</defs>
<acyl-settings>
<linearGradient
     id="linearGradient4321">
    <stop
       style="stop-color:#00DEFF;stop-opacity:0.0;"
       offset="1.38777878078e-16"
       id="stop1" />
    <stop
       style="stop-color:#B3DEDE;stop-opacity:1.0;"
       offset="1.38777878078e-16"
       id="stop2" />
  </linearGradient>
<linearGradient
     inkscape:collect="always"
     xlink:href="#linearGradient4321"
     id="acyl_gradient"
     x1="50.0%"
     y1="0.0%"
     x2="50.0%"
     y2="100.0%" />
<filter>
    </filter>
<use id="1" style="fill:url(#acyl_gradient);filter:url(#filter1111)" xlink:href="#path-main" />
</acyl-settings>
</svg>
