<svg xmlns="http://www.w3.org/2000/svg" width="48" height="48">
<defs>
<defs
     id="defs1874">
  </defs>
  <path
     d="M 24,2 C 11.849736,2 2,11.850322 2,24 2,36.149679 11.849736,46 24,46 36.150264,46 46,36.14968 46,24 46,11.850321 36.150264,2 24,2 z m -7.5625,15.099738 c 5.328688,0 10.743959,-0.0447 16.098958,0.02887 0.418324,0.05838 0.790185,0.297828 0.973959,0.664042 l 7.21875,4.908136 c 0.459706,0.438915 0.53951,1.154533 0.171875,1.674541 -0.36763,0.520008 -1.072779,0.672336 -1.632813,0.375328 L 33.625,20.910761 l 0,10.913386 c -0.0014,0.704547 -0.563085,1.268973 -1.260417,1.270341 l -15.755208,0 c -0.697332,-0.0014 -1.259064,-0.565795 -1.260417,-1.270341 l 0,-10.942257 -5.8151038,3.95538 C 9.1802879,25.23444 8.6220327,25.379763 8.1302083,25.183727 7.638384,24.987691 7.318065,24.505216 7.328125,23.971129 7.338185,23.437041 7.6600033,22.964392 8.1588542,22.787402 l 7.3906248,-5.081365 c 0.187242,-0.317278 0.504511,-0.54533 0.888021,-0.606299 z m 1.460938,2.540682 0,10.913386 13.205729,0 0,-10.913386 -13.205729,0 z"
     id="path-main"
      />
</defs>
<acyl-settings>
<linearGradient
     id="linearGradient4321">
    <stop
       style="stop-color:#00DEFF;stop-opacity:0.0;"
       offset="1.38777878078e-16"
       id="stop1" />
    <stop
       style="stop-color:#B3DEDE;stop-opacity:1.0;"
       offset="1.38777878078e-16"
       id="stop2" />
  </linearGradient>
<linearGradient
     inkscape:collect="always"
     xlink:href="#linearGradient4321"
     id="acyl_gradient"
     x1="50.0%"
     y1="0.0%"
     x2="50.0%"
     y2="100.0%" />
<filter>
    </filter>
<use id="1" style="fill:url(#acyl_gradient);filter:url(#filter1111)" xlink:href="#path-main" />
</acyl-settings>
</svg>
