<svg xmlns="http://www.w3.org/2000/svg" width="48" height="48">
<defs>
<defs
     id="defs2162">
  </defs>
  <path
     id="path-main"
   d="M 24 2 C 11.856 2 2 11.856 2 24 C 2 36.144 11.855999 46.000001 24 46 C 36.144 46 45.999998 36.144001 46 24 C 46 11.856 36.144 2 24 2 z M 26 5.125 C 27.149554 5.125 28.0625 6.1502555 28.0625 7.40625 C 28.0625 7.4024018 27.948107 7.5824046 27.8125 8.0625 L 27.65625 8.6875 L 28.1875 9 C 28.671225 9.3035 29.139429 9.7036116 29.5625 10.125 L 29.96875 10.59375 L 30.53125 10.15625 C 31.002448 9.7609576 31.465579 9.53125 32 9.53125 C 33.295904 9.53125 34.352279 10.594043 34.46875 11.96875 C 34.47568 12.050748 34.5 12.13475 34.5 12.21875 C 34.5 12.198407 34.43032 12.292066 34.375 12.625 L 34.28125 13.28125 L 34.84375 13.53125 C 35.70843 13.920423 36.379296 14.537326 36.875 15.375 L 37.15625 15.78125 L 37.625 15.71875 C 37.886069 15.67784 38.01476 15.65625 38.03125 15.65625 C 38.193828 15.65625 38.346975 15.68985 38.5 15.71875 C 38.50809 15.72025 38.52315 15.71715 38.53125 15.71875 C 38.675201 15.747496 38.803447 15.76016 38.9375 15.8125 C 38.95534 15.81941 38.98234 15.83645 39 15.84375 C 39.122484 15.894908 39.230895 15.93058 39.34375 16 C 39.37011 16.01595 39.38043 16.04563 39.40625 16.0625 C 39.506315 16.129174 39.59633 16.20113 39.6875 16.28125 C 39.720914 16.30994 39.7803 16.34465 39.8125 16.375 C 39.892368 16.451953 39.95955 16.53821 40.03125 16.625 C 40.064284 16.664366 40.09376 16.67749 40.125 16.71875 C 40.189716 16.80526 40.2559 16.90569 40.3125 17 C 40.345575 17.054237 40.37604 17.13085 40.40625 17.1875 C 40.45222 17.274967 40.49226 17.37603 40.53125 17.46875 C 40.54269 17.49586 40.55174 17.50372 40.5625 17.53125 C 40.612542 17.658847 40.65122 17.801706 40.6875 17.9375 C 40.70974 18.020929 40.76459 18.10133 40.78125 18.1875 L 40.875 18.71875 L 41.34375 18.8125 C 41.997312 18.93214 42.499999 19.430854 42.5 20.09375 C 42.500001 20.858726 41.886929 21.5 41.1875 21.5 C 40.935245 21.5 40.730222 21.421734 40.5 21.25 L 40.0625 20.9375 L 39.625 21.28125 C 39.478507 21.397897 39.32977 21.475961 39.1875 21.5625 C 38.831773 15.659553 36.902417 21.163148 35.09375 21.84375 C 33.751105 17.996014 31.428652 14.62676 28.90625 11.46875 L 27.46875 14.34375 C 26.107826 16.275296 22.364174 14.009641 20.09375 15.25 C 15.861737 16.024227 12.979794 18.593568 11.1875 21.9375 C 11.176562 21.937659 11.16725 21.9375 11.15625 21.9375 C 10.162841 21.9375 9.3265802 21.36363 8.6875 20.5 L 8.3125 19.96875 L 7.75 20.28125 C 7.3953979 20.503263 7.0551161 20.624998 6.71875 20.625 C 5.5776462 20.625 4.6562501 19.59974 4.65625 18.34375 C 4.65625 17.087756 5.5691943 16.09375 6.71875 16.09375 C 7.0717876 16.09375 7.4174261 16.200044 7.75 16.40625 L 8.3125 16.71875 L 8.6875 16.21875 C 9.2925183 15.401149 10.07557 14.80798 11 14.75 C 11.052016 14.7468 11.1033 14.75 11.15625 14.75 C 11.236118 14.75 11.399901 14.894726 11.875 15.03125 L 12.6875 15.25 L 12.8125 14.375 C 12.844854 14.154643 12.89974 13.929157 12.96875 13.71875 L 13.15625 13.15625 L 12.6875 12.75 C 12.526974 12.62939 12.396469 12.504853 12.28125 12.375 C 12.021619 12.082396 11.875 11.773803 11.875 11.375 C 11.875 10.918746 12.027726 10.477852 12.28125 10.15625 C 12.30818 10.122094 12.3146 10.09444 12.34375 10.0625 C 12.381771 10.020944 12.42726 9.97496 12.46875 9.9375 C 12.501514 9.90777 12.5277 9.902 12.5625 9.875 C 12.733914 9.74244 12.946119 9.64877 13.15625 9.59375 C 13.281639 9.56091 13.39686 9.53125 13.53125 9.53125 C 14.205909 9.53125 14.661454 10.001186 14.9375 10.78125 L 15.1875 11.40625 L 15.71875 11.34375 C 15.850527 11.32819 15.94125 11.29169 15.96875 11.28125 C 16.048051 11.28125 16.10507 11.28814 16.1875 11.3125 C 16.19598 11.3146 16.21025 11.3103 16.21875 11.3125 C 16.295363 11.336407 16.37691 11.39921 16.46875 11.4375 C 16.671481 11.518027 16.902545 11.588611 17.1875 11.71875 L 17.75 11.96875 L 18.09375 11.4375 C 19.281483 9.5718806 21.12423 8.2785322 23.28125 7.9375 L 23.875 7.84375 L 23.9375 7.21875 C 24.040764 6.0644395 24.922554 5.125 26 5.125 z M 29.25 15.25 C 29.25 15.25 33.554543 20.700725 34.21875 26.6875 C 29.207006 24.880171 26.715091 25.331709 23.9375 25.21875 C 24.141737 24.620756 25.18445 23.008753 25.28125 22.375 C 24.03319 20.454498 16.132233 19.281234 11 33.0625 C 10.296131 18.134609 20.333547 15.466755 28.0625 17.5 C 28.48518 16.822251 29.25 15.25 29.25 15.25 z M 22.1875 23.25 C 22.344504 23.244487 22.494524 23.237459 22.65625 23.25 C 22.415212 23.570339 22.222404 23.850236 22.0625 24.125 C 21.632676 23.95958 21.20861 23.74303 20.8125 23.5 C 21.255744 23.350497 21.716488 23.266539 22.1875 23.25 z M 37.21875 23.75 C 37.92262 38.677894 27.885204 41.345744 20.15625 39.3125 C 19.733573 39.990248 18.9375 41.5625 18.9375 41.5625 C 18.9375 41.5625 14.695458 36.111775 14.03125 30.125 C 19.042995 31.932328 21.534907 31.48079 24.3125 31.59375 C 24.108263 32.191746 23.06555 33.803748 22.96875 34.4375 C 24.21681 36.358003 32.086518 37.531268 37.21875 23.75 z "
  />
</defs>
<acyl-settings>
<linearGradient
     id="linearGradient4321">
    <stop
       style="stop-color:#00DEFF;stop-opacity:0.0;"
       offset="1.38777878078e-16"
       id="stop1" />
    <stop
       style="stop-color:#B3DEDE;stop-opacity:1.0;"
       offset="1.38777878078e-16"
       id="stop2" />
  </linearGradient>
<linearGradient
     inkscape:collect="always"
     xlink:href="#linearGradient4321"
     id="acyl_gradient"
     x1="50.0%"
     y1="0.0%"
     x2="50.0%"
     y2="100.0%" />
<filter>
    </filter>
<use id="1" style="fill:url(#acyl_gradient);filter:url(#filter1111)" xlink:href="#path-main" />
</acyl-settings>
</svg>
