<svg xmlns="http://www.w3.org/2000/svg" width="48" height="48">
<defs>
<defs
     id="defs1874">
  </defs>
  <path
     d="M 24,2 C 11.849736,2 2,11.846429 2,24 2,36.153571 11.849734,46 24,46 36.150264,46 46,36.153571 46,24 46,11.846429 36.150264,2 24,2 z m 0.257812,6.120735 c 5.225656,0 9.481769,4.384872 9.481771,9.700787 0,3.134086 -1.493244,5.9067 -3.78125,7.67979 l 0,1.068242 c 2.343642,-1.093904 5.695954,-2.655662 6.445313,-3.002625 0.0299,-0.673852 0.404968,-1.251587 0.888021,-1.616798 0.503787,-0.380887 1.125936,-0.577428 1.804687,-0.577428 0.678752,0 1.329546,0.196541 1.833333,0.577428 0.503788,0.380887 0.888023,0.992188 0.888021,1.703412 0,0.711223 -0.384233,1.322525 -0.888021,1.703412 -0.503787,0.380887 -1.154581,0.577427 -1.833333,0.577428 -0.678751,0 -1.300901,-0.196541 -1.804687,-0.577428 -0.04372,-0.03306 -0.07283,-0.07904 -0.114584,-0.115485 -0.344118,0.161749 -0.343029,0.160964 -0.802083,0.375328 -0.917148,0.428281 -3.85653,1.803514 -6.416667,3.002625 l 0,3.811023 c 1.515457,0.708397 3.547806,1.651527 4.096354,1.905512 0.04175,-0.03645 0.07086,-0.08243 0.114584,-0.115486 0.503786,-0.380887 1.125935,-0.577427 1.804687,-0.577427 0.678753,0 1.329547,0.19654 1.833334,0.577427 0.503787,0.380888 0.88802,0.99219 0.88802,1.703413 10e-7,0.711223 -0.384233,1.322524 -0.88802,1.703412 -0.503787,0.380888 -1.154581,0.577427 -1.833334,0.577427 -0.67875,-10e-7 -1.3009,-0.19654 -1.804687,-0.577427 -0.489964,-0.370437 -0.867708,-0.95939 -0.888021,-1.64567 -0.337058,-0.158402 -0.32786,-0.167256 -0.773438,-0.375328 -0.413298,-0.192998 -1.866651,-0.876322 -2.893229,-1.356955 -0.144978,0.116695 -0.320717,0.195022 -0.515625,0.2021 l -10.083333,0 c -0.252004,0.01668 -0.508489,-0.07977 -0.6875,-0.259843 -0.02999,-0.03061 -0.03205,-0.08082 -0.05729,-0.115486 -1.046368,0.492174 -1.604677,0.754663 -3.265625,1.530184 5.73e-4,0.01937 0,0.03823 0,0.05774 0,0.711223 -0.384233,1.322524 -0.88802,1.703412 -0.503788,0.380888 -1.154582,0.577429 -1.833334,0.577428 -0.678751,0 -1.3009,-0.196541 -1.804687,-0.577428 -0.5037874,-0.380887 -0.8880213,-0.992188 -0.8880212,-1.703412 0,-0.711224 0.3842338,-1.322525 0.8880212,-1.703412 0.503787,-0.380887 1.125935,-0.577429 1.804687,-0.577428 0.678752,0 1.329546,0.196541 1.833334,0.577428 2.019283,-0.942658 2.849829,-1.335826 3.953124,-1.847769 l 0,-3.233596 c -1.934888,-0.899546 -3.453355,-1.614231 -7.046874,-3.291338 -0.01082,0.0085 -0.01772,0.0206 -0.02865,0.02887 -0.503788,0.380887 -1.1545821,0.577428 -1.8333339,0.577428 -0.6787519,0 -1.3009004,-0.196541 -1.8046875,-0.577428 C 6.8529838,25.235911 6.46875,24.62461 6.46875,23.913386 c 1e-7,-0.711224 0.3842339,-1.322525 0.8880208,-1.703412 0.5037869,-0.380887 1.1259355,-0.577428 1.8046875,-0.577428 0.6787519,0 1.3295467,0.196541 1.8333337,0.577428 0.503787,0.380887 0.888021,0.992188 0.888021,1.703412 0,0.01951 5.72e-4,0.03838 0,0.05774 3.14509,1.468196 4.341895,2.027407 6.187499,2.887139 l 0,-1.732284 c -2.021959,-1.779953 -3.322916,-4.388053 -3.322916,-7.304462 10e-7,-5.315917 4.284764,-9.700787 9.510416,-9.700787 z M 20.046875,13.2021 c -1.764844,0 -3.179687,1.921567 -3.179687,4.301837 0,2.38027 1.414843,4.301837 3.179687,4.301837 1.764843,0 3.208334,-1.921567 3.208333,-4.301837 0,-2.38027 -1.44349,-4.301837 -3.208333,-4.301837 z m 8.25,0 c -1.764843,0 -3.208333,1.921567 -3.208333,4.301837 0,2.38027 1.443489,4.301836 3.208333,4.301837 1.764843,0 3.179687,-1.921567 3.179687,-4.301837 0,-2.38027 -1.414845,-4.301837 -3.179687,-4.301837 z m -8.221354,12.530183 c -0.523249,0 -0.973959,1.823765 -0.973959,4.041995 0,2.218228 0.45071,4.013125 0.973959,4.013124 0.523249,0 0.945313,-1.794896 0.945312,-4.013124 0,-2.21823 -0.422063,-4.041995 -0.945312,-4.041995 z m 7.877604,0.173229 c -0.523249,0 -0.945313,1.718188 -0.945313,3.839895 0,2.121701 0.422063,3.839895 0.945313,3.839895 0.523248,0 0.945312,-1.718194 0.945312,-3.839895 0,-2.121707 -0.422065,-3.839895 -0.945312,-3.839895 z m -3.981771,0.866142 c -0.523249,0 -0.945311,1.718191 -0.945312,3.839895 0,2.121699 0.422063,3.52231 0.945312,3.522309 0.523249,0 0.945313,-1.400609 0.945313,-3.522309 0,-2.121705 -0.422064,-3.839895 -0.945313,-3.839895 z"
     id="path-main"
      />
</defs>
<acyl-settings>
<linearGradient
     id="linearGradient4321">
    <stop
       style="stop-color:#00DEFF;stop-opacity:0.0;"
       offset="1.38777878078e-16"
       id="stop1" />
    <stop
       style="stop-color:#B3DEDE;stop-opacity:1.0;"
       offset="1.38777878078e-16"
       id="stop2" />
  </linearGradient>
<linearGradient
     inkscape:collect="always"
     xlink:href="#linearGradient4321"
     id="acyl_gradient"
     x1="50.0%"
     y1="0.0%"
     x2="50.0%"
     y2="100.0%" />
<filter>
    </filter>
<use id="1" style="fill:url(#acyl_gradient);filter:url(#filter1111)" xlink:href="#path-main" />
</acyl-settings>
</svg>
