<svg xmlns="http://www.w3.org/2000/svg" width="48" height="48">
<defs>
<defs
     id="defs4">
  </defs>
  <path
     id="path-main"
     d="m 29.268038,4.1223425 c -3.50876,0 -6.790041,1.7766511 -9.094458,4.5855698 -0.607327,-0.1183657 -1.222263,-0.1840362 -1.840363,-0.1840362 -6.316614,0 -12.0431892,6.4351559 -11.4409201,14.0941089 0.3722421,4.733733 2.2411444,8.995578 5.1070061,11.563611 l 0,1.426281 c -0.164371,0.867418 -0.795069,1.449361 -1.733008,1.917045 C 9.3283553,37.992605 8.1155319,38.31689 6.9076333,38.675148 5.6997347,39.033406 4.4876921,39.414874 3.5643081,40.024747 2.6409241,40.63462 2,41.515449 2,42.754618 L 2,43 l 0.2453817,0 31.8996163,0 0.245382,0 0,-0.245382 c 0,-1.1487 -0.67408,-1.941913 -1.610317,-2.484489 -0.06331,-0.03669 -0.133613,-0.07248 -0.199373,-0.107354 l 12.514465,0 0.904845,0 0,-0.904845 C 46,37.859435 45.101334,36.813538 44.052283,36.205995 43.003232,35.598453 41.762577,35.24914 40.57093,34.902405 39.379283,34.55567 38.242963,34.200011 37.50366,33.752179 36.764356,33.304346 36.445451,32.933796 36.445451,32.157198 l 0,-1.1809 C 39.254639,28.187074 41.037578,23.930375 41.629139,19.228651 42.659816,11.03681 36.201359,4.122342 29.268038,4.1223425 z m 0,1.8096898 c 5.699907,-5e-7 11.447805,5.9573697 10.551411,13.0819097 -0.573015,4.554315 -2.339049,8.614164 -4.892297,10.98083 l -0.291391,0.260718 0,0.398745 0,1.502963 c 0,1.431393 0.880207,2.521935 1.932381,3.159289 1.052175,0.637353 2.299696,0.985972 3.496689,1.334262 1.196991,0.348291 2.34018,0.689587 3.082607,1.119554 0.335653,0.19439 0.553399,0.382002 0.720809,0.582782 l -16.547926,0 c -0.400452,-0.156789 -0.780304,-0.32509 -1.104218,-0.521436 -0.852477,-0.516746 -1.364935,-1.162157 -1.364935,-2.177763 l 0,-1.733008 C 27.486091,31.33029 29.198581,27.192504 29.774137,22.617985 30.541094,16.522209 26.83352,11.20828 22.10596,9.2906938 24.054059,7.2121482 26.629768,5.9320323 29.268038,5.9320323 z" />
</defs>
<acyl-settings>
<linearGradient
     id="linearGradient4321">
    <stop
       style="stop-color:#00DEFF;stop-opacity:0.0;"
       offset="1.38777878078e-16"
       id="stop1" />
    <stop
       style="stop-color:#B3DEDE;stop-opacity:1.0;"
       offset="1.38777878078e-16"
       id="stop2" />
  </linearGradient>
<linearGradient
     inkscape:collect="always"
     xlink:href="#linearGradient4321"
     id="acyl_gradient"
     x1="50.0%"
     y1="0.0%"
     x2="50.0%"
     y2="100.0%" />
<filter>
    </filter>
<use id="1" style="fill:url(#acyl_gradient);filter:url(#filter1111)" xlink:href="#path-main" />
</acyl-settings>
</svg>
