<svg xmlns="http://www.w3.org/2000/svg" width="48" height="48">
<defs>
<defs
     id="defs4">
  </defs>
  <path
     id="path-main"
     d="m 20.333401,2.0000002 -0.785426,0.3366112 -5.932771,0 c -1.20204,0 -2.173947,0.971909 -2.173947,2.1739469 l 0,1.2342408 -8.1067186,3.4081878 C 2.2263853,9.618709 1.7047031,10.892005 2.1704249,12.000156 l 9.2708321,22.04803 0,5.890695 c 0,1.202038 0.971907,2.173946 2.173947,2.173946 l 1.206189,0 1.079961,2.552635 c 0.465722,1.108151 1.739016,1.629835 2.847169,1.164113 l 8.836043,-3.716748 12.833299,0 c 1.202039,0 2.159922,-0.971907 2.159922,-2.173946 l 0,-4.137512 0.883604,-0.364662 c 1.108155,-0.465721 1.61581,-1.724995 1.150088,-2.833144 L 42.591812,27.792829 42.619863,12.855709 32.058689,2.3225859 21.146878,2.3366114 20.333401,2.0000002 z m 7.195063,11.1923208 c 5.992931,-0.04286 4.857781,5.233746 8.022565,9.284857 -3.095968,-2.652779 -4.032445,-5.542114 -6.016924,-5.652262 l -0.09818,12.496688 c 0.01118,1.048111 -2.959434,2.219796 -5.301625,2.314202 -2.556333,0.103035 -4.474123,-0.986238 -4.474123,-2.692889 0,-2.697657 5.130973,-2.909821 7.868285,-2.061744 l 0,-13.688852 z m 12.24423,22.665149 c 0.550497,5e-6 0.988792,0.177076 1.318394,0.546994 0.329594,0.368171 0.490887,0.866074 0.490891,1.486699 -4e-6,0.618875 -0.161297,1.116778 -0.490891,1.486699 -0.329602,0.368169 -0.767897,0.546993 -1.318394,0.546993 -0.552254,0 -1.001068,-0.178824 -1.332419,-0.546993 -0.329599,-0.368168 -0.490892,-0.866071 -0.490891,-1.486699 -1e-6,-0.620625 0.161292,-1.118528 0.490891,-1.486699 0.331351,-0.369918 0.780165,-0.546989 1.332419,-0.546994 z m -13.941311,0.07013 0.603095,0 1.500724,3.92713 -0.561018,0 -0.350637,-1.009834 -1.781234,0 -0.350636,1.009834 -0.561019,0 1.500725,-3.92713 z m 2.608736,0 0.532968,0 0,2.384329 c -1e-6,0.420765 0.07188,0.725818 0.224407,0.911655 0.152526,0.184084 0.401478,0.266484 0.74335,0.266484 0.340115,0 0.59082,-0.0824 0.743349,-0.266484 0.152524,-0.185837 0.224405,-0.49089 0.224408,-0.911655 l 0,-2.384329 0.532967,0 0,2.454456 c -3e-6,0.51193 -0.124479,0.888864 -0.378687,1.150088 -0.252461,0.261224 -0.627642,0.392713 -1.122037,0.392713 -0.496153,0 -0.867827,-0.131489 -1.122037,-0.392713 -0.252459,-0.261224 -0.378688,-0.638158 -0.378688,-1.150088 l 0,-2.454456 z m 3.997257,0 1.093987,0 c 0.760878,4e-6 1.327156,0.159543 1.683055,0.476866 0.355893,0.315576 0.532964,0.799454 0.532968,1.472673 -4e-6,0.67673 -0.175322,1.1834 -0.532968,1.500725 -0.357652,0.317326 -0.925683,0.476866 -1.683055,0.476866 l -1.093987,0 0,-3.92713 z m 4.151538,0 0.532967,0 0,3.92713 -0.532967,0 0,-3.92713 z m 3.18378,0.350636 c -0.385702,4e-6 -0.697768,0.147271 -0.925681,0.43479 -0.226161,0.287524 -0.336612,0.681991 -0.336611,1.178139 -10e-7,0.494399 0.11045,0.890618 0.336611,1.178139 0.227913,0.287522 0.539979,0.420764 0.925681,0.420764 0.385698,0 0.687245,-0.133242 0.911655,-0.420764 0.226158,-0.287521 0.336608,-0.68374 0.336611,-1.178139 -3e-6,-0.496148 -0.110453,-0.890615 -0.336611,-1.178139 -0.22441,-0.287519 -0.525957,-0.434786 -0.911655,-0.43479 z m -6.80235,0.08415 0,3.057551 0.645171,0 c 0.541731,1e-6 0.941457,-0.133241 1.192165,-0.378687 0.252455,-0.245445 0.378684,-0.634651 0.378687,-1.164114 -3e-6,-0.525952 -0.126232,-0.906393 -0.378687,-1.150088 -0.250708,-0.245442 -0.650434,-0.364658 -1.192165,-0.364662 l -0.645171,0 z m -6.844427,0.08415 -0.715298,1.949539 1.444623,0 -0.729325,-1.949539 z" />
</defs>
<acyl-settings>
<linearGradient
     id="linearGradient4321">
    <stop
       style="stop-color:#00DEFF;stop-opacity:0.0;"
       offset="1.38777878078e-16"
       id="stop1" />
    <stop
       style="stop-color:#B3DEDE;stop-opacity:1.0;"
       offset="1.38777878078e-16"
       id="stop2" />
  </linearGradient>
<linearGradient
     inkscape:collect="always"
     xlink:href="#linearGradient4321"
     id="acyl_gradient"
     x1="50.0%"
     y1="0.0%"
     x2="50.0%"
     y2="100.0%" />
<filter>
    </filter>
<use id="1" style="fill:url(#acyl_gradient);filter:url(#filter1111)" xlink:href="#path-main" />
</acyl-settings>
</svg>
