<svg xmlns="http://www.w3.org/2000/svg" width="48" height="48">
<defs>
<defs
     id="defs1874">
  </defs>
  <path
     d="M 24,2 C 11.849736,2 2,11.846433 2,24 2,36.153566 11.849736,46 24,46 36.150264,46 46,36.153566 46,24 46,11.846433 36.150264,2 24,2 z m 0.229167,3.7532808 C 34.194225,5.7532807 42.276042,13.93321 42.276042,24 c 0,10.066791 -8.081817,18.246719 -18.046875,18.246719 C 14.264106,42.246721 6.1536458,34.06679 6.1536458,24 6.153646,13.933211 14.264106,5.7532808 24.229167,5.7532808 z m 0,2.0498688 C 15.36565,7.8031496 8.1875002,15.03729 8.1875,24 c 0,8.962711 7.178149,16.196851 16.041667,16.19685 8.863516,0 16.01302,-7.234138 16.01302,-16.19685 0,-8.962711 -7.149505,-16.1968506 -16.01302,-16.1968504 z m -2.75,5.2834644 c 0.08011,-0.01312 0.175024,-0.0076 0.257812,0 0.374361,0.02502 0.690338,0.255634 0.830729,0.606299 0.140392,0.350664 0.08042,0.759502 -0.171875,1.03937 -1.332745,1.619027 -1.849916,2.233404 -2.348958,2.829397 l 10.054687,0 c 0.06668,-0.0067 0.133847,-0.0067 0.200521,0 0.535725,0.07622 0.91321,0.554524 0.859375,1.097113 -0.05383,0.54259 -0.519806,0.956096 -1.059896,0.923884 l -9.768229,0 1.776042,2.425197 c 0.241543,0.281227 0.31224,0.666494 0.171875,1.010499 -0.140366,0.344006 -0.462769,0.577702 -0.830729,0.606299 -0.367959,0.0286 -0.725634,-0.143694 -0.916667,-0.461942 l -3.151041,-4.301838 c -0.259579,-0.369462 -0.235946,-0.869666 0.05729,-1.212598 1e-6,1e-6 -0.01322,0.0056 3.4375,-4.186352 0.153361,-0.198205 0.361221,-0.335972 0.601563,-0.375328 z m 5.614583,11.837271 c 0.331149,-0.03034 0.654894,0.111053 0.859375,0.375328 3.450723,4.191955 3.4375,4.186351 3.4375,4.186351 0.293237,0.342932 0.316871,0.843135 0.05729,1.212599 L 28.296873,35 c -0.191033,0.318249 -0.548707,0.490542 -0.916667,0.461942 -0.36796,-0.02859 -0.690362,-0.262293 -0.830729,-0.606299 -0.140365,-0.344005 -0.06967,-0.729273 0.171875,-1.010499 l 1.776042,-2.425196 -9.768229,0 c -0.54009,0.03222 -1.006061,-0.381296 -1.059896,-0.923885 -0.05383,-0.542589 0.323651,-1.020896 0.859375,-1.097113 0.06667,-0.0067 0.133846,-0.0067 0.200521,0 l 10.054687,0 C 28.28481,28.802958 27.76764,28.18858 26.434894,26.569554 26.182596,26.289685 26.122628,25.880848 26.263019,25.530184 26.40341,25.179519 26.719388,24.9489 27.093748,24.923885 z"
     id="path-main"
      />
</defs>
<acyl-settings>
<linearGradient
     id="linearGradient4321">
    <stop
       style="stop-color:#00DEFF;stop-opacity:0.0;"
       offset="1.38777878078e-16"
       id="stop1" />
    <stop
       style="stop-color:#B3DEDE;stop-opacity:1.0;"
       offset="1.38777878078e-16"
       id="stop2" />
  </linearGradient>
<linearGradient
     inkscape:collect="always"
     xlink:href="#linearGradient4321"
     id="acyl_gradient"
     x1="50.0%"
     y1="0.0%"
     x2="50.0%"
     y2="100.0%" />
<filter>
    </filter>
<use id="1" style="fill:url(#acyl_gradient);filter:url(#filter1111)" xlink:href="#path-main" />
</acyl-settings>
</svg>
