<svg xmlns="http://www.w3.org/2000/svg" width="48" height="48">
<defs>
  <path
     d="M 3.84375 7.125 C 2.823171 7.125 2 7.948173 2 8.96875 L 2 39.03125 C 2 40.05183 2.823171 40.875 3.84375 40.875 L 44.15625 40.875 C 45.176828 40.875 46 40.05183 46 39.03125 L 46 10.78125 C 46 9.7606715 45.176828 8.9375 44.15625 8.9375 L 15.6875 8.9375 L 14.0625 7.125 L 3.84375 7.125 z M 25.9375 13.28125 C 26.858844 13.28305 27.786482 13.41537 28.71875 13.65625 C 28.74216 13.66235 28.7891 13.65005 28.8125 13.65625 C 34.801233 15.244161 38.337908 21.417522 36.75 27.40625 C 35.162096 33.394984 29.019982 36.931658 23.03125 35.34375 C 21.795818 35.016176 20.69313 34.486844 19.6875 33.8125 C 19.65686 33.915229 19.62792 33.989018 19.59375 34.09375 C 19.445157 34.549219 19.239657 35.036171 18.9375 35.4375 C 18.635345 35.838828 18.230314 36.172638 17.65625 36.28125 C 16.52337 36.49558 15.580146 35.810425 14.8125 35.1875 C 14.044856 34.564576 13.373621 34.009308 12.78125 33.9375 C 12.059665 33.85004 11.725829 33.993632 11.4375 34.1875 C 11.149169 34.38138 10.919276 34.689703 10.4375 34.875 L 10.0625 34.03125 C 10.220666 33.97042 10.480802 33.692325 10.90625 33.40625 C 11.331699 33.120172 11.972125 32.890561 12.875 33 C 13.907088 33.125106 14.672499 33.873327 15.40625 34.46875 C 16.140003 35.064172 16.811518 35.536505 17.5 35.40625 C 17.83662 35.34257 18.019412 35.139761 18.21875 34.875 C 18.418085 34.610238 18.58429 34.224643 18.71875 33.8125 C 18.78201 33.618601 18.817962 33.45009 18.875 33.25 C 15.535393 30.552554 13.89174 26.040473 15.0625 21.625 C 16.397064 16.591748 20.962239 13.271813 25.9375 13.28125 z M 23.28125 15.0625 C 22.975797 15.08194 22.643953 15.165107 22.34375 15.28125 C 20.766537 15.891421 19.983581 17.704039 20.59375 19.28125 C 21.203918 20.858462 22.985288 21.610168 24.5625 21 C 26.139716 20.38983 26.922673 18.639714 26.3125 17.0625 C 25.938294 16.095226 25.092444 15.388478 24.15625 15.15625 C 23.864924 15.08685 23.586701 15.04307 23.28125 15.0625 z M 31.21875 17.125 C 30.529563 17.1193 29.825638 17.343864 29.25 17.8125 C 27.938531 18.880195 27.74481 20.844785 28.8125 22.15625 C 29.880192 23.467713 31.813538 23.598946 33.125 22.53125 C 34.436467 21.463556 34.692695 19.561466 33.625 18.25 C 33.18708 17.712092 32.532304 17.371489 31.90625 17.21875 C 31.682585 17.16585 31.448479 17.1268 31.21875 17.125 z M 18.9375 21.8125 C 17.248927 21.90541 15.938332 23.373934 16.03125 25.0625 C 16.12417 26.751073 17.592682 28.061669 19.28125 27.96875 C 20.969823 27.87584 22.217918 26.376074 22.125 24.6875 C 22.05022 23.328731 21.154647 22.268479 19.90625 21.9375 C 19.8873 21.9324 19.86281 21.91089 19.84375 21.90625 C 19.557749 21.83633 19.246687 21.79549 18.9375 21.8125 z M 25.9375 23.3125 C 25.388894 23.3053 24.865724 23.601942 24.71875 24.15625 C 24.54538 24.810105 24.97114 25.514129 25.625 25.6875 C 26.278855 25.860867 26.920382 25.466355 27.09375 24.8125 C 27.267119 24.158641 26.872607 23.485875 26.21875 23.3125 C 26.20087 23.3076 26.20538 23.3164 26.1875 23.3125 C 26.10824 23.29572 26.015876 23.3135 25.9375 23.3125 z M 31.4375 25.125 C 30.505928 25.18908 29.576231 25.68723 29.03125 26.53125 C 28.113908 27.95195 28.548048 29.863908 29.96875 30.78125 C 31.389449 31.698594 33.301404 31.264456 34.21875 29.84375 C 35.136097 28.423049 34.701953 26.542345 33.28125 25.625 C 33.003773 25.445831 32.740502 25.330354 32.4375 25.25 C 32.41799 25.2448 32.36331 25.22353 32.34375 25.21875 C 32.035617 25.14353 31.748024 25.10364 31.4375 25.125 z M 24 28.03125 C 22.713603 28.10555 21.504291 28.999879 21.15625 30.3125 C 20.722825 31.947141 21.740353 33.629072 23.375 34.0625 C 25.009643 34.495926 26.660331 33.509638 27.09375 31.875 C 27.527176 30.240355 26.572139 28.558422 24.9375 28.125 C 24.9247 28.1216 24.8878 28.1283 24.875 28.125 C 24.571931 28.05076 24.29686 28.01409 24 28.03125 z "
     id="path-main" />
</defs>
<acyl-settings>
<linearGradient
     id="linearGradient4321">
    <stop
       style="stop-color:#00DEFF;stop-opacity:0.0;"
       offset="1.38777878078e-16"
       id="stop1" />
    <stop
       style="stop-color:#B3DEDE;stop-opacity:1.0;"
       offset="1.38777878078e-16"
       id="stop2" />
  </linearGradient>
<linearGradient
     inkscape:collect="always"
     xlink:href="#linearGradient4321"
     id="acyl_gradient"
     x1="50.0%"
     y1="0.0%"
     x2="50.0%"
     y2="100.0%" />
<filter>
    </filter>
<use id="1" style="fill:url(#acyl_gradient);filter:url(#filter1111)" xlink:href="#path-main" />
</acyl-settings>
</svg>
