<svg xmlns="http://www.w3.org/2000/svg" width="48" height="48">
<defs>
<defs
     id="defs3">
  </defs>
  <path
     d="m 9.09375,6.8125 0,35.46875 29.15625,0 0,-14.34375 6.59375,-2.46875 0.28125,-0.125 L 44.8125,25.25 38.25,22.8125 l 0,-6.875 -8.96875,-9.125 -20.1875,0 z m 19.125,2.9375 7.3125,7.625 0,4.40625 -4.28125,-1.59375 -0.5625,-0.21875 0,0.34375 0,2.25 -10.46875,0 -0.34375,0 0,0.15625 0,5.25 0,0.15625 0.34375,0 10.46875,0 0,2.3125 0,0.3125 0.5625,-0.21875 4.28125,-1.59375 0,10.40625 -23.71875,0 0.03125,-29.5625 16.375,-0.03125 z"
     id="path-main"
      />
</defs>
<acyl-settings>
<linearGradient
     id="linearGradient4321">
    <stop
       style="stop-color:#00DEFF;stop-opacity:0.0;"
       offset="1.38777878078e-16"
       id="stop1" />
    <stop
       style="stop-color:#B3DEDE;stop-opacity:1.0;"
       offset="1.38777878078e-16"
       id="stop2" />
  </linearGradient>
<linearGradient
     inkscape:collect="always"
     xlink:href="#linearGradient4321"
     id="acyl_gradient"
     x1="50.0%"
     y1="0.0%"
     x2="50.0%"
     y2="100.0%" />
<filter>
    </filter>
<use id="1" style="fill:url(#acyl_gradient);filter:url(#filter1111)" xlink:href="#path-main" />
</acyl-settings>
</svg>
