<svg xmlns="http://www.w3.org/2000/svg" width="48" height="48">
<defs>
  <path
     d="m 16.40668,2.0224588 c -2.24263,0.027562 -3.445108,1.464117 -3.981254,2.8175023 -0.536145,1.3533854 -0.520625,2.6950022 -0.520625,2.6950022 0.01622,0.2585804 0.230913,0.4598576 0.49,0.4593754 l 22.815644,0 0,2.0212513 -2.817502,0 c -0.270609,2.8e-5 -0.489973,0.219392 -0.490001,0.490001 l 0,1.929376 c 2.8e-5,0.270609 0.219392,0.489973 0.490001,0.490001 l 2.817502,0 0,0.888126 -2.817502,0 c -0.270609,2.7e-5 -0.489973,0.219391 -0.490001,0.49 l 0,1.715001 c 2.8e-5,0.270609 0.219392,0.489973 0.490001,0.490001 l 2.817502,0 0,1.071876 -2.817502,0 c -0.270609,2.7e-5 -0.489973,0.219391 -0.490001,0.49 l 0,1.806876 c 2.8e-5,0.270609 0.219392,0.489973 0.490001,0.490001 l 2.817502,0 0,0.918751 -2.817502,0 c -0.270609,2.7e-5 -0.489973,0.219391 -0.490001,0.49 l 0,1.745626 c 2.8e-5,0.270609 0.219392,0.489973 0.490001,0.490001 l 2.817502,0 0,1.010626 -2.817502,0 c -0.270609,2.7e-5 -0.489973,0.219392 -0.490001,0.49 l 0,1.868127 c 2.8e-5,0.270608 0.219392,0.489973 0.490001,0.49 l 2.817502,0 0,0.949376 -2.817502,0 c -0.270609,2.7e-5 -0.489973,0.219392 -0.490001,0.49 l 0,1.806877 c 2.8e-5,0.270608 0.219392,0.489973 0.490001,0.49 l 2.817502,0 0,0.857501 -2.817502,0 c -0.270609,2.7e-5 -0.489973,0.219392 -0.490001,0.49 l 0,1.745627 c 2.8e-5,0.270608 0.219392,0.489973 0.490001,0.49 l 2.817502,0 0,1.561876 c -0.43913,-0.0038 -4.905808,-0.03978 -10.198133,-0.06125 -5.546604,-0.0225 -11.462711,-0.03206 -13.199386,0.06125 -0.247206,0.01504 -0.444331,0.21217 -0.459376,0.459376 -0.153174,2.290178 0.761015,3.79825 1.715002,4.655004 0.953986,0.856754 1.960001,1.102501 1.960001,1.102501 0.03934,0.01544 0.08052,0.02574 0.122501,0.03063 l 20.059391,0 0,2.511252 c 2.7e-5,0.270608 0.219392,0.489973 0.49,0.49 l 3.430003,0 c 0.270609,-2.7e-5 0.489973,-0.219392 0.490001,-0.49 l 0,-2.603128 c 2.210717,-0.257652 3.491824,-1.602285 4.073128,-2.909377 0.626094,-1.407804 0.612501,-2.756252 0.612501,-2.756252 -2.8e-5,-0.270609 -0.219392,-0.489973 -0.490001,-0.490001 l -4.195628,0 0,-1.561876 2.848127,0 c 0.270609,-2.7e-5 0.489973,-0.219392 0.49,-0.49 l 0,-1.745627 c -2.7e-5,-0.270608 -0.219391,-0.489973 -0.49,-0.49 l -2.848127,0 0,-0.857501 2.848127,0 c 0.270609,-2.7e-5 0.489973,-0.219392 0.49,-0.49 l 0,-1.806877 c -2.7e-5,-0.270608 -0.219391,-0.489973 -0.49,-0.49 l -2.848127,0 0,-0.949376 2.848127,0 c 0.270609,-2.7e-5 0.489973,-0.219392 0.49,-0.49 l 0,-1.868127 c -2.7e-5,-0.270608 -0.219391,-0.489973 -0.49,-0.49 l -2.848127,0 0,-1.010626 2.848127,0 c 0.270609,-2.8e-5 0.489973,-0.219392 0.49,-0.490001 l 0,-1.745626 c -2.7e-5,-0.270609 -0.219391,-0.489973 -0.49,-0.49 l -2.848127,0 0,-0.918751 2.848127,0 c 0.270609,-2.8e-5 0.489973,-0.219392 0.49,-0.490001 l 0,-1.806876 c -2.7e-5,-0.270609 -0.219391,-0.489973 -0.49,-0.49 l -2.848127,0 0,-1.071876 2.848127,0 c 0.270609,-2.8e-5 0.489973,-0.219392 0.49,-0.490001 l 0,-1.715001 c -2.7e-5,-0.270609 -0.219391,-0.489973 -0.49,-0.49 l -2.848127,0 0,-0.888126 2.848127,0 c 0.270609,-2.8e-5 0.489973,-0.219392 0.49,-0.490001 l 0,-1.929376 c -2.7e-5,-0.270609 -0.219391,-0.489973 -0.49,-0.490001 l -2.848127,0 0,-2.0212513 4.134378,0 c 0.259088,4.822e-4 0.473783,-0.200795 0.49,-0.4593754 0.05732,-2.4179591 -0.881984,-3.8614936 -1.868126,-4.6243788 -0.986143,-0.7628852 -2.021252,-0.8881257 -2.021252,-0.8881257 -0.02039,-0.00127 -0.04086,-0.00127 -0.06125,0 0,0 -19.775044,-0.050544 -23.887519,0 z"
     id="path-main"
      />
</defs>
<acyl-settings>
<linearGradient
     id="linearGradient4321">
    <stop
       style="stop-color:#00DEFF;stop-opacity:0.0;"
       offset="1.38777878078e-16"
       id="stop1" />
    <stop
       style="stop-color:#B3DEDE;stop-opacity:1.0;"
       offset="1.38777878078e-16"
       id="stop2" />
  </linearGradient>
<linearGradient
     inkscape:collect="always"
     xlink:href="#linearGradient4321"
     id="acyl_gradient"
     x1="50.0%"
     y1="0.0%"
     x2="50.0%"
     y2="100.0%" />
<filter>
    </filter>
<use id="1" style="fill:url(#acyl_gradient);filter:url(#filter1111)" xlink:href="#path-main" />
</acyl-settings>
</svg>
