<svg xmlns="http://www.w3.org/2000/svg" width="48" height="48">
<defs>
<defs
   id="defs23">
</defs>
	<path
   
   d="m 17.3125,2.5 -13.59375,31.8125 10.4375,0 3.0625,-8.15625 12.90625,0 3.375,8.15625 10.875,0 L 30.46875,2.5 17.3125,2.5 z m 6,5.3125 0.25,0 c 0.679399,1.9249644 4.96875,12.90625 4.96875,12.90625 l -9.84375,0 c 0,0 4.058834,-10.9812856 4.625,-12.90625 z M 3.71875,39.75 l 0,5.75 40.5625,0 0.09375,0 0,-5.75 -40.65625,0 z"
   id="path-main" />	
</defs>
<acyl-settings>
<linearGradient
     id="linearGradient4321">
    <stop
       style="stop-color:#00DEFF;stop-opacity:0.0;"
       offset="1.38777878078e-16"
       id="stop1" />
    <stop
       style="stop-color:#B3DEDE;stop-opacity:1.0;"
       offset="1.38777878078e-16"
       id="stop2" />
  </linearGradient>
<linearGradient
     inkscape:collect="always"
     xlink:href="#linearGradient4321"
     id="acyl_gradient"
     x1="50.0%"
     y1="0.0%"
     x2="50.0%"
     y2="100.0%" />
<filter>
    </filter>
<use id="1" style="fill:url(#acyl_gradient);filter:url(#filter1111)" xlink:href="#path-main" />
</acyl-settings>
</svg>
