<svg xmlns="http://www.w3.org/2000/svg" width="48" height="48">
<defs>
<defs
   id="defs27">
</defs>
	<path
   d="m 24.617385,4.4122177 c -1.9328,0 -3.855603,0.1340079 -4.87885,0.3613963 l 0.210815,0 0,16.594114 c 0.795859,0.113694 2.163024,0.210815 4.095825,0.210814 3.29713,0 5.344848,-0.452455 6.595482,-1.475701 1.023248,-0.909554 1.716633,-2.052362 1.716633,-3.64408 0,-2.273883 -1.500464,-3.731397 -3.433265,-4.186174 1.819106,-0.795859 2.740588,-2.166055 2.740588,-3.6440791 0,-1.4780241 -0.91097,-2.7443288 -2.047912,-3.3127995 C 28.366065,4.6335435 26.891269,4.4122176 24.617385,4.4122177 z M 7.21013,4.5326831 2,21.367728 l 4.0958248,0 1.1143052,-4.336756 0,0.120465 4.908967,0 1.23477,4.336756 4.095825,0 -5.240246,-16.9555099 -4.999316,0 z m 16.835045,2.7405886 c 0.270023,-0.014212 0.626027,0 1.023956,0 1.705413,0 2.740588,0.6768114 2.740588,1.927447 0,1.2506353 -1.025374,2.0479123 -3.071868,2.0479123 l -1.264887,0 0,-3.8850102 c 0.113694,-0.056847 0.302187,-0.076137 0.572211,-0.090349 z m -14.5462017,0.090349 0.1204654,0 C 9.8468271,8.3868683 10.175076,9.653173 10.402464,10.67642 l 1.023956,3.523614 0,0.120466 -3.7645446,0 1.0239562,-3.64408 C 9.0269141,9.6531728 9.271585,8.3868684 9.4989733,7.3636208 z m 14.0944557,6.5954823 1.234771,0 c 1.9328,0 3.433265,0.703896 3.433265,2.409309 0,1.819106 -1.607387,2.499658 -3.3128,2.499658 -0.682165,0 -1.134619,-0.0068 -1.475701,-0.120466 l 0.120465,0 0,-4.788501 z m 15.690623,0.120466 c 10e-7,0 -12.885343,12.885343 -17.738535,17.738535 -3.183436,-3.183438 -7.378508,-7.378508 -7.378508,-7.378508 L 7.4510609,31.125428 21.545517,45.25 46,20.795517 39.284052,14.079569 z"
   id="path-main"
    />
</defs>
<acyl-settings>
<linearGradient
     id="linearGradient4321">
    <stop
       style="stop-color:#00DEFF;stop-opacity:0.0;"
       offset="1.38777878078e-16"
       id="stop1" />
    <stop
       style="stop-color:#B3DEDE;stop-opacity:1.0;"
       offset="1.38777878078e-16"
       id="stop2" />
  </linearGradient>
<linearGradient
     inkscape:collect="always"
     xlink:href="#linearGradient4321"
     id="acyl_gradient"
     x1="50.0%"
     y1="0.0%"
     x2="50.0%"
     y2="100.0%" />
<filter>
    </filter>
<use id="1" style="fill:url(#acyl_gradient);filter:url(#filter1111)" xlink:href="#path-main" />
</acyl-settings>
</svg>
