<svg xmlns="http://www.w3.org/2000/svg" width="48" height="48">
<defs>
<defs
     id="defs4">
  </defs>
  <path
     d="m 4,4 0,0.5 0,13 0,0.5 0.5,0 9.65625,0 c 2.110013,0 3.825492,0.65873 5,1.78125 C 20.330758,20.90377 21,22.50254 21,24.5 l 0,2.5 -8.21875,0 -1.125,0 0.75,0.84375 15.21875,16.5 L 28,44.75 28.375,44.34375 43.65625,27.84375 44.4375,27 43.28125,27 35,27 35,24.5 C 35,13.31205 25.867803,4 14.15625,4 L 4.5,4 4,4 z"
     id="path-main"
      />
</defs>
<acyl-settings>
<linearGradient
     id="linearGradient4321">
    <stop
       style="stop-color:#00DEFF;stop-opacity:0.0;"
       offset="1.38777878078e-16"
       id="stop1" />
    <stop
       style="stop-color:#B3DEDE;stop-opacity:1.0;"
       offset="1.38777878078e-16"
       id="stop2" />
  </linearGradient>
<linearGradient
     inkscape:collect="always"
     xlink:href="#linearGradient4321"
     id="acyl_gradient"
     x1="50.0%"
     y1="0.0%"
     x2="50.0%"
     y2="100.0%" />
<filter>
    </filter>
<use id="1" style="fill:url(#acyl_gradient);filter:url(#filter1111)" xlink:href="#path-main" />
</acyl-settings>
</svg>
