<svg xmlns="http://www.w3.org/2000/svg" width="48" height="48">
<defs>
  <path
     d="M 19.71875,2.0027109 C 18.821355,2.0935053 18.125,2.8607656 18.125,3.7838512 l 0,2.6560863 11.65625,0 c 0.327806,-1.36e-4 0.676018,0.1416215 0.90625,0.3749769 l 7.75,7.7807706 c 0.225497,0.229295 0.343888,0.553343 0.34375,0.874946 l 0,19.15507 2.6875,0 c 0.984581,0 1.78125,-0.796511 1.78125,-1.78114 0,-7.687027 0,-15.374053 0,-23.0610795 l -7.75,-7.7807706 -0.03125,0 c -5.197917,0 -10.395833,0 -15.59375,0 -0.06153,0 -0.09642,-0.0061 -0.15625,0 z m -5.6875,5.6871496 C 13.133854,7.7806549 12.4375,8.5479151 12.4375,9.4710008 l 0,2.6560862 11.6875,0 c 0.327805,-1.36e-4 0.644767,0.14162 0.875,0.374977 l 7.75,7.780771 c 0.225496,0.229295 0.343889,0.553339 0.34375,0.874946 l 0,19.155069 2.6875,0 c 0.98458,0 1.78125,-0.796511 1.78125,-1.78114 l 0,-23.061079 -7.75,-7.7807705 -0.03125,0 -15.59375,0 c -0.06153,0 -0.09642,-0.0061 -0.15625,0 z M 8.34375,13.37701 C 7.4463543,13.467805 6.75,14.235063 6.75,15.15815 l 0,29.06071 C 6.75,45.203478 7.5466676,46 8.53125,46 l 21.5625,0 c 0.984579,0 1.78125,-0.796522 1.78125,-1.78114 l 0,-23.061079 -7.75,-7.749523 -0.03125,-0.03125 -15.5625,0 c -0.061533,0 -0.1276744,-0.0061 -0.1875,0 z m 7.84375,11.53054 6.28125,4.593467 0,0.906194 0,2.43735 0,6.687088 c 0,0.859337 -1.260644,1.562403 -2.84375,1.562403 -1.583109,0 -2.875,-0.703066 -2.875,-1.562403 0,-0.859327 1.291891,-1.531156 2.875,-1.531156 0.626158,0 1.184739,0.0963 1.65625,0.281233 l 0,-6.312112 -3.90625,-2.843574 0,6.562095 c 0,0.859337 -1.291893,1.562404 -2.875,1.562404 -1.58311,0 -2.875,-0.703067 -2.875,-1.562404 0,-0.859327 1.29189,-1.562403 2.875,-1.562403 0.626159,0 1.215988,0.127562 1.6875,0.31248 l 0,-6.187118 z"
     id="path-main" />
</defs>
<acyl-settings>
<linearGradient
     id="linearGradient4321">
    <stop
       style="stop-color:#00DEFF;stop-opacity:0.0;"
       offset="1.38777878078e-16"
       id="stop1" />
    <stop
       style="stop-color:#B3DEDE;stop-opacity:1.0;"
       offset="1.38777878078e-16"
       id="stop2" />
  </linearGradient>
<linearGradient
     inkscape:collect="always"
     xlink:href="#linearGradient4321"
     id="acyl_gradient"
     x1="50.0%"
     y1="0.0%"
     x2="50.0%"
     y2="100.0%" />
<filter>
    </filter>
<use id="1" style="fill:url(#acyl_gradient);filter:url(#filter1111)" xlink:href="#path-main" />
</acyl-settings>
</svg>
