<svg xmlns="http://www.w3.org/2000/svg" width="48" height="48">
<defs>
<defs
     id="defs1308">
  </defs>
  <path
     id="path-main"
     d="M 5.4596774,3.8275715 C 3.1433508,3.8275715 2,4.9953895 2,7.3168189 l 0,37.1397851 44,0 0,-37.1397851 C 46,4.9953893 44.85665,3.8275715 42.540323,3.8275715 l -37.0806456,0 z m 2.3360215,4.6424732 32.4086021,0 c 0.686193,10e-8 1.182796,0.4655233 1.182796,1.1532261 l 0,29.0080642 c 1e-6,0.687702 -0.496605,1.182796 -1.182796,1.182796 l -32.4086021,0 c -0.6861905,0 -1.1827957,-0.495095 -1.1827957,-1.182796 l 0,-29.0080642 c 1e-7,-0.6877031 0.496605,-1.1532261 1.1827957,-1.1532261 z m -0.1478494,2.9569893 0,5.677419 32.7043015,0 0,-5.677419 -32.7043015,0 z m 14.4596775,8.634409 0,7.392473 -7.362903,0 0,3.784946 7.362903,0 0,7.392473 3.784946,0 0,-7.392473 7.362903,0 0,-3.784946 -7.362903,0 0,-7.392473 -3.784946,0 z" />
</defs>
<acyl-settings>
<linearGradient
     id="linearGradient4321">
    <stop
       style="stop-color:#00DEFF;stop-opacity:0.0;"
       offset="1.38777878078e-16"
       id="stop1" />
    <stop
       style="stop-color:#B3DEDE;stop-opacity:1.0;"
       offset="1.38777878078e-16"
       id="stop2" />
  </linearGradient>
<linearGradient
     inkscape:collect="always"
     xlink:href="#linearGradient4321"
     id="acyl_gradient"
     x1="50.0%"
     y1="0.0%"
     x2="50.0%"
     y2="100.0%" />
<filter>
    </filter>
<use id="1" style="fill:url(#acyl_gradient);filter:url(#filter1111)" xlink:href="#path-main" />
</acyl-settings>
</svg>
