<svg xmlns="http://www.w3.org/2000/svg" width="48" height="48">
<defs>
<defs
     id="defs2385" />
  <g
     id="layer1">
    <path
       d="M 13.09375,4.59375 C 12.693018,4.5937501 12.40625,4.8950423 12.40625,5.28125 L 12.40625,41.90625 C 12.40625,42.292463 12.693018,42.59375 13.09375,42.59375 L 23,42.59375 L 23,43.125 C 22.398806,43.391409 21.896563,43.885239 21.65625,44.5 L 2.5,44.5 C 2.4687672,44.498534 2.4374828,44.498534 2.40625,44.5 C 1.8539653,44.525888 1.4428616,45.010215 1.46875,45.5625 C 1.4946383,46.114785 1.9477153,46.525888 2.5,46.5 L 21.75,46.5 C 22.156248,47.331516 23.012769,47.906249 24,47.90625 C 24.987231,47.90625 25.843752,47.331516 26.25,46.5 L 45.46875,46.5 C 45.829386,46.5051 46.161943,46.311498 46.34375,46 C 46.525556,45.688502 46.525556,45.311497 46.34375,45 C 46.161943,44.688503 45.829386,44.4949 45.46875,44.5 L 26.34375,44.5 C 26.103438,43.885239 25.601194,43.391409 25,43.125 L 25,41.53125 L 36.40625,30.78125 L 36.40625,16.78125 L 23.5,4.59375 L 13.09375,4.59375 z M 25.53125,4.59375 L 36.40625,14.84375 L 36.40625,5.28125 C 36.406248,4.8950423 36.056977,4.59375 35.65625,4.59375 L 25.53125,4.59375 z M 19.59375,14.34375 C 20.010308,14.338556 20.462669,14.349778 20.9375,14.40625 C 21.887162,14.519194 22.92427,14.801566 24.0625,15.28125 C 24.288475,15.376482 24.471543,15.41248 24.6875,15.5 C 26.425327,16.204287 27.90071,16.71358 29,16.875 C 30.214587,17.053351 30.974542,16.867248 31.625,16.4375 C 31.967665,16.166634 32.419602,16.121664 32.8125,16.3125 C 33.205399,16.503337 33.469803,16.906958 33.46875,17.34375 L 33.53125,23.9375 C 33.566434,24.098032 33.566435,24.276968 33.53125,24.4375 L 33.625,30.375 C 33.645048,30.497108 33.645047,30.627893 33.625,30.75 C 33.625102,30.75878 33.625101,30.772469 33.625,30.78125 C 33.617519,30.812338 33.60382,30.844653 33.59375,30.875 C 33.574436,30.947681 33.533239,30.99504 33.5,31.0625 C 33.495723,31.071337 33.504502,31.085027 33.5,31.09375 C 33.487857,31.120593 33.482937,31.161679 33.46875,31.1875 C 33.464396,31.191926 33.441927,31.183145 33.4375,31.1875 C 33.421046,31.214563 33.393652,31.255653 33.375,31.28125 C 33.358259,31.303844 33.330868,31.322457 33.3125,31.34375 C 33.303864,31.352674 33.290172,31.366364 33.28125,31.375 C 33.259957,31.393368 33.241343,31.420759 33.21875,31.4375 C 33.111224,31.534962 32.979825,31.605812 32.84375,31.65625 C 32.832031,31.663175 32.824263,31.680678 32.8125,31.6875 C 31.699789,32.33287 30.404385,32.534022 29,32.34375 C 27.465599,32.135862 25.743584,31.549081 23.625,30.65625 C 20.21277,29.218238 17.955895,30.06525 17.53125,30.25 C 17.526896,30.254426 17.504427,30.276896 17.5,30.28125 C 17.20621,30.49004 16.842699,30.549137 16.5,30.4375 C 16.1573,30.325863 15.895689,30.029274 15.78125,29.6875 C 15.776746,29.678777 15.754277,29.696336 15.75,29.6875 C 15.731015,29.622945 15.726055,29.535641 15.71875,29.46875 C 15.712291,29.429496 15.689815,29.383466 15.6875,29.34375 L 15.6875,29.25 L 15.53125,16.28125 C 15.528173,16.233007 15.528173,16.173243 15.53125,16.125 C 15.530005,16.094281 15.530005,16.061968 15.53125,16.03125 C 15.540069,15.845362 15.592538,15.691295 15.6875,15.53125 C 15.691854,15.526824 15.714324,15.504355 15.71875,15.5 C 15.776575,15.406873 15.855572,15.322831 15.9375,15.25 C 16.079506,15.121483 16.251165,15.044294 16.4375,15 C 16.752011,14.853138 17.37813,14.586177 18.4375,14.4375 C 18.785677,14.388635 19.177192,14.348944 19.59375,14.34375 z M 19.625,16.625 C 19.308575,16.633491 19.009565,16.651071 18.75,16.6875 C 18.326761,16.746899 18.054257,16.83022 17.8125,16.90625 L 17.875,21.375 C 19.105564,21.087675 20.918991,20.919606 23.1875,21.59375 L 23.15625,17.34375 C 22.236013,16.962032 21.383555,16.74254 20.65625,16.65625 C 20.284951,16.612198 19.941425,16.616509 19.625,16.625 z M 25.40625,18.21875 L 25.46875,22.40625 C 26.981372,23.007895 28.266462,23.500462 29.21875,23.65625 C 30.118823,23.803496 30.713501,23.695105 31.25,23.46875 L 31.1875,19.03125 C 30.392151,19.206431 29.548552,19.256027 28.65625,19.125 C 27.674652,18.980861 26.56631,18.632864 25.40625,18.21875 z M 19.875,23.34375 C 19.570603,23.34268 19.282222,23.37355 19.03125,23.40625 C 18.538419,23.470462 18.185886,23.560217 17.90625,23.65625 L 17.96875,27.84375 C 19.210534,27.592603 21.032352,27.452234 23.28125,28.125 L 23.21875,24.03125 C 21.919787,23.531408 20.78819,23.346959 19.875,23.34375 z M 25.5,24.875 L 25.5625,28.9375 C 27.072782,29.529362 28.339525,29.966161 29.28125,30.09375 C 30.178567,30.215323 30.791392,30.092533 31.34375,29.84375 L 31.28125,25.84375 C 30.517698,26.000212 29.717172,26.012774 28.875,25.875 C 27.86432,25.709659 26.722011,25.334985 25.5,24.875 z M 36.40625,32.6875 L 25.90625,42.59375 L 35.65625,42.59375 C 36.056986,42.593752 36.40625,42.292462 36.40625,41.90625 L 36.40625,32.6875 z"
       id="path-main"
        />
  </g>
</defs>
<acyl-settings>
<linearGradient
     id="linearGradient4321">
    <stop
       style="stop-color:#00DEFF;stop-opacity:0.0;"
       offset="1.38777878078e-16"
       id="stop1" />
    <stop
       style="stop-color:#B3DEDE;stop-opacity:1.0;"
       offset="1.38777878078e-16"
       id="stop2" />
  </linearGradient>
<linearGradient
     inkscape:collect="always"
     xlink:href="#linearGradient4321"
     id="acyl_gradient"
     x1="50.0%"
     y1="0.0%"
     x2="50.0%"
     y2="100.0%" />
<filter>
    </filter>
<use id="1" style="fill:url(#acyl_gradient);filter:url(#filter1111)" xlink:href="#path-main" />
</acyl-settings>
</svg>
