<svg xmlns="http://www.w3.org/2000/svg" width="48" height="48">
<defs>
<defs
     id="defs2385">
  </defs>
  <path
     id="path-main"
     d="m 21.15625,2.0161966 c -0.109784,0.00794 -0.216474,0.039949 -0.3125,0.09375 L 12.5625,5.09375 C 12.55178,5.103858 12.54136,5.114279 12.53125,5.125 12.344412,5.2550012 12.160421,5.3744944 11.96875,5.53125 11.777079,5.6880056 11.5,5.9819073 11.5,6.40625 l 0,35.1875 c -2.17e-4,0.01042 -2.17e-4,0.02083 0,0.03125 0.01873,0.45998 0.246235,0.66928 0.4375,0.84375 0.191265,0.17447 0.426516,0.306732 0.65625,0.4375 l 8.25,3.663451 c 0.114663,0.06347 0.243956,0.0958 0.375,0.09375 0.772879,0 1.468749,-0.612192 1.46875,-1.40625 l 0,-2.257201 0.78125,0 C 23.575418,42.9975 23.676671,42.95251 23.75,42.875 L 35.875,31.3125 C 35.95251,31.23917 35.997508,31.137918 36,31.03125 L 36,17.3125 C 35.9975,17.205832 35.95251,17.104579 35.875,17.03125 L 23.40625,5.125 C 23.332921,5.0474935 23.231668,5.0024923 23.125,5 l -0.4375,0 0,-1.5775534 c 0,-0.7940589 -1.035376,-1.2930816 -1.46875,-1.40625 -0.02016,-0.00526 -0.04168,-8.684e-4 -0.0625,0 z M 25,5 c -0.147155,0.030707 -0.272947,0.136222 -0.3125,0.28125 -0.03955,0.1450279 0.01381,0.3050849 0.125,0.40625 l 10.5,10.03125 c 0.113737,0.11753 0.286124,0.155676 0.4375,0.09375 0.151378,-0.06193 0.251249,-0.211452 0.25,-0.375 L 36,6.09375 C 36.000001,5.4871816 35.469672,5 34.875,5 L 25.09375,5 C 25.062608,4.9963256 25.031142,4.9963256 25,5 z m -2.3125,0.8125 0.28125,0 12.21875,11.65625 0,13.40625 -11.84375,11.3125 -0.65625,0 0,-36.375 z m 3.40625,0 8.78125,0 c 0.180062,0 0.3125,0.1316642 0.3125,0.28125 l 0,8.40625 -9.09375,-8.6875 z M 35.5625,32.5 c -0.09565,0.01025 -0.184407,0.05463 -0.25,0.125 l -10.125,9.6875 c -0.114104,0.109694 -0.147841,0.288749 -0.09375,0.4375 0.05409,0.148752 0.185838,0.239221 0.34375,0.25 l 9.4375,0 c 0.594678,2e-6 1.125,-0.487189 1.125,-1.09375 l 0,-9 C 36.0023,32.792257 35.95855,32.671332 35.875,32.59375 35.79145,32.51617 35.676013,32.489301 35.5625,32.5 z m -0.375,1.34375 0,8.0625 c 0,0.149595 -0.132423,0.281251 -0.3125,0.28125 l -8.4375,0 8.75,-8.34375 z"/>
</defs>
<acyl-settings>
<linearGradient
     id="linearGradient4321">
    <stop
       style="stop-color:#00DEFF;stop-opacity:0.0;"
       offset="1.38777878078e-16"
       id="stop1" />
    <stop
       style="stop-color:#B3DEDE;stop-opacity:1.0;"
       offset="1.38777878078e-16"
       id="stop2" />
  </linearGradient>
<linearGradient
     inkscape:collect="always"
     xlink:href="#linearGradient4321"
     id="acyl_gradient"
     x1="50.0%"
     y1="0.0%"
     x2="50.0%"
     y2="100.0%" />
<filter>
    </filter>
<use id="1" style="fill:url(#acyl_gradient);filter:url(#filter1111)" xlink:href="#path-main" />
</acyl-settings>
</svg>
