<svg xmlns="http://www.w3.org/2000/svg" width="48" height="48">
<defs>
  <path
     d="M 5.125 8 C 3.391658 8 2 9.304406 2 10.9375 L 2.125 37.0625 C 2.125 38.695593 3.51666 39.999996 5.25 40 L 42.875 40 C 44.608342 40 46.000002 38.695593 46 37.0625 L 46 16.25 C 46 14.616907 44.608338 13.28125 42.875 13.28125 L 26.1875 13.28125 L 24.9375 10.9375 C 24.220631 9.042752 23.15482 7.9345843 21.8125 8 L 5.125 8 z M 18.25 14.78125 C 23.641238 14.78125 28.062499 19.171262 28.0625 24.5625 C 28.0625 25.510895 27.910089 26.443936 27.65625 27.3125 C 27.66747 27.3179 27.67636 27.3069 27.6875 27.3125 L 37.4375 32.03125 C 38.359112 32.476891 38.726889 33.547135 38.28125 34.46875 C 37.835611 35.390362 36.702862 35.78939 35.78125 35.34375 L 26.0625 30.65625 C 26.02391 30.63838 26.00565 30.61399 25.96875 30.59375 C 24.173252 32.886099 21.374298 34.34375 18.25 34.34375 C 12.858764 34.34375 8.46875 29.953736 8.46875 24.5625 C 8.46875 19.171262 12.858764 14.78125 18.25 14.78125 z M 18.25 17.84375 C 14.526475 17.84375 11.5625 20.838973 11.5625 24.5625 C 11.5625 28.286026 14.526474 31.281248 18.25 31.28125 C 21.973527 31.28125 25 28.286026 25 24.5625 C 25 20.838973 21.973527 17.843751 18.25 17.84375 z "
     id="path-main" />
</defs>
<acyl-settings>
<linearGradient
     id="linearGradient4321">
    <stop
       style="stop-color:#00DEFF;stop-opacity:0.0;"
       offset="1.38777878078e-16"
       id="stop1" />
    <stop
       style="stop-color:#B3DEDE;stop-opacity:1.0;"
       offset="1.38777878078e-16"
       id="stop2" />
  </linearGradient>
<linearGradient
     inkscape:collect="always"
     xlink:href="#linearGradient4321"
     id="acyl_gradient"
     x1="50.0%"
     y1="0.0%"
     x2="50.0%"
     y2="100.0%" />
<filter>
    </filter>
<use id="1" style="fill:url(#acyl_gradient);filter:url(#filter1111)" xlink:href="#path-main" />
</acyl-settings>
</svg>
