<svg xmlns="http://www.w3.org/2000/svg" width="48" height="48">
<defs>
  <path
     d="M 5.125 8 C 3.391658 8 2 9.304406 2 10.9375 L 2.125 37.0625 C 2.125 38.695593 3.51666 39.999996 5.25 40 L 42.875 40 C 44.608342 40 46.000002 38.695593 46 37.0625 L 46 16.25 C 46 14.616907 44.608338 13.28125 42.875 13.28125 L 26.1875 13.28125 L 24.9375 10.9375 C 24.220631 9.042752 23.15482 7.9345843 21.8125 8 L 5.125 8 z M 23.96875 16.75 C 29.487458 16.75 34 21.214635 34 26.75 C 33.999998 32.285618 29.487456 36.75 23.96875 36.75 C 18.449533 36.749999 14 32.285568 14 26.75 C 13.999999 21.214634 18.449531 16.75 23.96875 16.75 z M 24.15625 17.375 L 23 17.5 L 21.90625 17.84375 L 21.75 17.5625 L 21.21875 17.65625 L 21.03125 17.875 L 20.59375 17.9375 L 20.21875 18.09375 L 20.125 18.15625 L 20.0625 18.21875 L 19.90625 18.21875 L 19.75 18.53125 L 19.53125 18.125 L 19.46875 18.3125 L 19.5 18.75 L 19.15625 19.0625 L 18.96875 19.53125 L 19.375 19.53125 L 19.5 19.3125 L 19.8125 19.53125 L 20.15625 19.53125 L 20.15625 19.25 L 19.75 19.0625 L 19.5 19.21875 L 19.59375 19.09375 C 19.765188 18.97216 19.95039 18.835791 20.125 18.71875 L 20.46875 18.875 C 20.733643 19.055494 21.047388 19.226031 21.3125 19.40625 L 21.71875 19.0625 L 21.21875 18.875 L 21.0625 18.46875 L 20.5 18.375 L 20.6875 18.25 L 21.09375 18.125 C 21.205037 18.07073 21.293619 18.074296 21.40625 18.03125 L 21.21875 18.21875 L 22.125 18.84375 L 22.125 19.15625 L 21.8125 19.53125 L 22.28125 20.5 L 22.5625 20.3125 L 23 19.6875 C 23.578007 19.508273 24.079707 19.311997 24.625 19.0625 C 24.65174 19.05024 24.69184 19.04373 24.71875 19.03125 L 25.21875 17.78125 L 24.15625 17.375 z M 24.625 19.0625 L 24.5625 19.28125 L 24.84375 19.46875 L 25.34375 19.15625 L 25.09375 18.90625 L 24.78125 19.0625 L 24.625 19.0625 z M 28.53125 18.96875 L 27.84375 19.15625 L 27.40625 19.4375 L 27.40625 19.6875 L 26.6875 20.125 L 26.875 20.8125 L 27.25 20.5 L 27.5 20.8125 L 27.78125 21 L 27.96875 20.5 L 27.84375 20.21875 L 27.96875 20 L 28.40625 19.625 L 28.5625 19.625 L 28.40625 20.03125 L 28.40625 20.40625 C 28.573945 20.36047 28.734638 20.3339 28.90625 20.3125 L 28.40625 20.65625 L 28.40625 20.875 L 27.84375 21.3125 L 27.3125 21.1875 L 27.3125 20.875 L 27.0625 21.03125 L 27.125 21.3125 L 26.71875 21.3125 L 26.5 21.6875 L 26.21875 22 L 25.75 22.09375 L 26.03125 22.40625 L 26.125 22.6875 L 25.75 22.6875 L 25.28125 22.90625 L 25.28125 23.65625 L 25.5 23.65625 L 25.71875 23.90625 L 26.15625 23.65625 L 26.34375 23.21875 L 26.65625 23.03125 L 26.71875 22.84375 L 27.3125 22.71875 L 27.59375 23.03125 L 27.875 23.21875 L 27.71875 23.59375 L 28.03125 23.5 L 28.15625 23.125 L 27.78125 22.71875 L 27.96875 22.71875 L 28.3125 23.03125 L 28.40625 23.4375 L 28.71875 23.8125 L 28.78125 23.25 L 28.96875 23.1875 C 29.149198 23.375376 29.285519 23.60106 29.4375 23.8125 L 30 23.84375 L 30.3125 24.03125 L 30.15625 24.25 L 29.84375 24.5625 L 29.375 24.5625 L 28.75 24.3125 L 28.40625 24.40625 L 28.1875 24.65625 L 27.5 23.96875 L 27.0625 23.84375 L 26.34375 23.90625 L 25.71875 24.09375 C 25.370607 24.489593 25.048268 24.870153 24.71875 25.28125 L 24.28125 26.21875 L 24.4375 26.4375 L 24.15625 26.96875 L 24.53125 27.8125 C 24.841585 28.164584 25.127617 28.491418 25.4375 28.84375 L 25.90625 28.46875 L 26.09375 28.71875 L 26.59375 28.40625 L 26.78125 28.5625 L 27.25 28.5625 L 27.53125 28.9375 L 27.375 29.4375 L 27.71875 29.84375 L 27.65625 30.5625 L 27.96875 31.03125 L 27.78125 31.5 C 27.76309 31.804852 27.71875 32.0701 27.71875 32.375 C 27.868321 32.788065 28.015014 33.177718 28.15625 33.59375 L 28.28125 34.28125 L 28.28125 34.59375 L 28.53125 34.59375 L 28.9375 34.34375 L 29.375 34.34375 L 30.09375 33.5625 L 30.03125 33.28125 L 30.5 32.875 L 30.15625 32.5 L 30.5625 32.15625 L 31 31.875 L 31.15625 31.6875 L 31.03125 31.21875 L 31.03125 30.03125 L 31.375 29.375 L 31.78125 28.90625 L 32.21875 27.8125 L 32.21875 27.53125 C 32.004946 27.55825 31.771605 27.57834 31.5625 27.59375 L 32 27.15625 L 32.625 26.75 L 32.9375 26.375 L 32.9375 25.96875 C 32.86445 25.830579 32.792298 25.638172 32.71875 25.5 L 32.4375 25.875 L 32.21875 25.625 L 31.90625 25.375 L 31.90625 24.84375 L 32.25 25.25 L 32.6875 25.21875 C 32.878693 25.392829 33.082307 25.551803 33.25 25.75 L 33.53125 25.4375 C 33.53125 25.10803 33.143466 23.470152 32.34375 22.09375 C 31.544036 20.717802 30.124999 19.46875 30.125 19.46875 L 30.03125 19.65625 L 29.65625 20.0625 L 29.1875 19.5625 L 29.65625 19.5625 L 29.875 19.3125 L 29 19.15625 L 28.53125 18.96875 z M 18.34375 19.21875 L 18.15625 19.65625 C 18.15625 19.65625 17.888664 19.69988 17.8125 19.71875 C 16.839895 20.617625 14.862806 22.555572 14.40625 26.21875 C 14.42433 26.30369 14.71875 26.78125 14.71875 26.78125 L 15.46875 27.25 L 16.25 27.4375 L 16.53125 27.84375 L 17.03125 28.21875 L 17.3125 28.1875 L 17.53125 28.25 L 17.53125 28.375 L 17.25 29.125 L 17.03125 29.40625 L 17.125 29.5625 L 16.9375 30.1875 L 17.59375 31.34375 L 18.21875 31.9375 L 18.5 32.3125 L 18.4375 33.15625 L 18.65625 33.625 L 18.4375 34.5625 C 18.4375 34.5625 18.41036 34.56371 18.4375 34.65625 C 18.46488 34.74885 19.617089 35.364983 19.6875 35.3125 C 19.75767 35.25905 19.8125 35.1875 19.8125 35.1875 L 19.75 35 L 20.03125 34.71875 L 20.125 34.46875 L 20.59375 34.28125 L 20.9375 33.40625 L 20.84375 33.15625 L 21.09375 32.78125 L 21.625 32.6875 L 21.90625 32.03125 L 21.84375 31.21875 L 22.25 30.625 L 22.3125 30 C 21.731014 29.710804 21.1709 29.454002 20.59375 29.15625 L 20.28125 28.5625 L 19.78125 28.4375 L 19.5 27.71875 L 18.78125 27.78125 L 18.15625 27.34375 L 17.53125 27.875 L 17.53125 28 C 17.338297 27.94414 17.109305 27.918459 16.9375 27.8125 L 16.8125 27.40625 L 16.8125 26.96875 L 16.34375 27 C 16.37922 26.718426 16.464284 26.437776 16.5 26.15625 L 16.25 26.15625 L 16 26.53125 L 15.75 26.59375 L 15.375 26.40625 L 15.34375 25.96875 L 15.40625 25.46875 L 15.9375 25.0625 L 16.34375 25.0625 L 16.46875 24.84375 L 16.96875 24.96875 L 17.375 25.4375 L 17.4375 24.65625 L 18.125 24.0625 L 18.34375 23.46875 L 18.84375 23.28125 L 19.125 22.875 L 19.78125 22.71875 L 20.125 22.28125 L 19.125 22.28125 L 19.75 22 L 20.15625 22 L 20.75 21.8125 L 20.84375 21.53125 L 20.625 21.34375 L 20.375 21.25 L 20.4375 21.03125 L 20.25 20.65625 L 19.84375 20.8125 L 19.9375 20.5 L 19.4375 20.21875 L 19.03125 20.875 L 19.0625 21.125 L 18.65625 21.28125 L 18.40625 21.8125 L 18.34375 21.34375 L 17.65625 21.0625 L 17.53125 20.6875 L 18.40625 20.15625 L 18.8125 19.8125 L 18.84375 19.34375 L 18.625 19.25 L 18.34375 19.21875 z M 25.625 20.03125 L 25.625 20.28125 L 25.78125 20.46875 L 25.78125 20.875 L 25.6875 21.4375 L 26.15625 21.3125 L 26.4375 21.03125 L 26.15625 20.71875 C 26.0628 20.469153 25.99197 20.270648 25.875 20.03125 L 25.625 20.03125 z M 25.125 20.65625 L 24.875 20.71875 L 24.96875 21.21875 L 25.3125 21.0625 L 25.125 20.65625 z M 30.1875 25.03125 L 30.625 25.5 L 31.09375 26.59375 L 31.40625 26.875 L 31.28125 27.25 L 31.53125 27.59375 C 31.403117 27.60245 31.288002 27.625 31.15625 27.625 C 30.923836 27.1352 30.739484 26.668663 30.5625 26.15625 L 30.28125 25.78125 L 30.09375 25.15625 L 30.1875 25.03125 z "
     id="path-main" />
</defs>
<acyl-settings>
<linearGradient
     id="linearGradient4321">
    <stop
       style="stop-color:#00DEFF;stop-opacity:0.0;"
       offset="1.38777878078e-16"
       id="stop1" />
    <stop
       style="stop-color:#B3DEDE;stop-opacity:1.0;"
       offset="1.38777878078e-16"
       id="stop2" />
  </linearGradient>
<linearGradient
     inkscape:collect="always"
     xlink:href="#linearGradient4321"
     id="acyl_gradient"
     x1="50.0%"
     y1="0.0%"
     x2="50.0%"
     y2="100.0%" />
<filter>
    </filter>
<use id="1" style="fill:url(#acyl_gradient);filter:url(#filter1111)" xlink:href="#path-main" />
</acyl-settings>
</svg>
