<svg xmlns="http://www.w3.org/2000/svg" width="48" height="48">
<defs>
  <path
     d="M 5.125 8 C 3.391658 8 2 9.304406 2 10.9375 L 2.125 37.0625 C 2.125 38.695593 3.51666 39.999996 5.25 40 L 42.875 40 C 44.608342 40 46.000002 38.695593 46 37.0625 L 46 16.25 C 46 14.616907 44.608338 13.28125 42.875 13.28125 L 26.1875 13.28125 L 24.9375 10.9375 C 24.220631 9.042752 23.15482 7.9345843 21.8125 8 L 5.125 8 z M 25.90625 19.59375 C 27.013338 19.59375 27.9375 20.588174 27.9375 21.8125 C 27.9375 22.045464 27.779092 22.252509 27.71875 22.46875 C 28.100537 22.711187 28.455976 22.984599 28.78125 23.3125 C 29.175013 22.978174 29.660089 22.75 30.1875 22.75 C 31.45173 22.75 32.46875 23.883458 32.46875 25.28125 C 32.46875 25.425575 32.42817 25.554056 32.40625 25.6875 C 33.112939 26.009412 33.683253 26.51664 34.09375 27.21875 C 34.212218 27.19996 34.345009 27.125 34.46875 27.125 C 35.708571 27.125 36.659271 28.144571 36.90625 29.4375 C 37.589123 29.564013 38.15625 30.148979 38.15625 30.9375 C 38.156251 31.814899 37.51155 32.53125 36.71875 32.53125 C 36.419063 32.53125 36.139514 32.426105 35.90625 32.25 C 35.482332 32.591634 35.033788 32.843749 34.46875 32.84375 C 34.068794 32.84375 33.710054 32.647961 33.375 32.46875 C 32.730095 33.0707 31.944188 33.5 31.03125 33.5 C 30.252032 33.5 29.565264 33.203191 28.96875 32.75 C 27.880918 33.951203 26.436839 34.75 24.78125 34.75 C 23.5383 34.75 22.396717 34.249102 21.4375 33.53125 C 20.856574 34.041392 20.148147 34.437499 19.34375 34.4375 C 18.103468 34.4375 17.038268 33.65322 16.4375 32.5625 C 16.100425 32.721429 15.799053 32.843749 15.40625 32.84375 C 14.508045 32.843749 13.743913 32.343275 13.21875 31.625 C 12.920907 31.81373 12.613549 31.9375 12.25 31.9375 C 11.142911 31.9375 10.25 30.911822 10.25 29.6875 C 10.25 28.463176 11.142911 27.468748 12.25 27.46875 C 12.610567 27.46875 12.922584 27.595396 13.21875 27.78125 C 13.743913 27.062974 14.508043 26.531249 15.40625 26.53125 C 15.649739 26.53125 15.808166 26.685119 16.03125 26.75 C 16.05958 26.554662 16.097557 26.337363 16.15625 26.15625 C 15.696636 25.806741 15.34375 25.341113 15.34375 24.6875 C 15.34375 23.636642 16.143806 22.75 17.09375 22.75 C 17.827092 22.75 18.342552 23.312815 18.59375 24.03125 C 18.66847 24.02235 18.699547 24 18.78125 24 C 19.176894 24 19.52564 24.24477 19.875 24.40625 C 20.801973 22.932598 22.228841 21.893414 23.90625 21.625 C 24.00565 20.500396 24.864868 19.59375 25.90625 19.59375 z "
     id="path-main" />
</defs>
<acyl-settings>
<linearGradient
     id="linearGradient4321">
    <stop
       style="stop-color:#00DEFF;stop-opacity:0.0;"
       offset="1.38777878078e-16"
       id="stop1" />
    <stop
       style="stop-color:#B3DEDE;stop-opacity:1.0;"
       offset="1.38777878078e-16"
       id="stop2" />
  </linearGradient>
<linearGradient
     inkscape:collect="always"
     xlink:href="#linearGradient4321"
     id="acyl_gradient"
     x1="50.0%"
     y1="0.0%"
     x2="50.0%"
     y2="100.0%" />
<filter>
    </filter>
<use id="1" style="fill:url(#acyl_gradient);filter:url(#filter1111)" xlink:href="#path-main" />
</acyl-settings>
</svg>
