<svg xmlns="http://www.w3.org/2000/svg" width="48" height="48">
<defs>
<defs
     id="defs2385">
  </defs>
  <path
     id="path-main"
     d="M 3 7 L 3 42 L 45 42 L 45 10.5 L 25.75 10.5 L 25.75 7 L 3 7 z M 4.75 8.75 L 24 8.75 L 24 12.25 L 43.25 12.25 L 43.25 15.75 L 20.5 15.75 L 20.5 12.25 L 4.75 12.25 L 4.75 8.75 z M 20.53125 18.9375 C 22.27626 18.735144 21.36491 20.760121 22.71875 21.5625 C 23.34564 21.571762 23.94962 21.633626 24.53125 21.78125 C 26.13616 21.331847 25.63146 18.894944 27.71875 20.125 C 29.71273 21.300021 27.60652 22.054084 27.75 23.53125 C 28.33477 24.06032 28.86342 24.659874 29.25 25.34375 C 30.58484 25.744702 31.81246 24.138914 32.375 26.3125 C 32.92619 28.442235 31.14406 27.688361 30.15625 28.59375 C 30.15746 28.645655 30.15581 28.69782 30.15625 28.75 C 30.16388 29.570402 30.03554 30.355645 29.78125 31.09375 C 30.46368 32.275225 32.40876 32.024962 31.28125 33.9375 C 30.10656 35.93007 29.35391 33.856139 27.875 34 C 27.36167 34.484852 26.82773 34.889286 26.1875 35.21875 C 25.49762 36.639251 27.42377 37.969788 25.125 38.5625 C 22.76554 39.17086 23.95898 36.958441 22.5 36.09375 C 21.85722 36.086235 21.25153 35.965276 20.65625 35.8125 C 19.07779 36.278023 19.54651 38.724419 17.46875 37.5 C 15.47487 36.32498 17.58097 35.570914 17.4375 34.09375 C 16.83355 33.552885 16.33218 32.954519 15.9375 32.25 C 14.61435 31.882344 13.40203 33.500903 12.84375 31.34375 C 12.29256 29.214014 14.04344 29.96789 15.03125 29.0625 C 15.02888 29.002745 15.0317 28.93512 15.03125 28.875 C 15.02363 28.054597 15.15196 27.269356 15.40625 26.53125 C 14.72382 25.349775 12.77874 25.600041 13.90625 23.6875 C 15.08056 21.695581 15.80331 23.798595 17.28125 23.65625 C 17.80426 23.159987 18.40726 22.709142 19.0625 22.375 C 19.71958 20.963245 17.77644 19.620684 20.0625 19.03125 C 20.23252 18.98741 20.39574 18.95322 20.53125 18.9375 z M 22.59375 25.9375 C 20.94619 25.951622 19.6103 27.261265 19.625 28.84375 C 19.6397 30.426236 21.00868 31.70162 22.65625 31.6875 C 24.30381 31.673379 25.5772 30.363736 25.5625 28.78125 C 25.54779 27.198765 24.24131 25.92338 22.59375 25.9375 z "
 />
</defs>
<acyl-settings>
<linearGradient
     id="linearGradient4321">
    <stop
       style="stop-color:#00DEFF;stop-opacity:0.0;"
       offset="1.38777878078e-16"
       id="stop1" />
    <stop
       style="stop-color:#B3DEDE;stop-opacity:1.0;"
       offset="1.38777878078e-16"
       id="stop2" />
  </linearGradient>
<linearGradient
     inkscape:collect="always"
     xlink:href="#linearGradient4321"
     id="acyl_gradient"
     x1="50.0%"
     y1="0.0%"
     x2="50.0%"
     y2="100.0%" />
<filter>
    </filter>
<use id="1" style="fill:url(#acyl_gradient);filter:url(#filter1111)" xlink:href="#path-main" />
</acyl-settings>
</svg>
