<svg xmlns="http://www.w3.org/2000/svg" width="48" height="48">
<defs>
<defs
   id="defs31">
</defs>
	<path
   d="m 4.8983882,3.3283519 c -0.046898,0.018994 -0.085102,0.054514 -0.1233356,0.092502 L 2.1233357,6.0725705 c -0.1519497,0.1519497 -0.1519496,0.40306 0,0.5550105 L 6.7175893,11.191 2.1233357,15.785254 C 2.0513076,15.857282 2,15.961131 2,16.062759 c 0,0.101629 0.051308,0.205478 0.1233357,0.277506 l 2.6517169,2.651717 c 0.072028,0.07203 0.1450427,0.0925 0.2466713,0.0925 0.1026151,-1e-6 0.2064639,-0.02047 0.2775053,-0.0925 l 4.5942536,-4.594254 4.5942542,4.594254 c 0.07301,0.07301 0.173903,0.0925 0.277505,0.0925 0.103602,-1e-6 0.20449,-0.01949 0.277505,-0.0925 l 2.651717,-2.651717 c 0.07302,-0.07301 0.0925,-0.173904 0.0925,-0.277506 10e-7,-0.103602 -0.01949,-0.20449 -0.0925,-0.277505 L 13.10021,11.191 17.694464,6.627581 c 0.07203,-0.072028 0.0925,-0.1758766 0.0925,-0.2775052 -1e-6,-0.1016287 -0.02047,-0.2044906 -0.0925,-0.2775053 L 15.042747,3.4208536 c -0.07203,-0.073015 -0.175877,-0.092502 -0.277505,-0.092502 -0.102616,-10e-8 -0.206464,0.019487 -0.277505,0.092502 L 9.8934828,8.0151073 5.2992292,3.4208536 C 5.186007,3.3068914 5.0390834,3.2713708 4.8983882,3.3283519 z M 26.882971,13.904385 c -8.902989,0 -10.606867,12.426069 -10.606867,12.426069 l -10.5760339,0 0,4.686755 10.4218639,0 c -1e-6,-2e-6 1.673047,12.426069 10.576034,12.426069 8.902985,-10e-7 8.911002,0 8.911002,0 l 0,-4.532586 8.417659,0 C 45.117036,38.910691 46,38.027729 46,36.937321 c -10e-7,-1.090408 -0.882963,-1.97337 -1.973371,-1.97337 l -8.417659,0 0,-12.580239 8.417659,0 C 45.117036,22.383711 46,21.500749 46,20.410342 c -10e-7,-1.090409 -0.882963,-1.973371 -1.973371,-1.973371 l -8.417659,0 0,-4.532586 c -0.0026,0 0.02242,0 -8.725999,0 z"
   id="path-main"
    />
</defs>
<acyl-settings>
<linearGradient
     id="linearGradient4321">
    <stop
       style="stop-color:#00DEFF;stop-opacity:0.0;"
       offset="1.38777878078e-16"
       id="stop1" />
    <stop
       style="stop-color:#B3DEDE;stop-opacity:1.0;"
       offset="1.38777878078e-16"
       id="stop2" />
  </linearGradient>
<linearGradient
     inkscape:collect="always"
     xlink:href="#linearGradient4321"
     id="acyl_gradient"
     x1="50.0%"
     y1="0.0%"
     x2="50.0%"
     y2="100.0%" />
<filter>
    </filter>
<use id="1" style="fill:url(#acyl_gradient);filter:url(#filter1111)" xlink:href="#path-main" />
</acyl-settings>
</svg>
