<svg xmlns="http://www.w3.org/2000/svg" width="48" height="48">
<defs>
  <path
     d="M 36.40625 6.03125 C 36.406188 9.0312225 34.304499 9.088047 31.96875 9.125 L 7.625 9.125 C 7.0330035 9.1165 6.5 9.626876 6.5 10.21875 C 6.5 10.810624 7.0330035 11.35222 7.625 11.34375 L 31.96875 11.34375 C 35.382521 11.34375 38.34375 10.379058 38.4375 8.28125 L 43.75 8.28125 L 43.75 33.375 C 43.75 34.646053 43.338785 35.633352 42.15625 36.4375 C 41.821928 36.6648 41.41755 36.849147 40.9375 37.03125 C 41.150614 36.498575 41.25 35.913272 41.25 35.25 L 41.25 12.71875 L 2 12.71875 L 2 34.5 C 2 37.55091 4.4481547 40.004751 7.5 40 C 12.684241 39.9919 17.873271 40.02208 23.0625 40.03125 L 23.0625 41.34375 C 22.474823 41.604167 21.984904 42.086567 21.75 42.6875 L 3 42.6875 C 2.96946 42.686 2.93678 42.686 2.90625 42.6875 C 2.366383 42.712808 1.974692 43.178888 2 43.71875 C 2.02531 44.258613 2.460134 44.650306 3 44.625 L 21.8125 44.625 C 22.209612 45.437813 23.066227 45.999999 24.03125 46 C 24.996274 46.000001 25.821638 45.437812 26.21875 44.625 L 45 44.625 C 45.352518 44.63 45.69728 44.429491 45.875 44.125 C 46.05271 43.82051 46.05271 43.46074 45.875 43.15625 C 45.697279 42.851761 45.352518 42.682515 45 42.6875 L 26.3125 42.6875 C 26.077596 42.086568 25.587667 41.604166 25 41.34375 L 25 40.03125 C 28.813596 40.03585 32.627848 40.02435 36.4375 40 C 39.510336 39.97471 41.791703 39.379129 43.40625 38.28125 C 45.151268 37.094618 46 35.248295 46 33.375 L 46 6.03125 L 36.40625 6.03125 z M 16.75 16.875 C 19.066907 16.772533 21.203623 17.755356 23.3125 18.5625 C 24.959919 19.135646 26.741263 19.922813 28.5 19.375 C 29.268603 18.793805 30.64102 18.434659 31.03125 19.65625 C 31.142103 20.780651 31.088032 21.899458 31.125 23.03125 C 31.157215 26.501522 31.190872 29.965567 31.25 33.4375 C 31.355579 34.109967 30.899588 34.630838 30.3125 34.875 C 28.341839 35.985274 25.945753 35.548394 23.90625 34.875 C 21.689463 34.208112 19.627623 32.919836 17.25 32.90625 C 16.206733 32.87876 15.11072 33.025973 14.1875 33.53125 C 13.319929 33.793098 12.577692 32.901763 12.6875 32.09375 C 12.634532 27.602162 12.578939 23.08537 12.53125 18.59375 C 12.606914 17.614649 13.748694 17.456194 14.5 17.1875 C 15.232488 16.989621 15.991947 16.888302 16.75 16.875 z M 17.28125 19.21875 C 16.49001 19.273774 15.567977 19.168721 14.90625 19.5625 L 14.96875 24.125 C 16.780786 23.697664 18.693057 23.842297 20.46875 24.375 L 20.40625 19.96875 C 19.41204 19.558287 18.359045 19.272848 17.28125 19.21875 z M 22.75 20.875 L 22.8125 25.21875 C 24.447751 25.811294 26.08854 26.67273 27.875 26.5625 C 28.419097 26.541873 28.974232 26.377103 28.78125 25.75 L 28.75 21.71875 C 26.710336 22.24309 24.661581 21.558511 22.75 20.875 z M 17.03125 26.1875 C 16.401469 26.300227 15.230764 26.114614 15 26.71875 L 15.0625 30.84375 C 16.882367 30.467482 18.787403 30.587245 20.5625 31.125 L 20.5 26.875 C 19.397934 26.451934 18.216062 26.193942 17.03125 26.1875 z M 22.84375 27.75 L 22.90625 31.96875 C 24.52807 32.549095 26.202517 33.354657 27.96875 33.1875 C 28.51261 33.14341 29.071762 32.94761 28.875 32.3125 L 28.84375 28.78125 C 26.792887 29.208848 24.744856 28.445159 22.84375 27.75 z "
     id="path-main" />
</defs>
<acyl-settings>
<linearGradient
     id="linearGradient4321">
    <stop
       style="stop-color:#00DEFF;stop-opacity:0.0;"
       offset="1.38777878078e-16"
       id="stop1" />
    <stop
       style="stop-color:#B3DEDE;stop-opacity:1.0;"
       offset="1.38777878078e-16"
       id="stop2" />
  </linearGradient>
<linearGradient
     inkscape:collect="always"
     xlink:href="#linearGradient4321"
     id="acyl_gradient"
     x1="50.0%"
     y1="0.0%"
     x2="50.0%"
     y2="100.0%" />
<filter>
    </filter>
<use id="1" style="fill:url(#acyl_gradient);filter:url(#filter1111)" xlink:href="#path-main" />
</acyl-settings>
</svg>
