<svg xmlns="http://www.w3.org/2000/svg" width="48" height="48">
<defs>
  <path
     d="m 36.40625,7 c -6.2e-5,2.9999725 -2.101751,3.056797 -4.4375,3.09375 l -24.34375,0 C 7.0330035,10.08525 6.5,10.595626 6.5,11.1875 c 0,0.591874 0.5330035,1.13347 1.125,1.125 l 24.34375,0 c 3.413771,0 6.375,-0.964692 6.46875,-3.0625 l 5.3125,0 0,25.09375 c 0,1.271053 -0.411215,2.258352 -1.59375,3.0625 C 41.821928,37.63355 41.41755,37.817897 40.9375,38 41.150614,37.467325 41.25,36.882022 41.25,36.21875 l 0,-22.53125 -39.25,0 0,21.78125 c 0,3.05091 2.4481547,5.504751 5.5,5.5 9.639776,-0.01501 19.298885,0.06159 28.9375,0 C 39.510336,40.94346 41.791703,40.347879 43.40625,39.25 45.151268,38.063368 46,36.217045 46,34.34375 L 46,7 36.40625,7 z M 22.417251,17.720775 c 5.376872,0 9.75,4.243433 9.75,9.5 -10e-7,5.256807 -4.373128,9.5 -9.75,9.5 -5.377369,-3e-6 -9.71875,-4.243241 -9.71875,-9.5 -1e-6,-5.256568 4.34138,-9.5 9.71875,-9.5 z m 0.1875,0.59375 -1.15625,0.125 -1.0625,0.28125 -0.15625,-0.25 -0.5,0.09375 -0.21875,0.21875 -0.40625,0.03125 -0.375,0.1875 -0.09375,0.0625 -0.03125,0.03125 -0.1875,0.03125 -0.15625,0.28125 -0.1875,-0.375 -0.0625,0.15625 0.03125,0.46875 -0.3125,0.21875 -0.21875,0.5 0.40625,0 0.09375,-0.21875 0.34375,0.21875 0.34375,0 0,-0.3125 -0.4375,-0.15625 -0.21875,0.125 0.09375,-0.09375 c 0.167033,-0.115466 0.329878,-0.232604 0.5,-0.34375 l 0.375,0.09375 c 0.258085,0.171404 0.491702,0.328857 0.75,0.5 l 0.4375,-0.3125 -0.46875,-0.1875 -0.1875,-0.34375 -0.5,-0.09375 0.15625,-0.09375 0.375,-0.125 c 0.108424,-0.05155 0.202764,-0.08413 0.3125,-0.125 l -0.15625,0.1875 0.875,0.59375 0,0.34375 -0.34375,0.34375 0.46875,0.875 0.3125,-0.15625 0.40625,-0.59375 c 0.563151,-0.170199 1.031221,-0.388069 1.5625,-0.625 l -0.03125,0.25 0.25,0.15625 0.5,-0.25 -0.21875,-0.28125 -0.34375,0.15625 -0.125,-0.03125 c 0.02605,-0.01165 0.06754,-0.01939 0.09375,-0.03125 l 0.46875,-1.125 -1,-0.40625 z m 4.21875,1.53125 -0.65625,0.1875 -0.4375,0.21875 0,0.28125 -0.65625,0.40625 0.15625,0.625 0.34375,-0.28125 0.25,0.28125 0.28125,0.1875 0.15625,-0.5 -0.0625,-0.25 0.0625,-0.21875 0.4375,-0.375 0.15625,0 -0.15625,0.40625 0,0.375 c 0.163385,-0.04346 0.332798,-0.07342 0.5,-0.09375 l -0.46875,0.3125 -0.03125,0.21875 -0.53125,0.4375 -0.53125,-0.125 0,-0.3125 -0.25,0.125 0.09375,0.3125 -0.40625,0 -0.1875,0.34375 -0.28125,0.3125 -0.46875,0.0625 0.25,0.3125 0.09375,0.25 -0.34375,0 -0.4375,0.25 0,0.6875 0.15625,0 0.21875,0.21875 0.46875,-0.21875 0.1875,-0.4375 0.28125,-0.1875 0.0625,-0.15625 0.5625,-0.125 0.28125,0.3125 0.3125,0.15625 -0.1875,0.375 0.28125,-0.0625 0.125,-0.375 -0.34375,-0.40625 0.15625,0 0.34375,0.28125 0.09375,0.40625 0.3125,0.34375 0.09375,-0.53125 0.15625,-0.0625 c 0.17581,0.178414 0.320677,0.39296 0.46875,0.59375 l 0.5,0.03125 0.34375,0.21875 -0.15625,0.1875 -0.3125,0.28125 -0.46875,0 -0.59375,-0.21875 -0.3125,0.0625 -0.25,0.21875 -0.65625,-0.625 -0.4375,-0.125 -0.65625,0.0625 -0.65625,0.1875 c -0.339195,0.375907 -0.647701,0.734608 -0.96875,1.125 l -0.40625,0.90625 0.15625,0.1875 -0.28125,0.5 0.34375,0.8125 c 0.302358,0.334351 0.60433,0.665408 0.90625,1 l 0.4375,-0.375 0.1875,0.21875 0.5,-0.28125 0.15625,0.15625 0.46875,0 0.28125,0.3125 -0.125,0.53125 0.3125,0.40625 -0.03125,0.625 0.25,0.46875 -0.15625,0.4375 c -0.01771,0.289496 -0.0625,0.554206 -0.0625,0.84375 0.145726,0.392258 0.268642,0.761173 0.40625,1.15625 l 0.15625,0.625 0,0.34375 0.21875,0 0.40625,-0.25 0.4375,0 0.6875,-0.75 -0.0625,-0.28125 0.4375,-0.375 -0.3125,-0.375 0.40625,-0.34375 0.40625,-0.21875 0.15625,-0.21875 -0.125,-0.4375 0,-1.09375 0.34375,-0.65625 0.40625,-0.46875 0.40625,-1 0,-0.25 c -0.208309,0.02564 -0.421268,0.01661 -0.625,0.03125 l 0.4375,-0.40625 0.5625,-0.375 0.34375,-0.375 0,-0.40625 c -0.07117,-0.131212 -0.147091,-0.243785 -0.21875,-0.375 l -0.28125,0.3125 -0.21875,-0.21875 -0.3125,-0.28125 0,-0.5 0.375,0.40625 0.40625,-0.0625 c 0.186278,0.165311 0.367868,0.311785 0.53125,0.5 l 0.28125,-0.25 c 0,-0.312877 -0.377088,-1.880423 -1.15625,-3.1875 -0.779162,-1.306646 -2.156251,-2.5 -2.15625,-2.5 l -0.09375,0.1875 -0.375,0.40625 -0.4375,-0.5 0.4375,0 0.25,-0.21875 -0.875,-0.125 -0.46875,-0.1875 z m -9.90625,0.1875 -0.1875,0.4375 c 0,0 -0.269542,0.04459 -0.34375,0.0625 -0.947609,0.853602 -2.867678,2.708824 -3.3125,6.1875 0.01762,0.08066 0.3125,0.53125 0.3125,0.53125 l 0.75,0.4375 0.71875,0.1875 0.3125,0.375 0.46875,0.375 0.28125,-0.0625 0.21875,0.09375 0,0.0625 -0.28125,0.71875 -0.21875,0.28125 0.09375,0.15625 -0.1875,0.59375 0.625,1.09375 0.625,0.5625 0.25,0.375 -0.03125,0.8125 0.21875,0.4375 -0.21875,0.90625 c 0,0 -0.02644,-0.02536 0,0.0625 0.02667,0.08794 1.150147,0.674835 1.21875,0.625 0.06837,-0.05077 0.125,-0.125 0.125,-0.125 l -0.09375,-0.15625 0.28125,-0.28125 0.125,-0.28125 0.4375,-0.15625 0.3125,-0.8125 -0.09375,-0.21875 0.25,-0.34375 0.53125,-0.15625 0.28125,-0.59375 -0.09375,-0.75 0.4375,-0.59375 0.03125,-0.5625 c -0.566542,-0.27463 -1.093934,-0.529744 -1.65625,-0.8125 l -0.3125,-0.5625 -0.5,-0.125 -0.28125,-0.6875 -0.71875,0.0625 -0.5625,-0.4375 -0.59375,0.5625 0,0.0625 c -0.187994,-0.05304 -0.42636,-0.05563 -0.59375,-0.15625 l -0.125,-0.40625 0,-0.40625 -0.4375,0.03125 c 0.03457,-0.267392 0.0902,-0.513903 0.125,-0.78125 l -0.25,0 -0.25,0.3125 -0.21875,0.125 -0.34375,-0.1875 -0.0625,-0.4375 0.0625,-0.46875 0.53125,-0.375 0.40625,0 0.09375,-0.25 0.5,0.125 0.375,0.46875 0.0625,-0.78125 0.6875,-0.5 0.21875,-0.59375 0.46875,-0.1875 0.28125,-0.375 0.625,-0.125 0.34375,-0.4375 -0.96875,0 0.59375,-0.28125 0.4375,0 0.53125,-0.1875 0.09375,-0.25 -0.1875,-0.15625 -0.28125,-0.09375 0.09375,-0.25 -0.1875,-0.34375 -0.40625,0.15625 0.09375,-0.3125 -0.5,-0.25 -0.375,0.65625 0.0625,0.21875 -0.40625,0.15625 -0.25,0.5 -0.09375,-0.4375 -0.65625,-0.3125 -0.09375,-0.3125 0.84375,-0.5 0.375,-0.34375 0.03125,-0.4375 -0.1875,-0.09375 -0.28125,-0.0625 z m 7.0625,0.78125 0,0.25 0.1875,0.15625 0,0.4375 -0.125,0.5 0.46875,-0.09375 0.28125,-0.3125 -0.25,-0.25 c -0.09106,-0.237026 -0.198535,-0.460159 -0.3125,-0.6875 l -0.25,0 z m -0.46875,0.59375 -0.25,0.09375 0.09375,0.4375 0.34375,-0.15625 -0.1875,-0.375 z m 4.96875,4.1875 0.375,0.46875 0.5,1 0.28125,0.28125 -0.125,0.375 0.21875,0.28125 c -0.12484,0.0083 -0.215383,0.03125 -0.34375,0.03125 -0.22644,-0.465131 -0.390066,-0.919645 -0.5625,-1.40625 l -0.3125,-0.375 -0.15625,-0.53125 0.125,-0.125 z"
     id="path-main" />
</defs>
<acyl-settings>
<linearGradient
     id="linearGradient4321">
    <stop
       style="stop-color:#00DEFF;stop-opacity:0.0;"
       offset="1.38777878078e-16"
       id="stop1" />
    <stop
       style="stop-color:#B3DEDE;stop-opacity:1.0;"
       offset="1.38777878078e-16"
       id="stop2" />
  </linearGradient>
<linearGradient
     inkscape:collect="always"
     xlink:href="#linearGradient4321"
     id="acyl_gradient"
     x1="50.0%"
     y1="0.0%"
     x2="50.0%"
     y2="100.0%" />
<filter>
    </filter>
<use id="1" style="fill:url(#acyl_gradient);filter:url(#filter1111)" xlink:href="#path-main" />
</acyl-settings>
</svg>
