<svg xmlns="http://www.w3.org/2000/svg" width="48" height="48">
<defs>
<defs
     id="defs4">
  </defs>
  <g
     inkscape:label="Layer 1"
     inkscape:groupmode="layer"
     id="layer1">
    <path
         d="M 3 7 L 3 42 L 45 42 L 45 10.5 L 25.75 10.5 L 25.75 7 L 3 7 z M 4.75 8.75 L 24 8.75 L 24 12.25 L 43.25 12.25 L 43.25 15.75 L 20.5 15.75 L 20.5 12.25 L 4.75 12.25 L 4.75 8.75 z M 22.34375 19.0625 C 22.352667 19.062168 22.365919 19.062557 22.375 19.0625 C 22.376824 19.06249 22.404423 19.0625 22.40625 19.0625 L 24.6875 19.0625 C 25.15595 19.062501 25.427969 19.520797 25.53125 19.90625 L 25.90625 21.5 C 26.353291 21.64058 26.809744 21.817353 27.21875 22.03125 L 28.59375 21.1875 C 29.02073 20.940986 29.481256 20.856259 29.8125 21.1875 L 31.4375 22.8125 C 31.768744 23.143744 31.637028 23.654413 31.4375 24 L 30.5625 25.40625 C 30.776491 25.81543 30.953143 26.240253 31.09375 26.6875 L 32.6875 27.0625 C 33.163732 27.190105 33.531251 27.437804 33.53125 27.90625 L 33.53125 30.21875 C 33.53125 30.687198 33.072957 30.959218 32.6875 31.0625 L 31.09375 31.4375 C 30.95419 31.8813 30.774349 32.312411 30.5625 32.71875 L 31.4375 34.09375 C 31.637028 34.439337 31.768744 34.981257 31.4375 35.3125 L 29.8125 36.9375 C 29.481256 37.268743 29.020732 37.184016 28.59375 36.9375 L 27.21875 36.0625 C 26.805615 36.279583 26.358327 36.482852 25.90625 36.625 L 25.53125 38.21875 C 25.427968 38.604203 25.155952 39.0625 24.6875 39.0625 L 22.40625 39.0625 C 21.937801 39.062499 21.658856 38.694976 21.53125 38.21875 L 21.1875 36.625 C 20.740395 36.484415 20.28406 36.307677 19.875 36.09375 L 18.5 36.9375 C 18.15441 37.137027 17.612495 37.268742 17.28125 36.9375 L 15.65625 35.3125 C 15.325006 34.981256 15.409733 34.551976 15.65625 34.125 L 16.53125 32.71875 C 16.317321 32.309692 16.140587 31.884603 16 31.4375 L 14.375 31.0625 C 13.989546 30.95922 13.53125 30.687197 13.53125 30.21875 L 13.53125 27.90625 C 13.53125 27.437805 13.898766 27.190104 14.375 27.0625 L 16 26.6875 C 16.141576 26.237133 16.315288 25.817992 16.53125 25.40625 L 15.65625 24 C 15.409733 23.573025 15.325006 23.112492 15.65625 22.78125 L 17.28125 21.15625 C 17.612495 20.825009 18.154411 20.956725 18.5 21.15625 L 19.90625 22.03125 C 20.31102 21.820606 20.745607 21.63896 21.1875 21.5 L 21.53125 19.90625 C 21.655874 19.441147 21.896162 19.07923 22.34375 19.0625 z M 23.53125 24.0625 C 20.77125 24.062501 18.531249 26.3025 18.53125 29.0625 C 18.53125 31.822501 20.771249 34.0625 23.53125 34.0625 C 26.29125 34.062499 28.531249 31.8225 28.53125 29.0625 C 28.53125 26.302501 26.291249 24.0625 23.53125 24.0625 z "
       id="path-main" />
  </g>
</defs>
<acyl-settings>
<linearGradient
     id="linearGradient4321">
    <stop
       style="stop-color:#00DEFF;stop-opacity:0.0;"
       offset="1.38777878078e-16"
       id="stop1" />
    <stop
       style="stop-color:#B3DEDE;stop-opacity:1.0;"
       offset="1.38777878078e-16"
       id="stop2" />
  </linearGradient>
<linearGradient
     inkscape:collect="always"
     xlink:href="#linearGradient4321"
     id="acyl_gradient"
     x1="50.0%"
     y1="0.0%"
     x2="50.0%"
     y2="100.0%" />
<filter>
    </filter>
<use id="1" style="fill:url(#acyl_gradient);filter:url(#filter1111)" xlink:href="#path-main" />
</acyl-settings>
</svg>
