<svg xmlns="http://www.w3.org/2000/svg" width="48" height="48">
<defs>
  <path
     id="path-main"
     d="M 38.187163,5 34.28064,9.5008789 33.655596,11.81383 24.904983,20.659308 20.435921,16.189685 c 1.433347,-2.005446 1.048115,-4.631094 -0.750053,-6.4387573 L 17.060684,7.1254151 C 15.082873,5.1371598 11.909589,5.0898089 9.903933,7.0316468 l 5.312872,5.2822812 0,2.125415 -1.406348,1.406525 -2.125149,0 C 9.945142,14.064829 8.1332658,12.349317 6.4349405,10.53233 c -1.9316374,2.016245 -1.9153078,5.200648 0.062504,7.188904 l 2.656436,2.625513 c 1.7981695,1.807663 4.3805335,2.191062 6.3754465,0.750146 l 4.469063,4.500879 -1.593862,1.625317 C 16.604484,25.96779 14.4817,25.833758 13.27917,27.035553 l -7.438021,7.438952 c -1.4128696,1.412006 -0.9961561,4.09989 0.9375656,6.032428 l 0.7188003,0.718891 c 1.9337221,1.932538 4.6500551,2.349687 6.0629241,0.937683 l 7.406769,-7.407697 c 1.15427,-1.153562 1.08694,-3.188201 -0.03125,-4.938464 l 1.625113,-1.625318 11.875832,11.939832 c 0.881034,0.885685 2.275439,0.885687 3.156471,0 l 1.750122,-1.750342 c 0.881036,-0.885686 0.881036,-2.302435 0,-3.188122 L 27.467663,23.253564 36.249527,14.376831 38.187163,14.158038 43,9.8759522 C 42.999998,9.8759516 38.187163,5 38.187163,5 z" />
</defs>
<acyl-settings>
<linearGradient
     id="linearGradient4321">
    <stop
       style="stop-color:#00DEFF;stop-opacity:0.0;"
       offset="1.38777878078e-16"
       id="stop1" />
    <stop
       style="stop-color:#B3DEDE;stop-opacity:1.0;"
       offset="1.38777878078e-16"
       id="stop2" />
  </linearGradient>
<linearGradient
     inkscape:collect="always"
     xlink:href="#linearGradient4321"
     id="acyl_gradient"
     x1="50.0%"
     y1="0.0%"
     x2="50.0%"
     y2="100.0%" />
<filter>
    </filter>
<use id="1" style="fill:url(#acyl_gradient);filter:url(#filter1111)" xlink:href="#path-main" />
</acyl-settings>
</svg>
