<svg xmlns="http://www.w3.org/2000/svg" width="48" height="48">
<defs>
  <defs
     id="defs4">
  </defs>
  <path
     id="path-main"
     d="M 33.684783,4.3722826 17.065217,13.967391 15.570652,11.1875 3.7038043,18.032609 5.2282609,20.8125 l -2.3913044,1.375 1.7934783,3.108696 -1.8532609,1.046195 -0.5081522,0.298913 0.388587,0.44837 1.763587,1.883152 L 2.5679348,30.019022 2,30.347826 2.4483696,30.766304 14.793478,43.05163 15.0625,43.320652 15.182065,43.5 46,25.714674 33.684783,4.3722826 z M 23.581522,14.326087 c 2.36433,0.02495 1.000627,1.545612 1.972826,2.630435 0.799633,0.150781 1.610467,0.417652 2.331522,0.777174 1.360642,-0.283215 1.440512,-2.097232 3.168478,-0.657609 1.693082,1.410584 -0.223482,1.605548 -0.538044,2.75 0.03099,0.0398 0.05916,0.07921 0.08967,0.119565 0.479285,0.634453 0.806415,1.315343 1.016305,2.002718 1.258027,0.61462 2.782053,-0.465525 2.929347,1.524456 0.153417,2.073251 -1.670861,0.783213 -2.839673,1.554348 -0.155206,0.605897 -0.395187,1.192079 -0.747283,1.733696 0.234214,1.412267 2.650369,1.593128 1.046196,3.078804 -1.646534,1.524898 -1.943821,-0.755078 -3.676627,-0.777174 -0.548316,0.280686 -1.112004,0.48117 -1.703804,0.627717 -1.067785,1.065667 0.75987,2.746126 -1.703805,2.720109 -2.364253,-0.02499 -1.030527,-1.545606 -2.002717,-2.630435 -0.822647,-0.151405 -1.591732,-0.375317 -2.331522,-0.747282 -1.33158,0.303898 -1.453588,2.086352 -3.168478,0.657608 -1.693098,-1.41058 0.253361,-1.605545 0.567935,-2.75 -0.03643,-0.04542 -0.08456,-0.102902 -0.119565,-0.149456 -0.478953,-0.634626 -0.836306,-1.28545 -1.046196,-1.972826 -1.258029,-0.61462 -2.7522,0.435638 -2.899457,-1.554348 -0.153363,-2.072582 1.670815,-0.754931 2.839674,-1.524457 0.156826,-0.619083 0.415064,-1.24153 0.777174,-1.793478 -0.256971,-1.390825 -2.671394,-1.571452 -1.076087,-3.048913 0.118645,-0.109884 0.223173,-0.196383 0.328805,-0.269022 1.360329,-0.935246 1.739884,1.025688 3.347826,1.046196 0.535897,-0.272248 1.096642,-0.483249 1.673913,-0.627717 1.099474,-1.064922 -0.711423,-2.746222 1.763587,-2.720109 z m 0.6875,6.42663 c -0.578888,-0.02666 -1.183958,0.109056 -1.703805,0.388587 -1.386267,0.745419 -1.760813,2.332927 -0.836956,3.557066 0.923866,1.224142 2.828406,1.642159 4.214674,0.896739 1.386268,-0.745422 1.730931,-2.362819 0.807065,-3.586957 -0.577417,-0.765082 -1.516164,-1.21101 -2.480978,-1.255435 z m -19.1603263,5.380435 8.1603263,14.048913 -9.6847829,-9.625 1.8233696,-1.076087 0.5081522,-0.298913 -0.388587,-0.448369 -1.7336956,-1.853261 1.3152174,-0.747283 z" />
</defs>
<acyl-settings>
<linearGradient
     id="linearGradient4321">
    <stop
       style="stop-color:#00DEFF;stop-opacity:0.0;"
       offset="1.38777878078e-16"
       id="stop1" />
    <stop
       style="stop-color:#B3DEDE;stop-opacity:1.0;"
       offset="1.38777878078e-16"
       id="stop2" />
  </linearGradient>
<linearGradient
     inkscape:collect="always"
     xlink:href="#linearGradient4321"
     id="acyl_gradient"
     x1="50.0%"
     y1="0.0%"
     x2="50.0%"
     y2="100.0%" />
<filter>
    </filter>
<use id="1" style="fill:url(#acyl_gradient);filter:url(#filter1111)" xlink:href="#path-main" />
</acyl-settings>
</svg>
