SplineFontDB: 3.0
FontName: TheBirdTags
FullName: TheBirdTags-Medium
FamilyName: TheBirdTags
Weight: Medium
Copyright: install gentoo
UComments: "2014-6-28: Created." 
Version: 001.000
ItalicAngle: 0
UnderlinePosition: -100
UnderlineWidth: 50
Ascent: 833
Descent: 167
LayerCount: 2
Layer: 0 0 "Back"  1
Layer: 1 0 "Fore"  0
XUID: [1021 899 39755028 14599603]
OS2Version: 0
OS2_WeightWidthSlopeOnly: 0
OS2_UseTypoMetrics: 1
CreationTime: 1403932806
ModificationTime: 1407547663
OS2TypoAscent: 0
OS2TypoAOffset: 1
OS2TypoDescent: 0
OS2TypoDOffset: 1
OS2TypoLinegap: 0
OS2WinAscent: 0
OS2WinAOffset: 1
OS2WinDescent: 0
OS2WinDOffset: 1
HheadAscent: 0
HheadAOffset: 1
HheadDescent: 0
HheadDOffset: 1
OS2Vendor: 'PfEd'
MarkAttachClasses: 1
DEI: 91125
Encoding: UnicodeFull
UnicodeInterp: none
NameList: Adobe Glyph List
DisplaySize: 12
AntiAlias: 1
FitToEm: 1
WinInfo: 9457 49 16
OnlyBitmaps: 1
BeginPrivate: 0
EndPrivate
BeginChars: 1114112 280

StartChar: uni0000
Encoding: 0 0 0
Width: 392
VWidth: 0
Flags: W
LayerCount: 2
EndChar

StartChar: space
Encoding: 32 32 1
Width: 392
VWidth: 0
Flags: W
LayerCount: 2
EndChar

StartChar: exclam
Encoding: 33 33 2
Width: 392
VWidth: 0
Flags: W
LayerCount: 2
EndChar

StartChar: quotedbl
Encoding: 34 34 3
Width: 392
VWidth: 0
Flags: W
LayerCount: 2
EndChar

StartChar: numbersign
Encoding: 35 35 4
Width: 392
VWidth: 0
Flags: W
LayerCount: 2
EndChar

StartChar: dollar
Encoding: 36 36 5
Width: 392
VWidth: 0
Flags: W
LayerCount: 2
EndChar

StartChar: percent
Encoding: 37 37 6
Width: 392
VWidth: 0
Flags: W
LayerCount: 2
EndChar

StartChar: ampersand
Encoding: 38 38 7
Width: 392
VWidth: 0
Flags: W
LayerCount: 2
EndChar

StartChar: quotesingle
Encoding: 39 39 8
Width: 392
VWidth: 0
Flags: W
LayerCount: 2
EndChar

StartChar: parenleft
Encoding: 40 40 9
Width: 392
VWidth: 0
Flags: W
LayerCount: 2
EndChar

StartChar: parenright
Encoding: 41 41 10
Width: 392
VWidth: 0
Flags: W
LayerCount: 2
EndChar

StartChar: asterisk
Encoding: 42 42 11
Width: 392
VWidth: 0
Flags: W
LayerCount: 2
EndChar

StartChar: plus
Encoding: 43 43 12
Width: 392
VWidth: 0
Flags: W
LayerCount: 2
EndChar

StartChar: comma
Encoding: 44 44 13
Width: 392
VWidth: 0
Flags: W
LayerCount: 2
EndChar

StartChar: hyphen
Encoding: 45 45 14
Width: 392
VWidth: 0
Flags: W
LayerCount: 2
EndChar

StartChar: period
Encoding: 46 46 15
Width: 392
VWidth: 0
Flags: W
LayerCount: 2
EndChar

StartChar: slash
Encoding: 47 47 16
Width: 392
VWidth: 0
Flags: W
LayerCount: 2
EndChar

StartChar: zero
Encoding: 48 48 17
Width: 392
VWidth: 0
Flags: W
LayerCount: 2
EndChar

StartChar: one
Encoding: 49 49 18
Width: 392
VWidth: 0
Flags: W
LayerCount: 2
EndChar

StartChar: two
Encoding: 50 50 19
Width: 392
VWidth: 0
Flags: W
LayerCount: 2
EndChar

StartChar: three
Encoding: 51 51 20
Width: 392
VWidth: 0
Flags: W
LayerCount: 2
EndChar

StartChar: four
Encoding: 52 52 21
Width: 392
VWidth: 0
Flags: W
LayerCount: 2
EndChar

StartChar: five
Encoding: 53 53 22
Width: 392
VWidth: 0
Flags: W
LayerCount: 2
EndChar

StartChar: six
Encoding: 54 54 23
Width: 392
VWidth: 0
Flags: W
LayerCount: 2
EndChar

StartChar: seven
Encoding: 55 55 24
Width: 392
VWidth: 0
Flags: W
LayerCount: 2
EndChar

StartChar: eight
Encoding: 56 56 25
Width: 392
VWidth: 0
Flags: W
LayerCount: 2
EndChar

StartChar: nine
Encoding: 57 57 26
Width: 392
VWidth: 0
Flags: W
LayerCount: 2
EndChar

StartChar: colon
Encoding: 58 58 27
Width: 392
VWidth: 0
Flags: W
LayerCount: 2
EndChar

StartChar: semicolon
Encoding: 59 59 28
Width: 392
VWidth: 0
Flags: W
LayerCount: 2
EndChar

StartChar: less
Encoding: 60 60 29
Width: 392
VWidth: 0
Flags: W
LayerCount: 2
EndChar

StartChar: equal
Encoding: 61 61 30
Width: 392
VWidth: 0
Flags: W
LayerCount: 2
EndChar

StartChar: greater
Encoding: 62 62 31
Width: 392
VWidth: 0
Flags: W
LayerCount: 2
EndChar

StartChar: question
Encoding: 63 63 32
Width: 392
VWidth: 0
Flags: W
LayerCount: 2
EndChar

StartChar: at
Encoding: 64 64 33
Width: 392
VWidth: 0
Flags: W
LayerCount: 2
EndChar

StartChar: A
Encoding: 65 65 34
Width: 392
VWidth: 0
Flags: W
LayerCount: 2
EndChar

StartChar: B
Encoding: 66 66 35
Width: 392
VWidth: 0
Flags: W
LayerCount: 2
EndChar

StartChar: C
Encoding: 67 67 36
Width: 392
VWidth: 0
Flags: W
LayerCount: 2
EndChar

StartChar: D
Encoding: 68 68 37
Width: 392
VWidth: 0
Flags: W
LayerCount: 2
EndChar

StartChar: E
Encoding: 69 69 38
Width: 392
VWidth: 0
Flags: W
LayerCount: 2
EndChar

StartChar: F
Encoding: 70 70 39
Width: 392
VWidth: 0
Flags: W
LayerCount: 2
EndChar

StartChar: G
Encoding: 71 71 40
Width: 392
VWidth: 0
Flags: W
LayerCount: 2
EndChar

StartChar: H
Encoding: 72 72 41
Width: 392
VWidth: 0
Flags: W
LayerCount: 2
EndChar

StartChar: I
Encoding: 73 73 42
Width: 392
VWidth: 0
Flags: W
LayerCount: 2
EndChar

StartChar: J
Encoding: 74 74 43
Width: 392
VWidth: 0
Flags: W
LayerCount: 2
EndChar

StartChar: K
Encoding: 75 75 44
Width: 392
VWidth: 0
Flags: W
LayerCount: 2
EndChar

StartChar: L
Encoding: 76 76 45
Width: 392
VWidth: 0
Flags: W
LayerCount: 2
EndChar

StartChar: M
Encoding: 77 77 46
Width: 392
VWidth: 0
Flags: W
LayerCount: 2
EndChar

StartChar: N
Encoding: 78 78 47
Width: 392
VWidth: 0
Flags: W
LayerCount: 2
EndChar

StartChar: O
Encoding: 79 79 48
Width: 392
VWidth: 0
Flags: W
LayerCount: 2
EndChar

StartChar: P
Encoding: 80 80 49
Width: 392
VWidth: 0
Flags: W
LayerCount: 2
EndChar

StartChar: Q
Encoding: 81 81 50
Width: 392
VWidth: 0
Flags: W
LayerCount: 2
EndChar

StartChar: R
Encoding: 82 82 51
Width: 392
VWidth: 0
Flags: W
LayerCount: 2
EndChar

StartChar: S
Encoding: 83 83 52
Width: 392
VWidth: 0
Flags: W
LayerCount: 2
EndChar

StartChar: T
Encoding: 84 84 53
Width: 392
VWidth: 0
Flags: W
LayerCount: 2
EndChar

StartChar: U
Encoding: 85 85 54
Width: 392
VWidth: 0
Flags: W
LayerCount: 2
EndChar

StartChar: V
Encoding: 86 86 55
Width: 392
VWidth: 0
Flags: W
LayerCount: 2
EndChar

StartChar: W
Encoding: 87 87 56
Width: 392
VWidth: 0
Flags: W
LayerCount: 2
EndChar

StartChar: X
Encoding: 88 88 57
Width: 392
VWidth: 0
Flags: W
LayerCount: 2
EndChar

StartChar: Y
Encoding: 89 89 58
Width: 392
VWidth: 0
Flags: W
LayerCount: 2
EndChar

StartChar: Z
Encoding: 90 90 59
Width: 392
VWidth: 0
Flags: W
LayerCount: 2
EndChar

StartChar: bracketleft
Encoding: 91 91 60
Width: 392
VWidth: 0
Flags: W
LayerCount: 2
EndChar

StartChar: backslash
Encoding: 92 92 61
Width: 392
VWidth: 0
Flags: W
LayerCount: 2
EndChar

StartChar: bracketright
Encoding: 93 93 62
Width: 392
VWidth: 0
Flags: W
LayerCount: 2
EndChar

StartChar: asciicircum
Encoding: 94 94 63
Width: 392
VWidth: 0
Flags: W
LayerCount: 2
EndChar

StartChar: underscore
Encoding: 95 95 64
Width: 392
VWidth: 0
Flags: W
LayerCount: 2
EndChar

StartChar: grave
Encoding: 96 96 65
Width: 392
VWidth: 0
Flags: W
LayerCount: 2
EndChar

StartChar: a
Encoding: 97 97 66
Width: 392
VWidth: 0
Flags: W
LayerCount: 2
EndChar

StartChar: b
Encoding: 98 98 67
Width: 392
VWidth: 0
Flags: W
LayerCount: 2
EndChar

StartChar: c
Encoding: 99 99 68
Width: 392
VWidth: 0
Flags: W
LayerCount: 2
EndChar

StartChar: d
Encoding: 100 100 69
Width: 392
VWidth: 0
Flags: W
LayerCount: 2
EndChar

StartChar: e
Encoding: 101 101 70
Width: 392
VWidth: 0
Flags: W
LayerCount: 2
EndChar

StartChar: f
Encoding: 102 102 71
Width: 392
VWidth: 0
Flags: W
LayerCount: 2
EndChar

StartChar: g
Encoding: 103 103 72
Width: 392
VWidth: 0
Flags: W
LayerCount: 2
EndChar

StartChar: h
Encoding: 104 104 73
Width: 392
VWidth: 0
Flags: W
LayerCount: 2
EndChar

StartChar: i
Encoding: 105 105 74
Width: 392
VWidth: 0
Flags: W
LayerCount: 2
EndChar

StartChar: j
Encoding: 106 106 75
Width: 392
VWidth: 0
Flags: W
LayerCount: 2
EndChar

StartChar: k
Encoding: 107 107 76
Width: 392
VWidth: 0
Flags: W
LayerCount: 2
EndChar

StartChar: l
Encoding: 108 108 77
Width: 392
VWidth: 0
Flags: W
LayerCount: 2
EndChar

StartChar: m
Encoding: 109 109 78
Width: 392
VWidth: 0
Flags: W
LayerCount: 2
EndChar

StartChar: n
Encoding: 110 110 79
Width: 392
VWidth: 0
Flags: W
LayerCount: 2
EndChar

StartChar: o
Encoding: 111 111 80
Width: 392
VWidth: 0
Flags: W
LayerCount: 2
EndChar

StartChar: p
Encoding: 112 112 81
Width: 392
VWidth: 0
Flags: W
LayerCount: 2
EndChar

StartChar: q
Encoding: 113 113 82
Width: 392
VWidth: 0
Flags: W
LayerCount: 2
EndChar

StartChar: r
Encoding: 114 114 83
Width: 392
VWidth: 0
Flags: W
LayerCount: 2
EndChar

StartChar: s
Encoding: 115 115 84
Width: 392
VWidth: 0
Flags: W
LayerCount: 2
EndChar

StartChar: t
Encoding: 116 116 85
Width: 392
VWidth: 0
Flags: W
LayerCount: 2
EndChar

StartChar: u
Encoding: 117 117 86
Width: 392
VWidth: 0
Flags: W
LayerCount: 2
EndChar

StartChar: v
Encoding: 118 118 87
Width: 392
VWidth: 0
Flags: W
LayerCount: 2
EndChar

StartChar: w
Encoding: 119 119 88
Width: 392
VWidth: 0
Flags: W
LayerCount: 2
EndChar

StartChar: x
Encoding: 120 120 89
Width: 392
VWidth: 0
Flags: W
LayerCount: 2
EndChar

StartChar: y
Encoding: 121 121 90
Width: 392
VWidth: 0
Flags: W
LayerCount: 2
EndChar

StartChar: z
Encoding: 122 122 91
Width: 392
VWidth: 0
Flags: W
LayerCount: 2
EndChar

StartChar: braceleft
Encoding: 123 123 92
Width: 392
VWidth: 0
Flags: W
LayerCount: 2
EndChar

StartChar: bar
Encoding: 124 124 93
Width: 392
VWidth: 0
Flags: W
LayerCount: 2
EndChar

StartChar: braceright
Encoding: 125 125 94
Width: 392
VWidth: 0
Flags: W
LayerCount: 2
EndChar

StartChar: asciitilde
Encoding: 126 126 95
Width: 392
VWidth: 0
Flags: W
LayerCount: 2
EndChar

StartChar: uni00A0
Encoding: 160 160 96
Width: 392
VWidth: 0
Flags: W
LayerCount: 2
EndChar

StartChar: exclamdown
Encoding: 161 161 97
Width: 392
VWidth: 0
Flags: W
LayerCount: 2
EndChar

StartChar: cent
Encoding: 162 162 98
Width: 392
VWidth: 0
Flags: W
LayerCount: 2
EndChar

StartChar: sterling
Encoding: 163 163 99
Width: 392
VWidth: 0
Flags: W
LayerCount: 2
EndChar

StartChar: currency
Encoding: 164 164 100
Width: 392
VWidth: 0
Flags: W
LayerCount: 2
EndChar

StartChar: yen
Encoding: 165 165 101
Width: 392
VWidth: 0
Flags: W
LayerCount: 2
EndChar

StartChar: brokenbar
Encoding: 166 166 102
Width: 392
VWidth: 0
Flags: W
LayerCount: 2
EndChar

StartChar: section
Encoding: 167 167 103
Width: 392
VWidth: 0
Flags: W
LayerCount: 2
EndChar

StartChar: dieresis
Encoding: 168 168 104
Width: 392
VWidth: 0
Flags: W
LayerCount: 2
EndChar

StartChar: copyright
Encoding: 169 169 105
Width: 392
VWidth: 0
Flags: W
LayerCount: 2
EndChar

StartChar: ordfeminine
Encoding: 170 170 106
Width: 392
VWidth: 0
Flags: W
LayerCount: 2
EndChar

StartChar: guillemotleft
Encoding: 171 171 107
Width: 392
VWidth: 0
Flags: W
LayerCount: 2
EndChar

StartChar: logicalnot
Encoding: 172 172 108
Width: 392
VWidth: 0
Flags: W
LayerCount: 2
EndChar

StartChar: uni00AD
Encoding: 173 173 109
Width: 392
VWidth: 0
Flags: W
LayerCount: 2
EndChar

StartChar: registered
Encoding: 174 174 110
Width: 392
VWidth: 0
Flags: W
LayerCount: 2
EndChar

StartChar: macron
Encoding: 175 175 111
Width: 392
VWidth: 0
Flags: W
LayerCount: 2
EndChar

StartChar: degree
Encoding: 176 176 112
Width: 392
VWidth: 0
Flags: W
LayerCount: 2
EndChar

StartChar: plusminus
Encoding: 177 177 113
Width: 392
VWidth: 0
Flags: W
LayerCount: 2
EndChar

StartChar: uni00B2
Encoding: 178 178 114
Width: 392
VWidth: 0
Flags: W
LayerCount: 2
EndChar

StartChar: uni00B3
Encoding: 179 179 115
Width: 392
VWidth: 0
Flags: W
LayerCount: 2
EndChar

StartChar: acute
Encoding: 180 180 116
Width: 392
VWidth: 0
Flags: W
LayerCount: 2
EndChar

StartChar: uni00B5
Encoding: 181 181 117
Width: 392
VWidth: 0
Flags: W
LayerCount: 2
EndChar

StartChar: paragraph
Encoding: 182 182 118
Width: 392
VWidth: 0
Flags: W
LayerCount: 2
EndChar

StartChar: periodcentered
Encoding: 183 183 119
Width: 392
VWidth: 0
Flags: W
LayerCount: 2
EndChar

StartChar: cedilla
Encoding: 184 184 120
Width: 392
VWidth: 0
Flags: W
LayerCount: 2
EndChar

StartChar: uni00B9
Encoding: 185 185 121
Width: 392
VWidth: 0
Flags: W
LayerCount: 2
EndChar

StartChar: ordmasculine
Encoding: 186 186 122
Width: 392
VWidth: 0
Flags: W
LayerCount: 2
EndChar

StartChar: guillemotright
Encoding: 187 187 123
Width: 392
VWidth: 0
Flags: W
LayerCount: 2
EndChar

StartChar: onequarter
Encoding: 188 188 124
Width: 392
VWidth: 0
Flags: W
LayerCount: 2
EndChar

StartChar: onehalf
Encoding: 189 189 125
Width: 392
VWidth: 0
Flags: W
LayerCount: 2
EndChar

StartChar: threequarters
Encoding: 190 190 126
Width: 392
VWidth: 0
Flags: W
LayerCount: 2
EndChar

StartChar: questiondown
Encoding: 191 191 127
Width: 392
VWidth: 0
Flags: W
LayerCount: 2
EndChar

StartChar: Agrave
Encoding: 192 192 128
Width: 392
VWidth: 0
Flags: W
LayerCount: 2
EndChar

StartChar: Aacute
Encoding: 193 193 129
Width: 392
VWidth: 0
Flags: W
LayerCount: 2
EndChar

StartChar: Acircumflex
Encoding: 194 194 130
Width: 392
VWidth: 0
Flags: W
LayerCount: 2
EndChar

StartChar: Atilde
Encoding: 195 195 131
Width: 392
VWidth: 0
Flags: W
LayerCount: 2
EndChar

StartChar: Adieresis
Encoding: 196 196 132
Width: 392
VWidth: 0
Flags: W
LayerCount: 2
EndChar

StartChar: Aring
Encoding: 197 197 133
Width: 392
VWidth: 0
Flags: W
LayerCount: 2
EndChar

StartChar: AE
Encoding: 198 198 134
Width: 392
VWidth: 0
Flags: W
LayerCount: 2
EndChar

StartChar: Ccedilla
Encoding: 199 199 135
Width: 392
VWidth: 0
Flags: W
LayerCount: 2
EndChar

StartChar: Egrave
Encoding: 200 200 136
Width: 392
VWidth: 0
Flags: W
LayerCount: 2
EndChar

StartChar: Eacute
Encoding: 201 201 137
Width: 392
VWidth: 0
Flags: W
LayerCount: 2
EndChar

StartChar: Ecircumflex
Encoding: 202 202 138
Width: 392
VWidth: 0
Flags: W
LayerCount: 2
EndChar

StartChar: Edieresis
Encoding: 203 203 139
Width: 392
VWidth: 0
Flags: W
LayerCount: 2
EndChar

StartChar: Igrave
Encoding: 204 204 140
Width: 392
VWidth: 0
Flags: W
LayerCount: 2
EndChar

StartChar: Iacute
Encoding: 205 205 141
Width: 392
VWidth: 0
Flags: W
LayerCount: 2
EndChar

StartChar: Icircumflex
Encoding: 206 206 142
Width: 392
VWidth: 0
Flags: W
LayerCount: 2
EndChar

StartChar: Idieresis
Encoding: 207 207 143
Width: 392
VWidth: 0
Flags: W
LayerCount: 2
EndChar

StartChar: Eth
Encoding: 208 208 144
Width: 392
VWidth: 0
Flags: W
LayerCount: 2
EndChar

StartChar: Ntilde
Encoding: 209 209 145
Width: 392
VWidth: 0
Flags: W
LayerCount: 2
EndChar

StartChar: Ograve
Encoding: 210 210 146
Width: 392
VWidth: 0
Flags: W
LayerCount: 2
EndChar

StartChar: Oacute
Encoding: 211 211 147
Width: 392
VWidth: 0
Flags: W
LayerCount: 2
EndChar

StartChar: Ocircumflex
Encoding: 212 212 148
Width: 392
VWidth: 0
Flags: W
LayerCount: 2
EndChar

StartChar: Otilde
Encoding: 213 213 149
Width: 392
VWidth: 0
Flags: W
LayerCount: 2
EndChar

StartChar: Odieresis
Encoding: 214 214 150
Width: 392
VWidth: 0
Flags: W
LayerCount: 2
EndChar

StartChar: multiply
Encoding: 215 215 151
Width: 392
VWidth: 0
Flags: W
LayerCount: 2
EndChar

StartChar: Oslash
Encoding: 216 216 152
Width: 392
VWidth: 0
Flags: W
LayerCount: 2
EndChar

StartChar: Ugrave
Encoding: 217 217 153
Width: 392
VWidth: 0
Flags: W
LayerCount: 2
EndChar

StartChar: Uacute
Encoding: 218 218 154
Width: 392
VWidth: 0
Flags: W
LayerCount: 2
EndChar

StartChar: Ucircumflex
Encoding: 219 219 155
Width: 392
VWidth: 0
Flags: W
LayerCount: 2
EndChar

StartChar: Udieresis
Encoding: 220 220 156
Width: 392
VWidth: 0
Flags: W
LayerCount: 2
EndChar

StartChar: Yacute
Encoding: 221 221 157
Width: 392
VWidth: 0
Flags: W
LayerCount: 2
EndChar

StartChar: Thorn
Encoding: 222 222 158
Width: 392
VWidth: 0
Flags: W
LayerCount: 2
EndChar

StartChar: germandbls
Encoding: 223 223 159
Width: 392
VWidth: 0
Flags: W
LayerCount: 2
EndChar

StartChar: agrave
Encoding: 224 224 160
Width: 392
VWidth: 0
Flags: W
LayerCount: 2
EndChar

StartChar: aacute
Encoding: 225 225 161
Width: 392
VWidth: 0
Flags: W
LayerCount: 2
EndChar

StartChar: acircumflex
Encoding: 226 226 162
Width: 392
VWidth: 0
Flags: W
LayerCount: 2
EndChar

StartChar: atilde
Encoding: 227 227 163
Width: 392
VWidth: 0
Flags: W
LayerCount: 2
EndChar

StartChar: adieresis
Encoding: 228 228 164
Width: 392
VWidth: 0
Flags: W
LayerCount: 2
EndChar

StartChar: aring
Encoding: 229 229 165
Width: 392
VWidth: 0
Flags: W
LayerCount: 2
EndChar

StartChar: ae
Encoding: 230 230 166
Width: 392
VWidth: 0
Flags: W
LayerCount: 2
EndChar

StartChar: ccedilla
Encoding: 231 231 167
Width: 392
VWidth: 0
Flags: W
LayerCount: 2
EndChar

StartChar: egrave
Encoding: 232 232 168
Width: 392
VWidth: 0
Flags: W
LayerCount: 2
EndChar

StartChar: eacute
Encoding: 233 233 169
Width: 392
VWidth: 0
Flags: W
LayerCount: 2
EndChar

StartChar: ecircumflex
Encoding: 234 234 170
Width: 392
VWidth: 0
Flags: W
LayerCount: 2
EndChar

StartChar: edieresis
Encoding: 235 235 171
Width: 392
VWidth: 0
Flags: W
LayerCount: 2
EndChar

StartChar: igrave
Encoding: 236 236 172
Width: 392
VWidth: 0
Flags: W
LayerCount: 2
EndChar

StartChar: iacute
Encoding: 237 237 173
Width: 392
VWidth: 0
Flags: W
LayerCount: 2
EndChar

StartChar: icircumflex
Encoding: 238 238 174
Width: 392
VWidth: 0
Flags: W
LayerCount: 2
EndChar

StartChar: idieresis
Encoding: 239 239 175
Width: 392
VWidth: 0
Flags: W
LayerCount: 2
EndChar

StartChar: eth
Encoding: 240 240 176
Width: 392
VWidth: 0
Flags: W
LayerCount: 2
EndChar

StartChar: ntilde
Encoding: 241 241 177
Width: 392
VWidth: 0
Flags: W
LayerCount: 2
EndChar

StartChar: ograve
Encoding: 242 242 178
Width: 392
VWidth: 0
Flags: W
LayerCount: 2
EndChar

StartChar: oacute
Encoding: 243 243 179
Width: 392
VWidth: 0
Flags: W
LayerCount: 2
EndChar

StartChar: ocircumflex
Encoding: 244 244 180
Width: 392
VWidth: 0
Flags: W
LayerCount: 2
EndChar

StartChar: otilde
Encoding: 245 245 181
Width: 392
VWidth: 0
Flags: W
LayerCount: 2
EndChar

StartChar: odieresis
Encoding: 246 246 182
Width: 392
VWidth: 0
Flags: W
LayerCount: 2
EndChar

StartChar: divide
Encoding: 247 247 183
Width: 392
VWidth: 0
Flags: W
LayerCount: 2
EndChar

StartChar: oslash
Encoding: 248 248 184
Width: 392
VWidth: 0
Flags: W
LayerCount: 2
EndChar

StartChar: ugrave
Encoding: 249 249 185
Width: 392
VWidth: 0
Flags: W
LayerCount: 2
EndChar

StartChar: uacute
Encoding: 250 250 186
Width: 392
VWidth: 0
Flags: W
LayerCount: 2
EndChar

StartChar: ucircumflex
Encoding: 251 251 187
Width: 392
VWidth: 0
Flags: W
LayerCount: 2
EndChar

StartChar: udieresis
Encoding: 252 252 188
Width: 392
VWidth: 0
Flags: W
LayerCount: 2
EndChar

StartChar: yacute
Encoding: 253 253 189
Width: 392
VWidth: 0
Flags: W
LayerCount: 2
EndChar

StartChar: thorn
Encoding: 254 254 190
Width: 392
VWidth: 0
Flags: W
LayerCount: 2
EndChar

StartChar: ydieresis
Encoding: 255 255 191
Width: 392
VWidth: 0
Flags: W
LayerCount: 2
EndChar

StartChar: pi
Encoding: 960 960 192
Width: 392
VWidth: 0
Flags: W
LayerCount: 2
EndChar

StartChar: uni09E8
Encoding: 2536 2536 193
Width: 392
VWidth: 0
Flags: W
LayerCount: 2
EndChar

StartChar: uni09E9
Encoding: 2537 2537 194
Width: 392
VWidth: 0
Flags: W
LayerCount: 2
EndChar

StartChar: notequal
Encoding: 8800 8800 195
Width: 392
VWidth: 0
Flags: W
LayerCount: 2
EndChar

StartChar: lessequal
Encoding: 8804 8804 196
Width: 392
VWidth: 0
Flags: W
LayerCount: 2
EndChar

StartChar: greaterequal
Encoding: 8805 8805 197
Width: 392
VWidth: 0
Flags: W
LayerCount: 2
EndChar

StartChar: uni23BA
Encoding: 9146 9146 198
Width: 392
VWidth: 0
Flags: W
LayerCount: 2
EndChar

StartChar: uni23BB
Encoding: 9147 9147 199
Width: 392
VWidth: 0
Flags: W
LayerCount: 2
EndChar

StartChar: uni23BC
Encoding: 9148 9148 200
Width: 392
VWidth: 0
Flags: W
LayerCount: 2
EndChar

StartChar: uni23BD
Encoding: 9149 9149 201
Width: 392
VWidth: 0
Flags: W
LayerCount: 2
EndChar

StartChar: uni2409
Encoding: 9225 9225 202
Width: 392
VWidth: 0
Flags: W
LayerCount: 2
EndChar

StartChar: uni240A
Encoding: 9226 9226 203
Width: 392
VWidth: 0
Flags: W
LayerCount: 2
EndChar

StartChar: uni240C
Encoding: 9228 9228 204
Width: 392
VWidth: 0
Flags: W
LayerCount: 2
EndChar

StartChar: uni240D
Encoding: 9229 9229 205
Width: 392
VWidth: 0
Flags: W
LayerCount: 2
EndChar

StartChar: SF100000
Encoding: 9472 9472 206
Width: 392
VWidth: 0
Flags: W
LayerCount: 2
EndChar

StartChar: SF110000
Encoding: 9474 9474 207
Width: 392
VWidth: 0
Flags: W
LayerCount: 2
EndChar

StartChar: SF010000
Encoding: 9484 9484 208
Width: 392
VWidth: 0
Flags: W
LayerCount: 2
EndChar

StartChar: SF030000
Encoding: 9488 9488 209
Width: 392
VWidth: 0
Flags: W
LayerCount: 2
EndChar

StartChar: SF020000
Encoding: 9492 9492 210
Width: 392
VWidth: 0
Flags: W
LayerCount: 2
EndChar

StartChar: SF040000
Encoding: 9496 9496 211
Width: 392
VWidth: 0
Flags: W
LayerCount: 2
EndChar

StartChar: SF080000
Encoding: 9500 9500 212
Width: 392
VWidth: 0
Flags: W
LayerCount: 2
EndChar

StartChar: SF090000
Encoding: 9508 9508 213
Width: 392
VWidth: 0
Flags: W
LayerCount: 2
EndChar

StartChar: SF060000
Encoding: 9516 9516 214
Width: 392
VWidth: 0
Flags: W
LayerCount: 2
EndChar

StartChar: SF070000
Encoding: 9524 9524 215
Width: 392
VWidth: 0
Flags: W
LayerCount: 2
EndChar

StartChar: SF050000
Encoding: 9532 9532 216
Width: 392
VWidth: 0
Flags: W
LayerCount: 2
EndChar

StartChar: shade
Encoding: 9618 9618 217
Width: 392
VWidth: 0
Flags: W
LayerCount: 2
EndChar

StartChar: H18543
Encoding: 9642 9642 218
Width: 500
VWidth: 0
Flags: W
LayerCount: 2
EndChar

StartChar: uni25C6
Encoding: 9670 9670 219
Width: 392
VWidth: 0
Flags: W
LayerCount: 2
EndChar

StartChar: uni25E2
Encoding: 9698 9698 220
Width: 500
VWidth: 0
Flags: W
LayerCount: 2
EndChar

StartChar: uni25E3
Encoding: 9699 9699 221
Width: 500
VWidth: 0
Flags: W
LayerCount: 2
EndChar

StartChar: u9AAA0
Encoding: 633504 633504 222
Width: 83
VWidth: 0
Flags: W
LayerCount: 2
EndChar

StartChar: u9AAA1
Encoding: 633505 633505 223
Width: 166
VWidth: 0
Flags: W
LayerCount: 2
EndChar

StartChar: u9AAA2
Encoding: 633506 633506 224
Width: 250
VWidth: 0
Flags: W
LayerCount: 2
EndChar

StartChar: u9AAA3
Encoding: 633507 633507 225
Width: 333
VWidth: 0
Flags: W
LayerCount: 2
EndChar

StartChar: u9AAA4
Encoding: 633508 633508 226
Width: 416
VWidth: 0
Flags: W
LayerCount: 2
EndChar

StartChar: u9AAA5
Encoding: 633509 633509 227
Width: 500
VWidth: 0
Flags: W
LayerCount: 2
EndChar

StartChar: u9AAA6
Encoding: 633510 633510 228
Width: 583
VWidth: 0
Flags: W
LayerCount: 2
EndChar

StartChar: u9AAA7
Encoding: 633511 633511 229
Width: 666
VWidth: 0
Flags: W
LayerCount: 2
EndChar

StartChar: u9AAA8
Encoding: 633512 633512 230
Width: 750
VWidth: 0
Flags: W
LayerCount: 2
EndChar

StartChar: u9AAA9
Encoding: 633513 633513 231
Width: 833
VWidth: 0
Flags: W
LayerCount: 2
EndChar

StartChar: u9AAAA
Encoding: 633514 633514 232
Width: 1000
VWidth: 0
Flags: W
LayerCount: 2
EndChar

StartChar: u9AAAB
Encoding: 633515 633515 233
Width: 1000
VWidth: 0
Flags: W
LayerCount: 2
EndChar

StartChar: u9AAAC
Encoding: 633516 633516 234
Width: 833
VWidth: 0
Flags: W
LayerCount: 2
EndChar

StartChar: u9AAAD
Encoding: 633517 633517 235
Width: 833
VWidth: 0
Flags: W
LayerCount: 2
EndChar

StartChar: u9AAAE
Encoding: 633518 633518 236
Width: 833
VWidth: 0
Flags: W
LayerCount: 2
EndChar

StartChar: u9AAAF
Encoding: 633519 633519 237
Width: 1000
VWidth: 0
Flags: W
LayerCount: 2
EndChar

StartChar: u9AAB0
Encoding: 633520 633520 238
Width: 166
VWidth: 0
Flags: W
LayerCount: 2
EndChar

StartChar: uni276D
Encoding: 10093 10093 239
Width: 500
VWidth: 0
Flags: W
LayerCount: 2
EndChar

StartChar: u9AAB1
Encoding: 633521 633521 240
Width: 1000
VWidth: 0
Flags: W
LayerCount: 2
EndChar

StartChar: u9AAB2
Encoding: 633522 633522 241
Width: 1000
VWidth: 0
Flags: W
LayerCount: 2
EndChar

StartChar: uni23F0
Encoding: 9200 9200 242
Width: 500
VWidth: 0
Flags: W
LayerCount: 2
EndChar

StartChar: uni2708
Encoding: 9992 9992 243
Width: 500
VWidth: 0
Flags: W
LayerCount: 2
EndChar

StartChar: daggerdbl
Encoding: 8225 8225 244
Width: 1000
VWidth: 0
LayerCount: 2
EndChar

StartChar: uni2756
Encoding: 10070 10070 245
Width: 1000
VWidth: 0
LayerCount: 2
EndChar

StartChar: uni2B61
Encoding: 11105 11105 246
Width: 1000
VWidth: 0
LayerCount: 2
EndChar

StartChar: uni2B06
Encoding: 11014 11014 247
Width: 1000
VWidth: 0
Flags: W
LayerCount: 2
EndChar

StartChar: uni2711
Encoding: 10001 10001 248
Width: 1000
VWidth: 0
LayerCount: 2
EndChar

StartChar: uni25C9
Encoding: 9673 9673 249
Width: 1000
VWidth: 0
Flags: W
LayerCount: 2
EndChar

StartChar: uni27F7
Encoding: 10231 10231 250
Width: 500
VWidth: 0
Flags: W
LayerCount: 2
EndChar

StartChar: uni2B65
Encoding: 11109 11109 251
Width: 500
VWidth: 0
Flags: W
LayerCount: 2
EndChar

StartChar: uni25A8
Encoding: 9640 9640 252
Width: 500
VWidth: 0
Flags: W
LayerCount: 2
EndChar

StartChar: uni2728
Encoding: 10024 10024 253
Width: 500
VWidth: 0
Flags: W
LayerCount: 2
EndChar

StartChar: uni296E
Encoding: 10606 10606 254
Width: 1000
VWidth: 0
LayerCount: 2
EndChar

StartChar: u9AAB3
Encoding: 633523 633523 255
Width: 583
VWidth: 0
Flags: W
LayerCount: 2
EndChar

StartChar: u9AAB4
Encoding: 633524 633524 256
Width: 583
VWidth: 0
Flags: W
LayerCount: 2
EndChar

StartChar: u9AAB5
Encoding: 633525 633525 257
Width: 583
VWidth: 0
Flags: W
LayerCount: 2
EndChar

StartChar: u9AAB6
Encoding: 633526 633526 258
Width: 750
VWidth: 0
Flags: W
LayerCount: 2
EndChar

StartChar: u9AB0F
Encoding: 633615 633615 259
Width: 1000
VWidth: 0
Flags: W
LayerCount: 2
EndChar

StartChar: u9AAB7
Encoding: 633527 633527 260
Width: 666
VWidth: 0
Flags: W
LayerCount: 2
EndChar

StartChar: u9AAE9
Encoding: 633577 633577 261
Width: 1000
VWidth: 0
LayerCount: 2
EndChar

StartChar: u9AAB8
Encoding: 633528 633528 262
Width: 583
VWidth: 0
Flags: W
LayerCount: 2
EndChar

StartChar: u9AAB9
Encoding: 633529 633529 263
Width: 1000
VWidth: 0
Flags: W
LayerCount: 2
EndChar

StartChar: u9AAEC
Encoding: 633580 633580 264
Width: 1000
VWidth: 0
LayerCount: 2
EndChar

StartChar: u9AB00
Encoding: 633600 633600 265
Width: 1000
VWidth: 0
LayerCount: 2
EndChar

StartChar: u9AB20
Encoding: 633632 633632 266
Width: 1000
VWidth: 0
Flags: W
LayerCount: 2
EndChar

StartChar: u9AB21
Encoding: 633633 633633 267
Width: 666
VWidth: 0
Flags: W
LayerCount: 2
EndChar

StartChar: u9AB23
Encoding: 633635 633635 268
Width: 1000
VWidth: 0
Flags: W
LayerCount: 2
EndChar

StartChar: u9AB22
Encoding: 633634 633634 269
Width: 666
VWidth: 0
Flags: W
LayerCount: 2
EndChar

StartChar: u9AB24
Encoding: 633636 633636 270
Width: 1000
VWidth: 0
Flags: W
LayerCount: 2
EndChar

StartChar: u9AB54
Encoding: 633684 633684 271
Width: 1000
VWidth: 0
LayerCount: 2
EndChar

StartChar: u9AB55
Encoding: 633685 633685 272
Width: 1000
VWidth: 0
LayerCount: 2
EndChar

StartChar: u9AB25
Encoding: 633637 633637 273
Width: 666
VWidth: 0
Flags: W
LayerCount: 2
EndChar

StartChar: u9AB26
Encoding: 633638 633638 274
Width: 1000
VWidth: 0
Flags: W
LayerCount: 2
EndChar

StartChar: u9AB57
Encoding: 633687 633687 275
Width: 1000
VWidth: 0
LayerCount: 2
EndChar

StartChar: u9AB58
Encoding: 633688 633688 276
Width: 1000
VWidth: 0
LayerCount: 2
EndChar

StartChar: angle
Encoding: 8736 8736 277
Width: 583
VWidth: 0
Flags: W
LayerCount: 2
EndChar

StartChar: uni2771
Encoding: 10097 10097 278
Width: 1000
VWidth: 0
LayerCount: 2
EndChar

StartChar: uni276F
Encoding: 10095 10095 279
Width: 1000
VWidth: 0
LayerCount: 2
EndChar
EndChars
BitmapFont: 12 281 10 2 1 Misc
BDFStartProperties: 26
FONT 1 "-Misc-TheBirdTags-Medium-R-Normal--12-87-100-100-C-60-ISO10646-1"
SIZE 1 "8 100 100"
FONTBOUNDINGBOX 1 "17 12 0 -2"
COMMENT 0 "Generated by fontforge, http://fontforge.sourceforge.net"
FONTNAME_REGISTRY 16 ""
FOUNDRY 16 "Misc"
FAMILY_NAME 16 "TheBirdTags"
WEIGHT_NAME 16 "Medium"
SLANT 16 "R"
SETWIDTH_NAME 16 "Normal"
ADD_STYLE_NAME 16 ""
PIXEL_SIZE 18 12
POINT_SIZE 18 87
RESOLUTION_X 19 100
RESOLUTION_Y 19 100
SPACING 16 "C"
AVERAGE_WIDTH 18 60
CHARSET_REGISTRY 16 "ISO10646"
CHARSET_ENCODING 16 "1"
COPYRIGHT 16 "install gentoo"
CAP_HEIGHT 18 7
X_HEIGHT 18 5
FONT_VERSION 16 "1.10"
WEIGHT 19 10
RESOLUTION 19 138
QUAD_WIDTH 18 6
BDFEndProperties
Resolution: 100
BDFChar: 0 0 6 1 4 1 6
n;r`nORN5M
BDFChar: 1 32 6 5 5 -2 -2
z
BDFChar: 2 33 6 2 2 1 8
J:N0#J,fS"
BDFChar: 3 34 6 1 3 6 8
TV.qX
BDFChar: 4 35 6 0 4 1 8
:f-p`;#!j`
BDFChar: 5 36 6 1 4 0 9
+<YWR5TgWr5X5;L
BDFChar: 6 37 6 0 4 0 8
5bP&P+Af!b&-)\1
BDFChar: 7 38 6 0 4 1 8
5bOc8W0!*S
BDFChar: 8 39 6 2 2 6 8
J:N.M
BDFChar: 9 40 6 1 3 -1 8
+@&2BJ:N/85Tg%,
BDFChar: 10 41 6 1 3 -1 8
J3Z@B+<Vdl5_&h7
BDFChar: 11 42 6 0 4 2 6
+K07X+92BA
BDFChar: 12 43 6 0 4 2 6
+<^G%+92BA
BDFChar: 13 44 6 1 2 -1 2
^q`3c
BDFChar: 14 45 6 0 4 4 4
p](9o
BDFChar: 15 46 6 1 2 1 2
^q]pM
BDFChar: 16 47 6 0 3 0 7
&.fs,5X9jM
BDFChar: 17 48 6 0 4 1 7
E/9m[aG=d8
BDFChar: 18 49 6 0 4 1 7
+CLib+<^FZ
BDFChar: 19 50 6 0 4 1 7
E/4c2+@,]%
BDFChar: 20 51 6 0 4 1 7
p]qEb#`*F"
BDFChar: 21 52 6 0 4 1 7
&26qBp^du:
BDFChar: 22 53 6 0 4 1 7
pjhi>#`*F"
BDFChar: 23 54 6 0 4 1 7
0L10XLkp!M
BDFChar: 24 55 6 0 4 1 7
p]qEB+<Vd,
BDFChar: 25 56 6 0 4 1 7
E/9<hLkp!M
BDFChar: 26 57 6 0 4 1 7
E/9<p#S:AD
BDFChar: 27 58 6 1 2 1 6
^q]pM^q]pM
BDFChar: 28 59 6 1 2 -1 6
^q]pM^q`3c
BDFChar: 29 60 6 1 4 1 7
&0O5g5TgU<
BDFChar: 30 61 6 0 4 3 5
p]1'h
BDFChar: 31 62 6 0 3 1 7
J3Y4g+@(GW
BDFChar: 32 63 6 0 4 1 8
E/4c2+92Ba
BDFChar: 33 64 6 0 4 0 8
E/9=;W47A.GQ7^D
BDFChar: 34 65 6 0 4 1 7
+<XKWE/9;M
BDFChar: 35 66 6 0 4 1 7
n;)niLktO#
BDFChar: 36 67 6 0 4 1 7
3'`"EJ3Z'o
BDFChar: 37 68 6 0 4 1 7
n;)mVLlgNp
BDFChar: 38 69 6 0 4 1 7
pjdnaJ:RCp
BDFChar: 39 70 6 0 4 1 7
pjdnaJ:N.M
BDFChar: 40 71 6 0 4 1 7
3'`"]Le'K*
BDFChar: 41 72 6 0 4 1 7
Lkpl^Lkpie
BDFChar: 42 73 6 1 3 1 7
i'9Om5X=6-
BDFChar: 43 74 6 0 4 1 7
#RC\ALkp!M
BDFChar: 44 75 6 0 4 1 7
Lle:FTTFs0
BDFChar: 45 76 6 0 4 1 7
J:N0#J:RCp
BDFChar: 46 77 6 0 4 1 7
LtJZ)Lkpie
BDFChar: 47 78 6 0 4 1 7
LrcN^Lkpie
BDFChar: 48 79 6 0 4 1 7
E/9=+Lkp!M
BDFChar: 49 80 6 0 4 1 7
n;)niJ:N.M
BDFChar: 50 81 6 0 4 -1 7
E/9=+Lkp!]#QOi)
BDFChar: 51 82 6 0 4 1 7
n;)niTTFs0
BDFChar: 52 83 6 0 3 1 7
E.EIH&.mb"
BDFChar: 53 84 6 0 4 1 7
p`L\%+<Vd,
BDFChar: 54 85 6 0 4 1 7
LkpkCLkp!M
BDFChar: 55 86 6 0 4 1 7
Lkpj`:`pk\
BDFChar: 56 87 6 0 4 1 7
LkpkcW2S>K
BDFChar: 57 88 6 0 4 1 7
LknkM:l'o-
BDFChar: 58 89 6 0 4 1 7
LknkM+<Vd,
BDFChar: 59 90 6 0 4 1 7
p^ePj5X>)E
BDFChar: 60 91 6 1 3 -1 8
i.-?.J:N0#JD^D-
BDFChar: 61 92 6 0 3 0 7
J:KmM+<V4,
BDFChar: 62 93 6 1 3 -1 8
i#j-b+<VdL+Q*5"
BDFChar: 63 94 6 0 4 5 7
+Adjo
BDFChar: 64 95 6 0 5 -1 -1
qu?]s
BDFChar: 65 96 6 1 3 6 8
J3Y4W
BDFChar: 66 97 6 0 4 1 5
E!U]EGQ7^D
BDFChar: 67 98 6 0 4 1 7
J:R-FLktO#
BDFChar: 68 99 6 0 3 1 5
E.EIhDu]k<
BDFChar: 69 100 6 0 4 1 7
#RG[2Lkp9U
BDFChar: 70 101 6 0 4 1 5
E/=:>GQ7^D
BDFChar: 71 102 6 0 3 1 7
0L5+m5X7R7
BDFChar: 72 103 6 0 4 -1 5
G_h03GR/6g
BDFChar: 73 104 6 0 4 1 7
J:R-FLkpie
BDFChar: 74 105 6 1 3 1 7
5QJSb5X=6-
BDFChar: 75 106 6 1 3 -1 7
+95dl+<VdL^]4?7
BDFChar: 76 107 6 0 4 1 7
J:N`Si/i`p
BDFChar: 77 108 6 1 3 1 7
^d(.M5X=6-
BDFChar: 78 109 6 0 4 1 5
fVkaIVuQet
BDFChar: 79 110 6 0 4 1 5
n;)mVL]@DT
BDFChar: 80 111 6 0 4 1 5
E/9=+Du]k<
BDFChar: 81 112 6 0 4 -1 5
n;)mVn:6#h
BDFChar: 82 113 6 0 4 -1 5
G_h03GR+QT
BDFChar: 83 114 6 0 3 1 5
YeYd>J,fQL
BDFChar: 84 115 6 0 3 1 5
E.D=-huE`W
BDFChar: 85 116 6 0 3 1 6
5k%$(5VN0<
BDFChar: 86 117 6 0 4 1 5
LkpkCGQ7^D
BDFChar: 87 118 6 0 4 1 5
Lknl(+92BA
BDFChar: 88 119 6 0 4 1 5
Lkr".fDkmO
BDFChar: 89 120 6 0 4 1 5
Leo3jL]@DT
BDFChar: 90 121 6 0 4 -1 5
LkpkCGR/6g
BDFChar: 91 122 6 0 4 1 5
p^eQ5p](9o
BDFChar: 92 123 6 0 4 -1 9
(a'qD+M]*B+<VL$
BDFChar: 93 124 6 2 2 0 8
J:N0#J:N0#J,fQL
BDFChar: 94 125 6 0 4 -1 9
^`XaB+;c4D+<\H"
BDFChar: 95 126 6 0 4 5 7
8>qUM
BDFChar: 96 160 6 5 5 -2 -2
z
BDFChar: 97 161 6 2 2 -1 6
J,fS"J:N0#
BDFChar: 98 162 6 0 3 0 8
+<YWRJ:MS]+92BA
BDFChar: 99 163 6 0 4 1 7
0L.nm5X>)E
BDFChar: 100 164 6 0 4 2 6
Li?10L]@DT
BDFChar: 101 165 6 0 4 1 7
Leo5h+S[&Z
BDFChar: 102 166 6 2 2 0 8
J:N0#!.]TMJ,fQL
BDFChar: 103 167 6 5 5 -2 -2
z
BDFChar: 104 168 6 1 3 7 7
TE"rl
BDFChar: 105 169 6 0 5 1 7
G_D<WP_=8]
BDFChar: 106 170 6 5 5 -2 -2
z
BDFChar: 107 171 6 0 4 1 5
-r?R5-ia5I
BDFChar: 108 172 6 5 5 -2 -2
z
BDFChar: 109 173 6 0 4 4 4
p](9o
BDFChar: 110 174 6 5 5 -2 -2
z
BDFChar: 111 175 6 5 5 -2 -2
z
BDFChar: 112 176 6 0 3 4 7
@$$IX
BDFChar: 113 177 6 5 5 -2 -2
z
BDFChar: 114 178 6 5 5 -2 -2
z
BDFChar: 115 179 6 5 5 -2 -2
z
BDFChar: 116 180 6 2 3 7 8
5_&h7
BDFChar: 117 181 6 5 5 -2 -2
z
BDFChar: 118 182 6 5 5 -2 -2
z
BDFChar: 119 183 6 5 5 -2 -2
z
BDFChar: 120 184 6 0 2 -1 0
+M[sW
BDFChar: 121 185 6 5 5 -2 -2
z
BDFChar: 122 186 6 5 5 -2 -2
z
BDFChar: 123 187 6 0 4 1 5
TMR%5TE"rl
BDFChar: 124 188 6 5 5 -2 -2
z
BDFChar: 125 189 6 5 5 -2 -2
z
BDFChar: 126 190 6 5 5 -2 -2
z
BDFChar: 127 191 6 0 4 -1 6
+92Ba5_+Z0
BDFChar: 128 192 6 0 4 1 9
5Tg%L+Ad$5L]@DT
BDFChar: 129 193 6 0 4 1 9
&0Lrq+Ad$5L]@DT
BDFChar: 130 194 6 0 4 1 9
+A`%\+Ad$5L]@DT
BDFChar: 131 195 6 0 4 1 9
BWqIZ+Ad$5L]@DT
BDFChar: 132 196 6 0 4 1 9
:]MU\:f)+eL]@DT
BDFChar: 133 197 6 0 4 1 9
+AblW+Ad$5L]@DT
BDFChar: 134 198 6 0 4 1 7
3&"02E0-Fe
BDFChar: 135 199 6 0 4 -1 7
3'`"EJ3Z(*?iU0,
BDFChar: 136 200 6 0 4 1 9
5Tg(%JFJ)>p](9o
BDFChar: 137 201 6 0 4 1 9
&0LuJJFJ)>p](9o
BDFChar: 138 202 6 0 4 1 9
+A`(5JFJ)>p](9o
BDFChar: 139 203 6 0 4 1 9
:]U9@JFJ)>p](9o
BDFChar: 140 204 6 1 3 1 9
J3X+m5X7S"huE`W
BDFChar: 141 205 6 1 3 1 9
+@#qb5X7S"huE`W
BDFChar: 142 206 6 1 3 1 9
5bJ,85X7S"huE`W
BDFChar: 143 207 6 1 3 1 9
TE*n85X7S"huE`W
BDFChar: 144 208 6 0 4 1 7
n46+685S4E
BDFChar: 145 209 6 0 4 1 9
BWqJmaJbJ^L]@DT
BDFChar: 146 210 6 0 4 1 9
5Tg&GLkpkCDu]k<
BDFChar: 147 211 6 0 4 1 9
&0LslLkpkCDu]k<
BDFChar: 148 212 6 0 4 1 9
+A`&WLkpkCDu]k<
BDFChar: 149 213 6 0 4 1 9
BWqJULkpkCDu]k<
BDFChar: 150 214 6 0 4 1 9
:]PHjLkpkCDu]k<
BDFChar: 151 215 6 1 4 2 5
OC2IX
BDFChar: 152 216 6 0 4 0 8
#]Q/uW6!&!J,fQL
BDFChar: 153 217 6 0 4 1 9
5Tkl=LkpkCDu]k<
BDFChar: 154 218 6 0 4 1 9
&0QdbLkpkCDu]k<
BDFChar: 155 219 6 0 4 1 9
+A`&oLkpkCDu]k<
BDFChar: 156 220 6 0 4 1 9
:]Q<-LkpkCDu]k<
BDFChar: 157 221 6 0 4 1 9
&0Lt/Leo3:+92BA
BDFChar: 158 222 6 0 4 1 7
JFJANM"#op
BDFChar: 159 223 6 0 4 1 7
E/9U[Lkr88
BDFChar: 160 224 6 0 4 1 8
5Tg&G#^D/M
BDFChar: 161 225 6 0 4 1 8
&0Lsl#^D/M
BDFChar: 162 226 6 0 4 1 9
+A`%<E!U]EGQ7^D
BDFChar: 163 227 6 0 4 1 9
BWqI:E!U]EGQ7^D
BDFChar: 164 228 6 0 4 1 7
:]PG?G_gSE
BDFChar: 165 229 6 0 4 1 9
0M!ktE!U]EGQ7^D
BDFChar: 166 230 6 0 4 1 5
fI2!;fDkmO
BDFChar: 167 231 6 0 3 -1 5
E.EIhE$2pr
BDFChar: 168 232 6 0 4 1 8
5Tg&GM"lLF
BDFChar: 169 233 6 0 4 1 8
&0LslM"lLF
BDFChar: 170 234 6 0 4 1 9
+A`%<E/=:>GQ7^D
BDFChar: 171 235 6 0 4 1 7
:]PHjpjdSh
BDFChar: 172 236 6 1 3 1 8
J3X+M5X7Tm
BDFChar: 173 237 6 1 3 1 8
+@#qB5X7Tm
BDFChar: 174 238 6 1 3 1 9
5bJ)W^d(.MhuE`W
BDFChar: 175 239 6 1 3 1 7
TE)bm5X=6-
BDFChar: 176 240 6 0 4 1 9
+?4<OG_h03Du]k<
BDFChar: 177 241 6 0 4 1 9
BWqI:n;)mVL]@DT
BDFChar: 178 242 6 0 4 1 8
5Tg&GLkpk+
BDFChar: 179 243 6 0 4 1 8
&0LslLkpk+
BDFChar: 180 244 6 0 4 1 9
+A`%<E/9=+Du]k<
BDFChar: 181 245 6 0 4 1 9
BWqI:E/9=+Du]k<
BDFChar: 182 246 6 0 4 1 7
:]PHjLkp!M
BDFChar: 183 247 6 0 4 2 6
+9;0:+92BA
BDFChar: 184 248 6 0 4 0 6
#]Q00aDcY0
BDFChar: 185 249 6 0 4 1 8
5Tg&_Lkpk3
BDFChar: 186 250 6 0 4 1 8
&0Lt/Lkpk3
BDFChar: 187 251 6 0 4 1 9
+A`%<LkpkCGQ7^D
BDFChar: 188 252 6 0 4 1 7
:]Q<-Lkp9U
BDFChar: 189 253 6 0 4 -1 8
&0Lt/Lkpk3#]KbD
BDFChar: 190 254 6 0 4 -1 7
J:R-FLktPNJ,fQL
BDFChar: 191 255 6 0 4 -1 7
:]Q<-Lkp9]Du]k<
BDFChar: 192 960 6 5 5 -2 -2
z
BDFChar: 193 2536 6 5 5 -2 -2
z
BDFChar: 194 2537 6 5 5 -2 -2
z
BDFChar: 195 8800 6 5 5 -2 -2
z
BDFChar: 196 8804 6 5 5 -2 -2
z
BDFChar: 197 8805 6 5 5 -2 -2
z
BDFChar: 198 9146 6 5 5 -2 -2
z
BDFChar: 199 9147 6 5 5 -2 -2
z
BDFChar: 200 9148 6 5 5 -2 -2
z
BDFChar: 201 9149 6 5 5 -2 -2
z
BDFChar: 202 9225 6 5 5 -2 -2
z
BDFChar: 203 9226 6 5 5 -2 -2
z
BDFChar: 204 9228 6 5 5 -2 -2
z
BDFChar: 205 9229 6 5 5 -2 -2
z
BDFChar: 206 9472 6 0 5 4 4
qu?]s
BDFChar: 207 9474 6 2 2 -2 9
J:N0#J:N0#J:N0#
BDFChar: 208 9484 6 2 5 -2 4
n:6%>J:N.M
BDFChar: 209 9488 6 0 2 -2 4
i#j-b+<Vd,
BDFChar: 210 9492 6 2 5 4 9
J:N0#JFEO=
BDFChar: 211 9496 6 0 2 4 9
+<VdL+Q*5"
BDFChar: 212 9500 6 2 5 -2 9
J:N0#JFJ)>J:N0#
BDFChar: 213 9508 6 0 2 -2 9
+<VdL+Q+@b+<VdL
BDFChar: 214 9516 6 0 5 -2 4
r#d+)+<Vd,
BDFChar: 215 9524 6 0 5 4 9
+<VdL+T)3>
BDFChar: 216 9532 6 0 5 -2 9
+<VdL+T*?)+<VdL
BDFChar: 217 9618 6 0 5 -2 9
W)T]pW)T]pW)T]p
BDFChar: 218 9642 6 0 5 0 5
r;?Kjr;6Np
BDFChar: 219 9670 6 5 5 -2 -2
z
BDFChar: 220 9698 6 0 5 0 5
":Q84I/EsE
BDFChar: 221 9699 6 0 5 0 5
JAC+4q"t*l
BDFChar: 222 633504 1 10 10 0 0
z
BDFChar: 223 633505 2 12 12 0 0
z
BDFChar: 224 633506 3 14 14 0 0
z
BDFChar: 225 633507 4 14 14 0 0
z
BDFChar: 226 633508 5 16 16 0 0
z
BDFChar: 227 633509 6 11 11 0 0
z
BDFChar: 228 633510 7 9 9 -1 -1
z
BDFChar: 229 633511 8 13 13 0 0
z
BDFChar: 230 633512 9 14 14 0 0
z
BDFChar: 231 633513 10 11 11 0 0
z
BDFChar: 232 633514 10 0 9 0 9
s1lCbhn["Bs1nZMs1nZMs1nZM
BDFChar: 233 633515 10 0 9 0 9
*WR\jF+EnuZbW?O\\NK@0`W6p
BDFChar: 234 633516 10 0 9 0 9
quDMfn3I#hs1nZMs1nZMs1nZM
BDFChar: 235 633517 10 0 9 0 9
rkO(MJq/P?ej-0!J3\WMJ3a.M
BDFChar: 236 633518 10 0 9 0 9
s1j.MZTu&dS3W*"Va.RRJ3a.M
BDFChar: 237 633519 10 0 9 0 9
3'^G.b(-4:N<"5("oo,5%KHb7
BDFChar: 238 633520 2 0 0 -2 9
J:N0#J:N0#J:N0#
BDFChar: 239 10093 6 0 4 1 7
^gJi50OVZr
BDFChar: 240 633521 6 0 5 1 7
r8<rqJ:ROt
BDFChar: 241 633522 6 0 5 1 7
r#B7#"9eW&
BDFChar: 242 9200 6 10 10 0 0
z
BDFChar: 243 9992 6 0 5 -1 8
$kssd<)dOM5_&h7
BDFChar: 244 8225 6 0 0 0 0
z
BDFChar: 245 10070 6 0 0 0 0
z
BDFChar: 246 11105 6 0 0 0 0
z
BDFChar: 247 11014 6 0 5 0 7
0R3LL0JG17
BDFChar: 248 10001 6 0 0 0 0
z
BDFChar: 249 9673 6 0 5 1 6
0M&RX82(#D
BDFChar: 250 10231 6 0 5 2 4
8Gl!Y
BDFChar: 251 11109 6 1 3 1 6
5i=mmi'78B
BDFChar: 252 9640 6 0 5 1 6
r/?l9`;BT8
BDFChar: 253 10024 6 0 5 0 7
5i>0Q#XI<5
BDFChar: 254 10606 6 0 5 0 8
8B==m84Z9F8,rVi
BDFChar: 255 633523 7 0 6 1 7
."'$&`dB07
BDFChar: 256 633524 7 0 6 1 7
Wr@U%K)VbM
BDFChar: 257 633525 7 0 6 1 7
"=!-rl66?2
BDFChar: 258 633526 9 0 2 1 7
?pJ*bi1T!.
BDFChar: 259 633615 10 0 9 0 9
!'ie7@)-,78O2#q^jn3@li=g$
BDFChar: 260 633527 8 0 7 1 7
!s9J]gY:H_
BDFChar: 261 633577 6 0 5 1 7
"=R[E?ml-X
BDFChar: 262 633528 7 0 5 1 8
0`6U2['YMa
BDFChar: 263 633529 8 0 7 0 7
0MI(LIM`J)
BDFChar: 264 633580 12 0 0 0 0
z
BDFChar: 265 633600 8 0 0 0 0
z
BDFChar: 266 633632 8 0 4 2 6
W,VNNVuQet
BDFChar: 267 633633 8 0 7 1 7
'b3H'K7SIO
BDFChar: 268 633635 8 0 6 0 8
+BX;KHpeN6&-)\1
BDFChar: 269 633634 8 0 7 2 6
0MI(LIK0?J
BDFChar: 270 633636 8 0 7 1 8
0MI(LIM`J)
BDFChar: 271 633684 8 0 0 0 0
z
BDFChar: 272 633685 8 0 0 0 0
z
BDFChar: 273 633637 8 0 7 0 7
1X#hTbQ'HC
BDFChar: 274 633638 8 0 5 0 7
5bL@J'M+l^
BDFChar: 275 633687 8 0 0 0 0
z
BDFChar: 276 633688 8 0 7 1 8
0MI(LIO\;H
BDFChar: 277 8736 7 0 5 1 6
#S8+DJG]BI
BDFChar: 278 10097 6 0 5 -1 8
^u0/k*#pqWi4o<m
BDFChar: 279 10095 6 0 4 1 7
^gJi50OVZr
EndBitmapFont
EndSplineFont
