<svg xmlns="http://www.w3.org/2000/svg" width="48" height="48">
<defs>
  <path
     d="M 3.59375 4 C 2.702192 4 2 4.7263438 2 5.625 L 2 42.375 C 2 43.273656 2.702192 44 3.59375 44 L 44.40625 44 C 44.517695 44 44.6138 43.9903 44.71875 43.96875 C 45.453406 43.817988 46 43.161319 46 42.375 L 46 17.5 C 46 16.601344 45.297808 15.875 44.40625 15.875 L 10.03125 15.875 C 9.139693 15.875 8.4375 16.601344 8.4375 17.5 C 8.4375 18.398656 9.139693 19.125 10.03125 19.125 L 42.78125 19.125 L 42.78125 40.75 L 5.21875 40.75 L 5.21875 7.25 L 18.09375 7.25 L 18.09375 12.125 C 18.09375 13.023656 18.795942 13.71875 19.6875 13.71875 L 41.1875 13.71875 C 42.079058 13.71875 42.78125 13.023656 42.78125 12.125 C 42.78125 11.226344 42.079058 10.5 41.1875 10.5 L 21.3125 10.5 L 21.3125 5.625 C 21.3125 4.7263438 20.579057 4 19.6875 4 L 3.59375 4 z M 24.15625 21.375 C 23.448948 21.373901 22.716536 21.450017 22.03125 21.625 C 18.784173 22.402513 16.240999 25.301487 15.78125 28.59375 C 15.279659 31.760197 16.771789 35.105738 19.4375 36.875 C 22.289745 38.847025 26.34148 38.727505 29.125 36.6875 C 31.893409 34.744073 33.245531 31.049719 32.40625 27.78125 C 31.541588 24.095475 27.94083 21.30579 24.15625 21.375 z M 24.03125 21.875 C 24.120006 21.869047 24.224436 21.8629 24.3125 21.875 L 24.34375 21.90625 C 24.721362 22.065227 25.453331 22.158848 25 22.71875 C 24.96895 23.002942 24.86111 23.183803 24.6875 23.3125 C 24.768892 23.32983 24.82049 23.23195 24.90625 23.25 C 25.78424 23.158639 24.528685 24.054892 24.6875 23.3125 C 24.255178 23.632982 23.522573 23.62871 23.1875 24.0625 C 22.788744 25.114097 22.019365 23.681751 22.59375 23.28125 C 22.23087 22.881126 21.875107 22.21923 21.28125 22.6875 C 21.666105 22.735432 21.702021 23.146494 22.09375 23.28125 C 21.995979 24.127168 20.884471 22.465752 20.4375 23.34375 C 20.503722 23.278559 21.252916 23.581144 20.71875 23.75 C 20.51846 23.310359 19.782469 24.062826 19.96875 23.5 C 20.3474 23.377963 20.306319 22.205385 20.5625 22.8125 C 21.011296 22.396264 21.726481 22.17639 22.25 22.125 C 22.799549 22.347092 23.40996 21.916673 24.03125 21.875 z M 28 23.25 C 28.134765 23.43128 29.924415 23.532538 28.6875 23.71875 C 28.603398 24.204859 29.241263 24.120564 29.375 23.6875 C 30.769749 24.867048 31.823031 26.55526 32.1875 28.375 C 32.383209 29.264254 31.596644 28.53519 31.25 28.5625 C 30.535359 27.69422 31.014214 29.464328 31.5625 28.875 C 32.243858 29.502229 31.023868 30.038852 30.65625 30.46875 C 30.883862 30.620992 31.346037 30.366488 31.0625 30.90625 C 30.798699 31.798675 29.85255 32.436364 30.125 33.46875 C 30.702661 34.240107 29.146395 34.321729 29.5625 34.9375 C 29.524757 35.173759 29.204276 35.743876 28.90625 36.0625 C 28.531605 36.202741 27.59234 36.847636 27.75 36 C 27.575945 35.219688 27.106263 34.446149 27.4375 33.625 C 27.290521 33.188714 27.426349 32.560693 27.09375 32.15625 C 27.306434 31.617899 26.891172 31.19619 26.3125 31.28125 C 25.957418 31.63173 25.810016 31.099234 25.46875 31.53125 C 24.975335 31.337618 24.052264 30.306666 24.5 29.65625 C 24.346318 29.011647 24.965502 28.313279 25.40625 27.8125 C 26.039358 27.074682 27.233559 27.341989 27.75 28 C 28.187703 27.442382 29.40799 28.501146 29.4375 27.4375 C 28.899479 27.563205 28.6592 26.85611 28.21875 26.90625 C 28.24715 27.633967 27.80448 26.917393 27.75 26.625 C 27.048413 26.005349 28.116581 27.14586 27.375 27.125 C 27.576626 26.372193 26.428976 26.226029 26.15625 26.875 C 25.935137 27.981206 24.606427 26.738679 25.59375 26.40625 C 26.428408 26.519741 25.30266 25.81106 26 25.78125 C 26.281464 25.417648 26.6934 25.290467 26.875 24.90625 C 27.250124 25.594524 27.898698 24.822848 28.25 24.4375 C 27.843386 24.531805 27.809796 24.079138 28 23.84375 C 27.361089 23.712723 27.615655 24.708537 27.3125 24.9375 C 27.066903 24.289247 26.5094 25.069851 26.5 24.375 C 26.820397 23.907352 27.271365 23.33094 28 23.25 z M 19.375 23.4375 C 19.787178 23.364326 19.967633 23.810279 19.65625 24.0625 C 19.11438 24.350983 18.194342 24.985965 19.3125 25.21875 C 19.499343 25.899769 19.452208 25.20349 19.84375 25.125 C 19.905568 24.666647 20.63754 23.911398 20.65625 24.75 C 21.149371 24.509319 21.072717 25.058413 21.25 25.25 C 22.115907 25.862175 20.011341 25.750048 20.21875 26.03125 C 20.71803 25.88615 21.08161 26.180296 20.46875 26.4375 C 19.793963 26.625055 19.362356 27.138318 19 27.71875 C 18.435866 27.721353 18.740026 28.891514 18.375 28.5 C 17.907376 27.896523 16.675112 28.542255 16.84375 29.3125 C 16.963239 30.159707 17.616197 29.127498 17.8125 29.5 C 17.394 30.071299 18.271941 29.927121 18.09375 30.40625 C 18.282426 31.268324 18.882385 30.552477 19.28125 30.375 C 19.611502 30.911016 20.49447 30.348122 20.53125 31.09375 C 21.005549 31.332997 21.225139 31.841797 21.71875 32.09375 C 22.509816 32.194516 23.104258 32.929558 22.375 33.59375 C 22.533367 34.320801 22.197806 34.888898 21.53125 35.125 C 21.738799 35.935341 20.882002 36.240415 20.625 36.875 C 19.939979 37.218242 19.110732 36.39317 19.625 35.6875 C 19.36213 35.004922 19.666067 34.219537 18.84375 33.8125 C 18.229139 33.206282 18.033806 32.312227 18.53125 31.59375 C 18.960132 30.989499 18.335596 31.122008 18 30.875 C 17.572434 30.092191 16.312861 30.358406 16.0625 29.375 C 16.24899 27.785557 16.868164 26.247693 17.875 25 C 18.191979 24.287029 19.038358 24.095384 19.375 23.4375 z M 25.5625 24.125 C 25.886842 24.076889 26.1209 24.873598 26.125 25.125 C 25.302905 25.745088 25.855383 24.499801 25.5625 24.125 z M 25.125 24.65625 L 25.15625 24.75 C 25.531605 25.402329 24.468462 24.842556 25.125 24.65625 z M 29.40625 28.375 C 29.229728 28.866587 29.80995 29.321101 29.90625 29.8125 C 29.867727 30.131297 30.561661 30.965839 30.40625 30.375 C 30.309645 29.692209 29.888737 28.953366 29.40625 28.375 z "
     id="path-main" />
</defs>
<acyl-settings>
<linearGradient
     id="linearGradient4321">
    <stop
       style="stop-color:#00DEFF;stop-opacity:0.0;"
       offset="1.38777878078e-16"
       id="stop1" />
    <stop
       style="stop-color:#B3DEDE;stop-opacity:1.0;"
       offset="1.38777878078e-16"
       id="stop2" />
  </linearGradient>
<linearGradient
     inkscape:collect="always"
     xlink:href="#linearGradient4321"
     id="acyl_gradient"
     x1="50.0%"
     y1="0.0%"
     x2="50.0%"
     y2="100.0%" />
<filter>
    </filter>
<use id="1" style="fill:url(#acyl_gradient);filter:url(#filter1111)" xlink:href="#path-main" />
</acyl-settings>
</svg>
