<svg xmlns="http://www.w3.org/2000/svg" width="48" height="48">
<defs>
  <path
     d="M 3.59375 4 C 2.702192 4 2 4.7263438 2 5.625 L 2 42.375 C 2 43.273656 2.702192 44 3.59375 44 L 44.40625 44 C 44.517695 44 44.6138 43.9903 44.71875 43.96875 C 45.453406 43.817988 46 43.161319 46 42.375 L 46 17.5 C 46 16.601344 45.297808 15.875 44.40625 15.875 L 10.03125 15.875 C 9.139693 15.875 8.4375 16.601344 8.4375 17.5 C 8.4375 18.398656 9.139693 19.125 10.03125 19.125 L 42.78125 19.125 L 42.78125 40.75 L 5.21875 40.75 L 5.21875 7.25 L 18.09375 7.25 L 18.09375 12.125 C 18.09375 13.023656 18.795942 13.71875 19.6875 13.71875 L 41.1875 13.71875 C 42.079058 13.71875 42.78125 13.023656 42.78125 12.125 C 42.78125 11.226344 42.079058 10.5 41.1875 10.5 L 21.3125 10.5 L 21.3125 5.625 C 21.3125 4.7263438 20.579057 4 19.6875 4 L 3.59375 4 z M 24 21.65625 C 23.384739 21.792796 23.23398 22.488966 22.90625 22.9375 C 20.240317 27.569309 17.560038 32.206709 14.90625 36.84375 C 14.653764 37.375757 15.200416 37.955837 15.75 37.84375 L 32.59375 37.84375 C 33.205454 37.86217 33.501982 37.064777 33.125 36.625 L 24.6875 22 C 24.539448 21.756875 24.279119 21.647079 24 21.65625 z M 24.09375 25.53125 C 24.738055 25.53125 25.25 26.043195 25.25 26.6875 L 25.25 31.46875 C 25.25 32.113055 24.738055 32.625 24.09375 32.625 C 23.449492 32.625 22.9375 32.113055 22.9375 31.46875 L 22.9375 26.6875 C 22.9375 26.043195 23.449492 25.53125 24.09375 25.53125 z M 23.8125 33.5625 L 24.3125 33.5625 C 24.828243 33.5625 25.25 33.984256 25.25 34.5 L 25.25 35 C 25.25 35.515743 24.828243 35.9375 24.3125 35.9375 L 23.8125 35.9375 C 23.296757 35.9375 22.90625 35.515743 22.90625 35 L 22.90625 34.5 C 22.90625 33.984256 23.296757 33.5625 23.8125 33.5625 z "
     id="path-main" />
</defs>
<acyl-settings>
<linearGradient
     id="linearGradient4321">
    <stop
       style="stop-color:#00DEFF;stop-opacity:0.0;"
       offset="1.38777878078e-16"
       id="stop1" />
    <stop
       style="stop-color:#B3DEDE;stop-opacity:1.0;"
       offset="1.38777878078e-16"
       id="stop2" />
  </linearGradient>
<linearGradient
     inkscape:collect="always"
     xlink:href="#linearGradient4321"
     id="acyl_gradient"
     x1="50.0%"
     y1="0.0%"
     x2="50.0%"
     y2="100.0%" />
<filter>
    </filter>
<use id="1" style="fill:url(#acyl_gradient);filter:url(#filter1111)" xlink:href="#path-main" />
</acyl-settings>
</svg>
