<svg xmlns="http://www.w3.org/2000/svg" width="48" height="48">
<defs>
<defs
     id="defs4">
  </defs>
  <g
     inkscape:label="Layer 1"
     inkscape:groupmode="layer"
     id="layer1">
    <path
         d="M 6.625 10 C 4.4437601 10 2.71875 11.855151 2.71875 14.0625 L 2.71875 26.90625 C 2.71875 26.980768 2.7461169 27.051342 2.75 27.125 C 2.7430289 27.304541 2.71875 27.475029 2.71875 27.65625 L 2.71875 40.53125 C 2.7187776 40.807381 2.9426191 41.031222 3.21875 41.03125 L 32.78125 41.03125 C 40.123609 41.03125 46.249999 35.002324 46.25 27.65625 L 46.25 14.8125 C 46.249972 14.536369 46.026131 14.312528 45.75 14.3125 L 43.375 14.3125 L 43.375 14.0625 C 43.375 11.855151 41.64999 10 39.46875 10 L 6.625 10 z M 6.625 12 L 39.46875 12 C 40.527421 12 41.375 12.881546 41.375 14.0625 L 41.375 14.3125 L 15.8125 14.3125 C 11.068956 14.3125 7.0124466 16.838243 4.71875 20.59375 L 4.71875 14.0625 C 4.71875 12.881546 5.5663292 12 6.625 12 z M 18.8125 18.125 C 24.067292 18.125 28.34375 22.432709 28.34375 27.6875 C 28.34375 28.611892 28.216166 29.49717 27.96875 30.34375 C 27.979692 30.349008 27.989137 30.338258 28 30.34375 L 37.46875 34.9375 C 38.367038 35.371862 38.746862 36.445464 38.3125 37.34375 C 37.87814 38.242038 36.773288 38.621863 35.875 38.1875 L 26.40625 33.59375 C 26.368636 33.576335 26.34847 33.550988 26.3125 33.53125 C 24.562443 35.765583 21.857725 37.218752 18.8125 37.21875 C 13.557708 37.218749 9.2499998 32.942294 9.25 27.6875 C 9.25 22.432707 13.557707 18.124999 18.8125 18.125 z M 18.8125 21.125 C 15.183211 21.125 12.25 24.058213 12.25 27.6875 C 12.25 31.316788 15.183211 34.21875 18.8125 34.21875 C 22.441788 34.21875 25.34375 31.31679 25.34375 27.6875 C 25.34375 24.058211 22.441788 21.125 18.8125 21.125 z "
       id="path-main" />
  </g>
</defs>
<acyl-settings>
<linearGradient
     id="linearGradient4321">
    <stop
       style="stop-color:#00DEFF;stop-opacity:0.0;"
       offset="1.38777878078e-16"
       id="stop1" />
    <stop
       style="stop-color:#B3DEDE;stop-opacity:1.0;"
       offset="1.38777878078e-16"
       id="stop2" />
  </linearGradient>
<linearGradient
     inkscape:collect="always"
     xlink:href="#linearGradient4321"
     id="acyl_gradient"
     x1="50.0%"
     y1="0.0%"
     x2="50.0%"
     y2="100.0%" />
<filter>
    </filter>
<use id="1" style="fill:url(#acyl_gradient);filter:url(#filter1111)" xlink:href="#path-main" />
</acyl-settings>
</svg>
