<svg xmlns="http://www.w3.org/2000/svg" width="48" height="48">
<defs>
<defs
     id="defs2385">
  </defs>
  <path
     id="path-main"
     d="M 6.625 10 C 4.4437601 10 2.71875 11.855151 2.71875 14.0625 L 2.71875 26.90625 C 2.71875 26.980768 2.7461169 27.051342 2.75 27.125 C 2.7430289 27.304541 2.71875 27.475029 2.71875 27.65625 L 2.71875 40.53125 C 2.7187776 40.807381 2.9426191 41.031222 3.21875 41.03125 L 32.78125 41.03125 C 40.123609 41.03125 46.249999 35.002324 46.25 27.65625 L 46.25 14.8125 C 46.249972 14.536369 46.026131 14.312528 45.75 14.3125 L 43.375 14.3125 L 43.375 14.0625 C 43.375 11.855151 41.64999 10 39.46875 10 L 6.625 10 z M 6.625 12 L 39.46875 12 C 40.527421 12 41.375 12.881546 41.375 14.0625 L 41.375 14.3125 L 15.8125 14.3125 C 11.068956 14.3125 7.0124466 16.838243 4.71875 20.59375 L 4.71875 14.0625 C 4.71875 12.881546 5.5663292 12 6.625 12 z M 22 17.71875 C 23.342972 17.776024 22.637025 19.59152 23.90625 20.34375 C 24.533139 20.353012 25.13712 20.446126 25.71875 20.59375 C 27.32366 20.144347 26.85021 17.707444 28.9375 18.9375 C 30.93148 20.112521 28.82527 20.835334 28.96875 22.3125 C 29.55352 22.84157 30.05092 23.472374 30.4375 24.15625 C 31.77234 24.557202 32.99996 22.920164 33.5625 25.09375 C 34.11369 27.223485 32.36281 26.469611 31.375 27.375 C 31.37621 27.426905 31.37456 27.47907 31.375 27.53125 C 31.38263 28.351652 31.22304 29.168145 30.96875 29.90625 C 31.65118 31.087725 33.62751 30.806212 32.5 32.71875 C 31.32531 34.71132 30.57266 32.637389 29.09375 32.78125 C 28.58042 33.266102 28.01523 33.701786 27.375 34.03125 C 26.68512 35.451751 28.61127 36.782288 26.3125 37.375 C 23.95304 37.98336 25.14648 35.739691 23.6875 34.875 C 23.044721 34.867485 22.439029 34.777776 21.84375 34.625 C 20.265289 35.090523 20.76526 37.536919 18.6875 36.3125 C 16.69362 35.13748 18.79972 34.383414 18.65625 32.90625 C 18.0523 32.365385 17.51968 31.767019 17.125 31.0625 C 15.80185 30.694844 14.58953 32.282153 14.03125 30.125 C 13.48006 27.995264 15.26219 28.74914 16.25 27.84375 C 16.24763 27.783995 16.25045 27.71637 16.25 27.65625 C 16.24238 26.835847 16.33946 26.081856 16.59375 25.34375 C 15.91132 24.162275 13.96624 24.381291 15.09375 22.46875 C 16.26806 20.476831 16.99081 22.579845 18.46875 22.4375 C 18.99176 21.941237 19.59476 21.521642 20.25 21.1875 C 20.90708 19.775745 18.99519 18.433184 21.28125 17.84375 C 21.45127 17.79991 21.583239 17.76572 21.71875 17.75 C 21.827813 17.737353 21.910469 17.714932 22 17.71875 z M 23.78125 24.71875 C 22.13369 24.732872 20.7978 26.042515 20.8125 27.625 C 20.8272 29.207486 22.196179 30.48287 23.84375 30.46875 C 25.491309 30.454629 26.79595 29.144986 26.78125 27.5625 C 26.76654 25.980015 25.42881 24.70463 23.78125 24.71875 z "
/>
</defs>
<acyl-settings>
<linearGradient
     id="linearGradient4321">
    <stop
       style="stop-color:#00DEFF;stop-opacity:0.0;"
       offset="1.38777878078e-16"
       id="stop1" />
    <stop
       style="stop-color:#B3DEDE;stop-opacity:1.0;"
       offset="1.38777878078e-16"
       id="stop2" />
  </linearGradient>
<linearGradient
     inkscape:collect="always"
     xlink:href="#linearGradient4321"
     id="acyl_gradient"
     x1="50.0%"
     y1="0.0%"
     x2="50.0%"
     y2="100.0%" />
<filter>
    </filter>
<use id="1" style="fill:url(#acyl_gradient);filter:url(#filter1111)" xlink:href="#path-main" />
</acyl-settings>
</svg>
