<svg xmlns="http://www.w3.org/2000/svg" width="48" height="48">
<defs>
  <defs
     id="defs4">
  </defs>
    <path
         d="M 33.751658,3.0118873 17.222342,12.554892 15.735893,9.790096 3.933486,16.598034 l 1.5161782,2.764795 -2.3783188,1.367534 1.7837391,3.091814 -1.8431971,1.040514 -0.5053927,0.29729 0.3864768,0.445935 1.7540101,1.872926 -1.8431971,1.040515 -0.5648507,0.327019 0.4459348,0.416205 12.2780704,12.218613 0.267561,0.267561 0.118916,0.178374 7.134956,-4.132329 0,3.656665 c -0.571928,0.253443 -1.049732,0.723237 -1.278346,1.308076 l -18.2238676,0 c -0.02971,-0.0014 -0.059477,-0.0014 -0.089187,0 -0.5253992,0.02463 -0.9164994,0.485381 -0.8918696,1.010785 0.02463,0.525405 0.4556574,0.916498 0.9810565,0.89187 l 18.3130547,0 C 21.68169,45.453241 22.496521,45.999999 23.4357,46 c 0.939179,10e-7 1.75401,-0.54676 2.140487,-1.337804 l 18.283326,0 c 0.343087,0.0049 0.659451,-0.179327 0.832411,-0.475664 0.172961,-0.296336 0.172961,-0.654992 0,-0.951328 -0.17296,-0.296334 -0.489324,-0.480515 -0.832411,-0.475663 l -18.194139,0 C 25.43676,42.174702 24.958956,41.704907 24.387028,41.451465 l 0,-4.726908 L 46,24.238383 33.751658,3.0118873 z M 5.3307483,24.654589 13.446761,38.627212 3.81457,29.054478 5.6280381,27.984235 6.1334309,27.686945 5.7469541,27.24101 4.0226729,25.397813 5.3307483,24.654589 z"
       id="path-main" />
</defs>
<acyl-settings>
<linearGradient
     id="linearGradient4321">
    <stop
       style="stop-color:#00DEFF;stop-opacity:0.0;"
       offset="1.38777878078e-16"
       id="stop1" />
    <stop
       style="stop-color:#B3DEDE;stop-opacity:1.0;"
       offset="1.38777878078e-16"
       id="stop2" />
  </linearGradient>
<linearGradient
     inkscape:collect="always"
     xlink:href="#linearGradient4321"
     id="acyl_gradient"
     x1="50.0%"
     y1="0.0%"
     x2="50.0%"
     y2="100.0%" />
<filter>
    </filter>
<use id="1" style="fill:url(#acyl_gradient);filter:url(#filter1111)" xlink:href="#path-main" />
</acyl-settings>
</svg>
